<?xml version="1.0" encoding="UTF-8" standalone="no"?>
<svg
   xmlns:dc="http://purl.org/dc/elements/1.1/"
   xmlns:cc="http://creativecommons.org/ns#"
   xmlns:rdf="http://www.w3.org/1999/02/22-rdf-syntax-ns#"
   xmlns:svg="http://www.w3.org/2000/svg"
   xmlns="http://www.w3.org/2000/svg"
   xmlns:xlink="http://www.w3.org/1999/xlink"
   id="svg357"
   version="1.1"
   viewBox="0 0 175.16037 93.07634"
   height="93.07634pt"
   width="175.16037pt">
  <metadata
     id="metadata361">
    <rdf:RDF>
      <cc:Work
         rdf:about="">
        <dc:format>image/svg+xml</dc:format>
        <dc:type
           rdf:resource="http://purl.org/dc/dcmitype/StillImage" />
      </cc:Work>
    </rdf:RDF>
  </metadata>
  <defs
     id="defs58">
    <g
       id="g56">
      <symbol
         style="overflow:visible"
         id="glyph0-0"
         overflow="visible">
        <path
           id="path2"
           d=""
           style="stroke:none" />
      </symbol>
      <symbol
         style="overflow:visible"
         id="glyph0-1"
         overflow="visible">
        <path
           id="path5"
           d="M 1.78125,-1.140625 C 1.390625,-0.484375 1,-0.34375 0.5625,-0.3125 0.4375,-0.296875 0.34375,-0.296875 0.34375,-0.109375 0.34375,-0.046875 0.40625,0 0.484375,0 0.75,0 1.0625,-0.03125 1.328125,-0.03125 c 0.34375,0 0.6875,0.03125 1,0.03125 0.0625,0 0.1875,0 0.1875,-0.1875 0,-0.109375 -0.078125,-0.125 -0.15625,-0.125 -0.21875,-0.015625 -0.46875,-0.09375 -0.46875,-0.34375 0,-0.125 0.0625,-0.234375 0.140625,-0.375 l 0.765625,-1.265625 h 2.5 c 0.015625,0.203125 0.15625,1.5625 0.15625,1.65625 0,0.296875 -0.515625,0.328125 -0.71875,0.328125 C 4.59375,-0.3125 4.5,-0.3125 4.5,-0.109375 4.5,0 4.609375,0 4.640625,0 5.046875,0 5.46875,-0.03125 5.875,-0.03125 6.125,-0.03125 6.765625,0 7.015625,0 7.0625,0 7.1875,0 7.1875,-0.203125 7.1875,-0.3125 7.09375,-0.3125 6.953125,-0.3125 6.34375,-0.3125 6.34375,-0.375 6.3125,-0.671875 l -0.609375,-6.21875 c -0.015625,-0.203125 -0.015625,-0.25 -0.1875,-0.25 -0.15625,0 -0.203125,0.078125 -0.265625,0.171875 z M 2.984375,-2.609375 4.9375,-5.90625 5.265625,-2.609375 Z m 0,0"
           style="stroke:none" />
      </symbol>
      <symbol
         style="overflow:visible"
         id="glyph0-2"
         overflow="visible">
        <path
           id="path8"
           d="m 2.375,-6.8125 c 0,0 0,-0.109375 -0.125,-0.109375 -0.21875,0 -0.953125,0.078125 -1.21875,0.109375 -0.078125,0 -0.1875,0.015625 -0.1875,0.1875 0,0.125 0.09375,0.125 0.25,0.125 0.46875,0 0.484375,0.0625 0.484375,0.171875 0,0.0625 -0.078125,0.40625 -0.125,0.609375 l -0.828125,3.25 c -0.109375,0.5 -0.15625,0.671875 -0.15625,1.015625 0,0.9375 0.53125,1.5625 1.265625,1.5625 1.171875,0 2.40625,-1.484375 2.40625,-2.921875 0,-0.90625 -0.53125,-1.59375 -1.328125,-1.59375 -0.453125,0 -0.875,0.296875 -1.171875,0.59375 z M 1.453125,-3.046875 C 1.5,-3.265625 1.5,-3.28125 1.59375,-3.390625 2.078125,-4.03125 2.53125,-4.1875 2.796875,-4.1875 c 0.359375,0 0.625,0.296875 0.625,0.9375 0,0.59375 -0.328125,1.734375 -0.515625,2.109375 -0.328125,0.671875 -0.78125,1.03125 -1.171875,1.03125 -0.34375,0 -0.671875,-0.265625 -0.671875,-1 0,-0.203125 0,-0.390625 0.15625,-1.015625 z m 0,0"
           style="stroke:none" />
      </symbol>
      <symbol
         style="overflow:visible"
         id="glyph0-3"
         overflow="visible">
        <path
           id="path11"
           d="M 7.0625,-2.328125 C 7.078125,-2.375 7.109375,-2.4375 7.109375,-2.46875 c 0,0 0,-0.109375 -0.125,-0.109375 -0.09375,0 -0.109375,0.0625 -0.125,0.125 C 6.203125,-0.984375 5.84375,-0.3125 4.140625,-0.3125 H 2.6875 c -0.140625,0 -0.171875,0 -0.21875,0 -0.109375,-0.015625 -0.140625,-0.03125 -0.140625,-0.109375 0,-0.03125 0,-0.046875 0.046875,-0.21875 L 3.0625,-3.375 h 0.984375 c 0.84375,0 0.84375,0.21875 0.84375,0.46875 0,0.0625 0,0.1875 -0.0625,0.484375 C 4.8125,-2.375 4.796875,-2.34375 4.796875,-2.3125 c 0,0.046875 0.03125,0.109375 0.125,0.109375 C 5,-2.203125 5.03125,-2.25 5.078125,-2.40625 l 0.5625,-2.328125 c 0,-0.0625 -0.046875,-0.109375 -0.125,-0.109375 -0.078125,0 -0.109375,0.0625 -0.125,0.171875 -0.21875,0.765625 -0.390625,1 -1.3125,1 h -0.9375 l 0.59375,-2.40625 C 3.828125,-6.4375 3.84375,-6.46875 4.28125,-6.46875 H 5.6875 c 1.203125,0 1.515625,0.28125 1.515625,1.109375 0,0.234375 0,0.25 -0.046875,0.53125 0,0.046875 -0.015625,0.125 -0.015625,0.171875 0,0.046875 0.03125,0.125 0.125,0.125 0.109375,0 0.125,-0.0625 0.140625,-0.25 L 7.609375,-6.515625 C 7.640625,-6.78125 7.59375,-6.78125 7.34375,-6.78125 H 2.296875 c -0.1875,0 -0.296875,0 -0.296875,0.203125 0,0.109375 0.09375,0.109375 0.28125,0.109375 0.375,0 0.65625,0 0.65625,0.171875 0,0.046875 0,0.0625 -0.0625,0.25 L 1.5625,-0.78125 c -0.09375,0.390625 -0.109375,0.46875 -0.90625,0.46875 -0.171875,0 -0.28125,0 -0.28125,0.1875 C 0.375,0 0.46875,0 0.65625,0 h 5.171875 c 0.234375,0 0.25,-0.015625 0.3125,-0.171875 z m 0,0"
           style="stroke:none" />
      </symbol>
      <symbol
         style="overflow:visible"
         id="glyph0-4"
         overflow="visible">
        <path
           id="path14"
           d="m 1.90625,-0.53125 c 0,-0.28125 -0.234375,-0.53125 -0.515625,-0.53125 -0.296875,0 -0.53125,0.25 -0.53125,0.53125 C 0.859375,-0.234375 1.09375,0 1.390625,0 1.671875,0 1.90625,-0.234375 1.90625,-0.53125 Z m 0,0"
           style="stroke:none" />
      </symbol>
      <symbol
         style="overflow:visible"
         id="glyph0-5"
         overflow="visible">
        <path
           id="path17"
           d="M 6.328125,-5.765625 C 6.4375,-6.171875 6.609375,-6.46875 7.40625,-6.5 c 0.046875,0 0.171875,-0.015625 0.171875,-0.203125 0,0 0,-0.109375 -0.125,-0.109375 -0.328125,0 -0.6875,0.03125 -1.015625,0.03125 -0.34375,0 -0.71875,-0.03125 -1.046875,-0.03125 -0.0625,0 -0.171875,0 -0.171875,0.203125 C 5.21875,-6.5 5.3125,-6.5 5.390625,-6.5 c 0.578125,0.015625 0.6875,0.21875 0.6875,0.4375 0,0.03125 -0.03125,0.1875 -0.03125,0.203125 l -0.90625,3.5625 C 4.8125,-0.953125 3.65625,-0.09375 2.65625,-0.09375 c -0.671875,0 -1.203125,-0.4375 -1.203125,-1.296875 0,-0.015625 0,-0.328125 0.109375,-0.765625 L 2.515625,-6.046875 C 2.609375,-6.40625 2.625,-6.5 3.359375,-6.5 c 0.265625,0 0.34375,0 0.34375,-0.203125 0,-0.109375 -0.109375,-0.109375 -0.140625,-0.109375 -0.28125,0 -1,0.03125 -1.28125,0.03125 -0.28125,0 -1,-0.03125 -1.28125,-0.03125 -0.078125,0 -0.1875,0 -0.1875,0.203125 C 0.8125,-6.5 0.890625,-6.5 1.09375,-6.5 c 0.015625,0 0.203125,0 0.375,0.015625 0.171875,0.03125 0.265625,0.03125 0.265625,0.171875 0,0.046875 -0.109375,0.46875 -0.171875,0.703125 l -0.21875,0.875 C 1.25,-4.34375 0.78125,-2.46875 0.734375,-2.265625 0.671875,-2 0.671875,-1.84375 0.671875,-1.6875 c 0,1.203125 0.90625,1.90625 1.953125,1.90625 1.25,0 2.484375,-1.125 2.8125,-2.4375 z m 0,0"
           style="stroke:none" />
      </symbol>
      <symbol
         style="overflow:visible"
         id="glyph0-6"
         overflow="visible">
        <path
           id="path20"
           d="m 4.84375,-3.796875 c 0.046875,-0.140625 0.046875,-0.15625 0.046875,-0.234375 0,-0.171875 -0.140625,-0.265625 -0.296875,-0.265625 -0.09375,0 -0.25,0.0625 -0.34375,0.203125 -0.015625,0.0625 -0.109375,0.359375 -0.140625,0.546875 -0.078125,0.25 -0.140625,0.53125 -0.203125,0.796875 l -0.453125,1.796875 c -0.03125,0.140625 -0.46875,0.84375 -1.125,0.84375 -0.5,0 -0.609375,-0.4375 -0.609375,-0.8125 C 1.71875,-1.375 1.890625,-2 2.21875,-2.875 2.375,-3.28125 2.421875,-3.390625 2.421875,-3.59375 c 0,-0.4375 -0.3125,-0.8125 -0.8125,-0.8125 -0.953125,0 -1.3125,1.453125 -1.3125,1.53125 0,0.109375 0.09375,0.109375 0.109375,0.109375 0.109375,0 0.109375,-0.03125 0.15625,-0.1875 0.28125,-0.9375 0.671875,-1.234375 1.015625,-1.234375 0.078125,0 0.25,0 0.25,0.3125 0,0.25 -0.109375,0.515625 -0.171875,0.703125 -0.40625,1.0625 -0.578125,1.625 -0.578125,2.09375 0,0.890625 0.625,1.1875 1.21875,1.1875 0.390625,0 0.71875,-0.171875 1,-0.453125 -0.125,0.515625 -0.25,1.015625 -0.640625,1.546875 -0.265625,0.328125 -0.640625,0.625 -1.09375,0.625 -0.140625,0 -0.59375,-0.03125 -0.765625,-0.421875 0.15625,0 0.296875,0 0.421875,-0.125 C 1.328125,1.203125 1.421875,1.0625 1.421875,0.875 1.421875,0.5625 1.15625,0.53125 1.0625,0.53125 0.828125,0.53125 0.5,0.6875 0.5,1.171875 c 0,0.5 0.4375,0.875 1.0625,0.875 1.015625,0 2.046875,-0.90625 2.328125,-2.03125 z m 0,0"
           style="stroke:none" />
      </symbol>
      <symbol
         style="overflow:visible"
         id="glyph1-0"
         overflow="visible">
        <path
           id="path23"
           d=""
           style="stroke:none" />
      </symbol>
      <symbol
         style="overflow:visible"
         id="glyph1-1"
         overflow="visible">
        <path
           id="path26"
           d="m 2.328125,-4.4375 c 0,-0.1875 0,-0.1875 -0.203125,-0.1875 -0.453125,0.4375 -1.078125,0.4375 -1.359375,0.4375 v 0.25 c 0.15625,0 0.625,0 1,-0.1875 v 3.546875 c 0,0.234375 0,0.328125 -0.6875,0.328125 H 0.8125 V 0 c 0.125,0 0.984375,-0.03125 1.234375,-0.03125 0.21875,0 1.09375,0.03125 1.25,0.03125 V -0.25 H 3.03125 c -0.703125,0 -0.703125,-0.09375 -0.703125,-0.328125 z m 0,0"
           style="stroke:none" />
      </symbol>
      <symbol
         style="overflow:visible"
         id="glyph1-2"
         overflow="visible">
        <path
           id="path29"
           d="M 3.515625,-1.265625 H 3.28125 c -0.015625,0.15625 -0.09375,0.5625 -0.1875,0.625 C 3.046875,-0.59375 2.515625,-0.59375 2.40625,-0.59375 H 1.125 c 0.734375,-0.640625 0.984375,-0.84375 1.390625,-1.171875 0.515625,-0.40625 1,-0.84375 1,-1.5 0,-0.84375 -0.734375,-1.359375 -1.625,-1.359375 -0.859375,0 -1.453125,0.609375 -1.453125,1.25 0,0.34375 0.296875,0.390625 0.375,0.390625 0.15625,0 0.359375,-0.125 0.359375,-0.375 0,-0.125 -0.046875,-0.375 -0.40625,-0.375 C 0.984375,-4.21875 1.453125,-4.375 1.78125,-4.375 c 0.703125,0 1.0625,0.546875 1.0625,1.109375 0,0.609375 -0.4375,1.078125 -0.65625,1.328125 L 0.515625,-0.265625 C 0.4375,-0.203125 0.4375,-0.1875 0.4375,0 h 2.875 z m 0,0"
           style="stroke:none" />
      </symbol>
      <symbol
         style="overflow:visible"
         id="glyph2-0"
         overflow="visible">
        <path
           id="path32"
           d=""
           style="stroke:none" />
      </symbol>
      <symbol
         style="overflow:visible"
         id="glyph2-1"
         overflow="visible">
        <path
           id="path35"
           d="m 2.1875,-4.625 c 0,-0.015625 0.015625,-0.109375 0.015625,-0.109375 0,-0.046875 -0.015625,-0.109375 -0.109375,-0.109375 -0.140625,0 -0.71875,0.0625 -0.890625,0.078125 -0.046875,0 -0.15625,0.015625 -0.15625,0.15625 0,0.09375 0.109375,0.09375 0.1875,0.09375 0.328125,0 0.328125,0.0625 0.328125,0.109375 0,0.046875 -0.015625,0.09375 -0.015625,0.15625 L 0.5625,-0.3125 c -0.046875,0.125 -0.046875,0.140625 -0.046875,0.15625 0,0.109375 0.09375,0.21875 0.25,0.21875 0.1875,0 0.265625,-0.125 0.3125,-0.28125 0.015625,-0.03125 0.3125,-1.265625 0.34375,-1.359375 0.5,0.046875 0.890625,0.21875 0.890625,0.578125 0,0.03125 0,0.0625 -0.015625,0.140625 -0.03125,0.09375 -0.03125,0.140625 -0.03125,0.21875 0,0.484375 0.40625,0.703125 0.75,0.703125 0.671875,0 0.875,-1.046875 0.875,-1.0625 0,-0.09375 -0.078125,-0.09375 -0.109375,-0.09375 -0.09375,0 -0.109375,0.046875 -0.140625,0.171875 C 3.5625,-0.625 3.375,-0.125 3.03125,-0.125 c -0.1875,0 -0.25,-0.171875 -0.25,-0.359375 0,-0.125 0,-0.140625 0.046875,-0.3125 0.015625,-0.03125 0.03125,-0.140625 0.03125,-0.21875 0,-0.625 -0.828125,-0.71875 -1.125,-0.734375 C 1.9375,-1.875 2.1875,-2.109375 2.3125,-2.21875 2.671875,-2.546875 3.015625,-2.875 3.40625,-2.875 c 0.078125,0 0.171875,0.015625 0.234375,0.09375 C 3.34375,-2.734375 3.28125,-2.5 3.28125,-2.390625 c 0,0.140625 0.109375,0.25 0.265625,0.25 0.203125,0 0.40625,-0.15625 0.40625,-0.4375 0,-0.234375 -0.171875,-0.5 -0.53125,-0.5 -0.40625,0 -0.765625,0.296875 -1.125,0.625 C 2,-2.1875 1.78125,-1.96875 1.484375,-1.84375 Z m 0,0"
           style="stroke:none" />
      </symbol>
      <symbol
         style="overflow:visible"
         id="glyph3-0"
         overflow="visible">
        <path
           id="path38"
           d=""
           style="stroke:none" />
      </symbol>
      <symbol
         style="overflow:visible"
         id="glyph3-1"
         overflow="visible">
        <path
           id="path41"
           d="m 3.296875,2.390625 c 0,-0.03125 0,-0.046875 -0.171875,-0.21875 C 1.890625,0.921875 1.5625,-0.96875 1.5625,-2.5 c 0,-1.734375 0.375,-3.46875 1.609375,-4.703125 0.125,-0.125 0.125,-0.140625 0.125,-0.171875 0,-0.078125 -0.03125,-0.109375 -0.09375,-0.109375 -0.109375,0 -1,0.6875 -1.59375,1.953125 -0.5,1.09375 -0.625,2.203125 -0.625,3.03125 0,0.78125 0.109375,1.984375 0.65625,3.125 C 2.25,1.84375 3.09375,2.5 3.203125,2.5 c 0.0625,0 0.09375,-0.03125 0.09375,-0.109375 z m 0,0"
           style="stroke:none" />
      </symbol>
      <symbol
         style="overflow:visible"
         id="glyph3-2"
         overflow="visible">
        <path
           id="path44"
           d="m 2.875,-2.5 c 0,-0.765625 -0.109375,-1.96875 -0.65625,-3.109375 -0.59375,-1.21875 -1.453125,-1.875 -1.546875,-1.875 -0.0625,0 -0.109375,0.046875 -0.109375,0.109375 0,0.03125 0,0.046875 0.1875,0.234375 0.984375,0.984375 1.546875,2.5625 1.546875,4.640625 0,1.71875 -0.359375,3.46875 -1.59375,4.71875 C 0.5625,2.34375 0.5625,2.359375 0.5625,2.390625 0.5625,2.453125 0.609375,2.5 0.671875,2.5 0.765625,2.5 1.671875,1.8125 2.25,0.546875 2.765625,-0.546875 2.875,-1.65625 2.875,-2.5 Z m 0,0"
           style="stroke:none" />
      </symbol>
      <symbol
         style="overflow:visible"
         id="glyph4-0"
         overflow="visible">
        <path
           id="path47"
           d=""
           style="stroke:none" />
      </symbol>
      <symbol
         style="overflow:visible"
         id="glyph4-1"
         overflow="visible">
        <path
           id="path50"
           d="m 4.109375,11.453125 c 0,-0.03125 -0.015625,-0.0625 -0.03125,-0.09375 C 3.625,10.875 2.9375,10.0625 2.515625,8.4375 2.296875,7.53125 2.203125,6.515625 2.203125,5.578125 c 0,-2.625 0.625,-4.453125 1.828125,-5.75 0.078125,-0.09375 0.078125,-0.109375 0.078125,-0.125 C 4.109375,-0.40625 4.03125,-0.40625 4,-0.40625 c -0.15625,0 -0.6875,0.609375 -0.8125,0.75 -1.03125,1.21875 -1.671875,3 -1.671875,5.234375 0,1.40625 0.25,3.40625 1.5625,5.09375 0.09375,0.125 0.734375,0.875 0.921875,0.875 0.03125,0 0.109375,0 0.109375,-0.09375 z m 0,0"
           style="stroke:none" />
      </symbol>
      <symbol
         style="overflow:visible"
         id="glyph4-2"
         overflow="visible">
        <path
           id="path53"
           d="m 3.046875,5.578125 c 0,-1.40625 -0.25,-3.421875 -1.5625,-5.09375 -0.09375,-0.125 -0.75,-0.890625 -0.921875,-0.890625 -0.046875,0 -0.125,0.03125 -0.125,0.109375 0,0.03125 0.015625,0.0625 0.0625,0.09375 C 0.984375,0.3125 1.625,1.125 2.03125,2.71875 2.265625,3.625 2.359375,4.640625 2.359375,5.578125 c 0,1 -0.09375,2.015625 -0.359375,3 -0.375,1.390625 -0.96875,2.1875 -1.46875,2.75 -0.09375,0.09375 -0.09375,0.109375 -0.09375,0.125 0,0.07813 0.078125,0.09375 0.125,0.09375 0.140625,0 0.6875,-0.59375 0.8125,-0.734375 1.015625,-1.21875 1.671875,-3 1.671875,-5.234375 z m 0,0"
           style="stroke:none" />
      </symbol>
    </g>
  </defs>
  <g
     transform="translate(-139.20862,-124.71663)"
     id="surface1">
    <g
       id="g62"
       style="fill:#000000;fill-opacity:1">
      <use
         height="100%"
         width="100%"
         id="use60"
         y="133.17101"
         x="231.741"
         xlink:href="#glyph0-1" />
    </g>
    <path
       id="path64"
       transform="matrix(1,0,0,-1,72,72)"
       d="m 172.39453,-64.757812 v 11.957031"
       style="fill:none;stroke:#000000;stroke-width:0.3985;stroke-linecap:butt;stroke-linejoin:miter;stroke-miterlimit:10;stroke-opacity:1" />
    <g
       id="g68"
       style="fill:#000000;fill-opacity:1">
      <use
         height="100%"
         width="100%"
         id="use66"
         y="133.17101"
         x="300.422"
         xlink:href="#glyph0-2" />
    </g>
    <g
       id="g72"
       style="fill:#000000;fill-opacity:1">
      <use
         height="100%"
         width="100%"
         id="use70"
         y="149.37801"
         x="148.92799"
         xlink:href="#glyph0-3" />
    </g>
    <g
       id="g76"
       style="fill:#000000;fill-opacity:1">
      <use
         height="100%"
         width="100%"
         id="use74"
         y="150.87199"
         x="156.283"
         xlink:href="#glyph1-1" />
    </g>
    <g
       id="g80"
       style="fill:#000000;fill-opacity:1">
      <use
         height="100%"
         width="100%"
         id="use78"
         y="149.37801"
         x="219.91701"
         xlink:href="#glyph0-3" />
    </g>
    <g
       id="g84"
       style="fill:#000000;fill-opacity:1">
      <use
         height="100%"
         width="100%"
         id="use82"
         y="150.87199"
         x="227.272"
         xlink:href="#glyph1-1" />
    </g>
    <g
       id="g88"
       style="fill:#000000;fill-opacity:1">
      <use
         height="100%"
         width="100%"
         id="use86"
         y="149.37801"
         x="231.741"
         xlink:href="#glyph0-1" />
    </g>
    <path
       id="path90"
       transform="matrix(1,0,0,-1,72,72)"
       d="m 172.39453,-80.964844 v 11.957032"
       style="fill:none;stroke:#000000;stroke-width:0.3985;stroke-linecap:butt;stroke-linejoin:miter;stroke-miterlimit:10;stroke-opacity:1" />
    <g
       id="g94"
       style="fill:#000000;fill-opacity:1">
      <use
         height="100%"
         width="100%"
         id="use92"
         y="149.37801"
         x="288.59799"
         xlink:href="#glyph0-3" />
    </g>
    <g
       id="g98"
       style="fill:#000000;fill-opacity:1">
      <use
         height="100%"
         width="100%"
         id="use96"
         y="150.87199"
         x="295.952"
         xlink:href="#glyph1-1" />
    </g>
    <g
       id="g102"
       style="fill:#000000;fill-opacity:1">
      <use
         height="100%"
         width="100%"
         id="use100"
         y="149.37801"
         x="300.42099"
         xlink:href="#glyph0-2" />
    </g>
    <g
       id="g106"
       style="fill:#000000;fill-opacity:1">
      <use
         height="100%"
         width="100%"
         id="use104"
         y="165.58501"
         x="148.92799"
         xlink:href="#glyph0-3" />
    </g>
    <g
       id="g110"
       style="fill:#000000;fill-opacity:1">
      <use
         height="100%"
         width="100%"
         id="use108"
         y="167.07899"
         x="156.283"
         xlink:href="#glyph1-2" />
    </g>
    <g
       id="g114"
       style="fill:#000000;fill-opacity:1">
      <use
         height="100%"
         width="100%"
         id="use112"
         y="165.58501"
         x="208.093"
         xlink:href="#glyph0-3" />
    </g>
    <g
       id="g118"
       style="fill:#000000;fill-opacity:1">
      <use
         height="100%"
         width="100%"
         id="use116"
         y="167.07899"
         x="215.448"
         xlink:href="#glyph1-2" />
    </g>
    <g
       id="g122"
       style="fill:#000000;fill-opacity:1">
      <use
         height="100%"
         width="100%"
         id="use120"
         y="165.58501"
         x="219.91701"
         xlink:href="#glyph0-3" />
    </g>
    <g
       id="g126"
       style="fill:#000000;fill-opacity:1">
      <use
         height="100%"
         width="100%"
         id="use124"
         y="167.07899"
         x="227.272"
         xlink:href="#glyph1-1" />
    </g>
    <g
       id="g130"
       style="fill:#000000;fill-opacity:1">
      <use
         height="100%"
         width="100%"
         id="use128"
         y="165.58501"
         x="231.741"
         xlink:href="#glyph0-1" />
    </g>
    <path
       id="path132"
       transform="matrix(1,0,0,-1,72,72)"
       d="m 172.39453,-97.171875 v 11.957031"
       style="fill:none;stroke:#000000;stroke-width:0.3985;stroke-linecap:butt;stroke-linejoin:miter;stroke-miterlimit:10;stroke-opacity:1" />
    <g
       id="g136"
       style="fill:#000000;fill-opacity:1">
      <use
         height="100%"
         width="100%"
         id="use134"
         y="165.58501"
         x="276.77399"
         xlink:href="#glyph0-3" />
    </g>
    <g
       id="g140"
       style="fill:#000000;fill-opacity:1">
      <use
         height="100%"
         width="100%"
         id="use138"
         y="167.07899"
         x="284.12799"
         xlink:href="#glyph1-2" />
    </g>
    <g
       id="g144"
       style="fill:#000000;fill-opacity:1">
      <use
         height="100%"
         width="100%"
         id="use142"
         y="165.58501"
         x="288.59799"
         xlink:href="#glyph0-3" />
    </g>
    <g
       id="g148"
       style="fill:#000000;fill-opacity:1">
      <use
         height="100%"
         width="100%"
         id="use146"
         y="167.07899"
         x="295.952"
         xlink:href="#glyph1-1" />
    </g>
    <g
       id="g152"
       style="fill:#000000;fill-opacity:1">
      <use
         height="100%"
         width="100%"
         id="use150"
         y="165.58501"
         x="300.42099"
         xlink:href="#glyph0-2" />
    </g>
    <g
       id="g156"
       style="fill:#000000;fill-opacity:1">
      <use
         height="100%"
         width="100%"
         id="use154"
         y="181.79201"
         x="149.028"
         xlink:href="#glyph0-4" />
    </g>
    <g
       id="g160"
       style="fill:#000000;fill-opacity:1">
      <use
         height="100%"
         width="100%"
         id="use158"
         y="181.79201"
         x="153.4494"
         xlink:href="#glyph0-4" />
    </g>
    <g
       id="g164"
       style="fill:#000000;fill-opacity:1">
      <use
         height="100%"
         width="100%"
         id="use162"
         y="181.79201"
         x="157.88077"
         xlink:href="#glyph0-4" />
    </g>
    <g
       id="g168"
       style="fill:#000000;fill-opacity:1">
      <use
         height="100%"
         width="100%"
         id="use166"
         y="181.79201"
         x="227.59"
         xlink:href="#glyph0-4" />
    </g>
    <g
       id="g172"
       style="fill:#000000;fill-opacity:1">
      <use
         height="100%"
         width="100%"
         id="use170"
         y="181.79201"
         x="232.0114"
         xlink:href="#glyph0-4" />
    </g>
    <g
       id="g176"
       style="fill:#000000;fill-opacity:1">
      <use
         height="100%"
         width="100%"
         id="use174"
         y="181.79201"
         x="236.44276"
         xlink:href="#glyph0-4" />
    </g>
    <path
       id="path178"
       transform="matrix(1,0,0,-1,72,72)"
       d="m 172.39453,-113.37891 v 11.95703"
       style="fill:none;stroke:#000000;stroke-width:0.3985;stroke-linecap:butt;stroke-linejoin:miter;stroke-miterlimit:10;stroke-opacity:1" />
    <g
       id="g182"
       style="fill:#000000;fill-opacity:1">
      <use
         height="100%"
         width="100%"
         id="use180"
         y="181.79201"
         x="293.07401"
         xlink:href="#glyph0-4" />
    </g>
    <g
       id="g186"
       style="fill:#000000;fill-opacity:1">
      <use
         height="100%"
         width="100%"
         id="use184"
         y="181.79201"
         x="297.49539"
         xlink:href="#glyph0-4" />
    </g>
    <g
       id="g190"
       style="fill:#000000;fill-opacity:1">
      <use
         height="100%"
         width="100%"
         id="use188"
         y="181.79201"
         x="301.92676"
         xlink:href="#glyph0-4" />
    </g>
    <g
       id="g194"
       style="fill:#000000;fill-opacity:1">
      <use
         height="100%"
         width="100%"
         id="use192"
         y="197.99899"
         x="148.71201"
         xlink:href="#glyph0-3" />
    </g>
    <g
       id="g198"
       style="fill:#000000;fill-opacity:1">
      <use
         height="100%"
         width="100%"
         id="use196"
         y="199.493"
         x="156.067"
         xlink:href="#glyph2-1" />
    </g>
    <g
       id="g202"
       style="fill:#000000;fill-opacity:1">
      <use
         height="100%"
         width="100%"
         id="use200"
         y="197.99899"
         x="180.89301"
         xlink:href="#glyph0-3" />
    </g>
    <g
       id="g206"
       style="fill:#000000;fill-opacity:1">
      <use
         height="100%"
         width="100%"
         id="use204"
         y="199.493"
         x="188.248"
         xlink:href="#glyph2-1" />
    </g>
    <g
       id="g210"
       style="fill:#000000;fill-opacity:1">
      <use
         height="100%"
         width="100%"
         id="use208"
         y="197.99899"
         x="194.81"
         xlink:href="#glyph0-4" />
    </g>
    <g
       id="g214"
       style="fill:#000000;fill-opacity:1">
      <use
         height="100%"
         width="100%"
         id="use212"
         y="197.99899"
         x="199.2314"
         xlink:href="#glyph0-4" />
    </g>
    <g
       id="g218"
       style="fill:#000000;fill-opacity:1">
      <use
         height="100%"
         width="100%"
         id="use216"
         y="197.99899"
         x="203.66277"
         xlink:href="#glyph0-4" />
    </g>
    <g
       id="g222"
       style="fill:#000000;fill-opacity:1">
      <use
         height="100%"
         width="100%"
         id="use220"
         y="197.99899"
         x="208.08417"
         xlink:href="#glyph0-3" />
    </g>
    <g
       id="g226"
       style="fill:#000000;fill-opacity:1">
      <use
         height="100%"
         width="100%"
         id="use224"
         y="199.493"
         x="215.448"
         xlink:href="#glyph1-2" />
    </g>
    <g
       id="g230"
       style="fill:#000000;fill-opacity:1">
      <use
         height="100%"
         width="100%"
         id="use228"
         y="197.99899"
         x="219.91701"
         xlink:href="#glyph0-3" />
    </g>
    <g
       id="g234"
       style="fill:#000000;fill-opacity:1">
      <use
         height="100%"
         width="100%"
         id="use232"
         y="199.493"
         x="227.272"
         xlink:href="#glyph1-1" />
    </g>
    <g
       id="g238"
       style="fill:#000000;fill-opacity:1">
      <use
         height="100%"
         width="100%"
         id="use236"
         y="197.99899"
         x="231.741"
         xlink:href="#glyph0-1" />
    </g>
    <path
       id="path240"
       transform="matrix(1,0,0,-1,72,72)"
       d="m 172.39453,-129.58594 v 11.95703"
       style="fill:none;stroke:#000000;stroke-width:0.3985;stroke-linecap:butt;stroke-linejoin:miter;stroke-miterlimit:10;stroke-opacity:1" />
    <g
       id="g244"
       style="fill:#000000;fill-opacity:1">
      <use
         height="100%"
         width="100%"
         id="use242"
         y="197.99899"
         x="249.57401"
         xlink:href="#glyph0-3" />
    </g>
    <g
       id="g248"
       style="fill:#000000;fill-opacity:1">
      <use
         height="100%"
         width="100%"
         id="use246"
         y="199.493"
         x="256.92801"
         xlink:href="#glyph2-1" />
    </g>
    <g
       id="g252"
       style="fill:#000000;fill-opacity:1">
      <use
         height="100%"
         width="100%"
         id="use250"
         y="197.99899"
         x="263.48999"
         xlink:href="#glyph0-4" />
    </g>
    <g
       id="g256"
       style="fill:#000000;fill-opacity:1">
      <use
         height="100%"
         width="100%"
         id="use254"
         y="197.99899"
         x="267.91141"
         xlink:href="#glyph0-4" />
    </g>
    <g
       id="g260"
       style="fill:#000000;fill-opacity:1">
      <use
         height="100%"
         width="100%"
         id="use258"
         y="197.99899"
         x="272.34277"
         xlink:href="#glyph0-4" />
    </g>
    <g
       id="g264"
       style="fill:#000000;fill-opacity:1">
      <use
         height="100%"
         width="100%"
         id="use262"
         y="197.99899"
         x="276.77414"
         xlink:href="#glyph0-3" />
    </g>
    <g
       id="g268"
       style="fill:#000000;fill-opacity:1">
      <use
         height="100%"
         width="100%"
         id="use266"
         y="199.493"
         x="284.12799"
         xlink:href="#glyph1-2" />
    </g>
    <g
       id="g272"
       style="fill:#000000;fill-opacity:1">
      <use
         height="100%"
         width="100%"
         id="use270"
         y="197.99899"
         x="288.59799"
         xlink:href="#glyph0-3" />
    </g>
    <g
       id="g276"
       style="fill:#000000;fill-opacity:1">
      <use
         height="100%"
         width="100%"
         id="use274"
         y="199.493"
         x="295.952"
         xlink:href="#glyph1-1" />
    </g>
    <g
       id="g280"
       style="fill:#000000;fill-opacity:1">
      <use
         height="100%"
         width="100%"
         id="use278"
         y="197.99899"
         x="300.42099"
         xlink:href="#glyph0-2" />
    </g>
    <g
       id="g284"
       style="fill:#ff0000;fill-opacity:1">
      <use
         height="100%"
         width="100%"
         id="use282"
         y="214.20599"
         x="231.32401"
         xlink:href="#glyph0-5" />
    </g>
    <path
       id="path286"
       transform="matrix(1,0,0,-1,72,72)"
       d="m 172.39453,-145.79297 v 11.95313"
       style="fill:none;stroke:#000000;stroke-width:0.3985;stroke-linecap:butt;stroke-linejoin:miter;stroke-miterlimit:10;stroke-opacity:1" />
    <g
       id="g290"
       style="fill:#ff0000;fill-opacity:1">
      <use
         height="100%"
         width="100%"
         id="use288"
         y="214.20599"
         x="299.45599"
         xlink:href="#glyph0-6" />
    </g>
    <g
       id="g294"
       style="fill:#000000;fill-opacity:1">
      <use
         height="100%"
         width="100%"
         id="use292"
         y="132.201"
         x="170.22"
         xlink:href="#glyph3-1" />
    </g>
    <g
       id="g298"
       style="fill:#000000;fill-opacity:1">
      <use
         height="100%"
         width="100%"
         id="use296"
         y="132.201"
         x="311.49399"
         xlink:href="#glyph3-2" />
    </g>
    <g
       id="g302"
       style="fill:#000000;fill-opacity:1">
      <use
         height="100%"
         width="100%"
         id="use300"
         y="141.086"
         x="169.875"
         xlink:href="#glyph4-1" />
    </g>
    <g
       id="g306"
       style="fill:#000000;fill-opacity:1">
      <use
         height="100%"
         width="100%"
         id="use304"
         y="141.086"
         x="311.14801"
         xlink:href="#glyph4-2" />
    </g>
    <g
       id="g310"
       style="fill:#000000;fill-opacity:1">
      <use
         height="100%"
         width="100%"
         id="use308"
         y="157.293"
         x="169.875"
         xlink:href="#glyph4-1" />
    </g>
    <g
       id="g314"
       style="fill:#000000;fill-opacity:1">
      <use
         height="100%"
         width="100%"
         id="use312"
         y="157.293"
         x="311.14801"
         xlink:href="#glyph4-2" />
    </g>
    <g
       id="g318"
       style="fill:#000000;fill-opacity:1">
      <use
         height="100%"
         width="100%"
         id="use316"
         y="189.70799"
         x="169.875"
         xlink:href="#glyph4-1" />
    </g>
    <g
       id="g322"
       style="fill:#000000;fill-opacity:1">
      <use
         height="100%"
         width="100%"
         id="use320"
         y="189.70799"
         x="311.14801"
         xlink:href="#glyph4-2" />
    </g>
    <g
       id="g326"
       style="fill:#000000;fill-opacity:1">
      <use
         height="100%"
         width="100%"
         id="use324"
         y="141.086"
         x="137.69299"
         xlink:href="#glyph4-1" />
    </g>
    <g
       id="g330"
       style="fill:#000000;fill-opacity:1">
      <use
         height="100%"
         width="100%"
         id="use328"
         y="141.086"
         x="167.418"
         xlink:href="#glyph4-2" />
    </g>
    <g
       id="g334"
       style="fill:#000000;fill-opacity:1">
      <use
         height="100%"
         width="100%"
         id="use332"
         y="157.293"
         x="137.69299"
         xlink:href="#glyph4-1" />
    </g>
    <g
       id="g338"
       style="fill:#000000;fill-opacity:1">
      <use
         height="100%"
         width="100%"
         id="use336"
         y="157.293"
         x="167.418"
         xlink:href="#glyph4-2" />
    </g>
    <g
       id="g342"
       style="fill:#000000;fill-opacity:1">
      <use
         height="100%"
         width="100%"
         id="use340"
         y="189.70799"
         x="137.69299"
         xlink:href="#glyph4-1" />
    </g>
    <g
       id="g346"
       style="fill:#000000;fill-opacity:1">
      <use
         height="100%"
         width="100%"
         id="use344"
         y="189.70799"
         x="167.418"
         xlink:href="#glyph4-2" />
    </g>
    <g
       id="g350"
       style="fill:#000000;fill-opacity:1">
      <use
         height="100%"
         width="100%"
         id="use348"
         y="206.192"
         x="169.875"
         xlink:href="#glyph4-1" />
    </g>
    <g
       id="g354"
       style="fill:#000000;fill-opacity:1">
      <use
         height="100%"
         width="100%"
         id="use352"
         y="206.192"
         x="311.14801"
         xlink:href="#glyph4-2" />
    </g>
  </g>
</svg>
