<?xml version="1.0" encoding="UTF-8" standalone="no"?>
<svg
   xmlns:dc="http://purl.org/dc/elements/1.1/"
   xmlns:cc="http://creativecommons.org/ns#"
   xmlns:rdf="http://www.w3.org/1999/02/22-rdf-syntax-ns#"
   xmlns:svg="http://www.w3.org/2000/svg"
   xmlns="http://www.w3.org/2000/svg"
   xmlns:xlink="http://www.w3.org/1999/xlink"
   id="svg1175"
   version="1.1"
   viewBox="0 0 244.93124 210.06253"
   height="210.06253pt"
   width="244.93124pt">
  <metadata
     id="metadata1179">
    <rdf:RDF>
      <cc:Work
         rdf:about="">
        <dc:format>image/svg+xml</dc:format>
        <dc:type
           rdf:resource="http://purl.org/dc/dcmitype/StillImage" />
      </cc:Work>
    </rdf:RDF>
  </metadata>
  <defs
     id="defs64">
    <g
       id="g62">
      <symbol
         style="overflow:visible"
         id="glyph0-0"
         overflow="visible">
        <path
           id="path2"
           d=""
           style="stroke:none" />
      </symbol>
      <symbol
         style="overflow:visible"
         id="glyph0-1"
         overflow="visible">
        <path
           id="path5"
           d="m 2.9375,-6.375 c 0,-0.25 0,-0.265625 -0.234375,-0.265625 C 2.078125,-6 1.203125,-6 0.890625,-6 v 0.3125 c 0.203125,0 0.78125,0 1.296875,-0.265625 v 5.171875 c 0,0.359375 -0.03125,0.46875 -0.921875,0.46875 h -0.3125 V 0 c 0.34375,-0.03125 1.203125,-0.03125 1.609375,-0.03125 0.390625,0 1.265625,0 1.609375,0.03125 v -0.3125 h -0.3125 c -0.90625,0 -0.921875,-0.109375 -0.921875,-0.46875 z m 0,0"
           style="stroke:none" />
      </symbol>
      <symbol
         style="overflow:visible"
         id="glyph0-2"
         overflow="visible">
        <path
           id="path8"
           d="m 1.265625,-0.765625 1.0625,-1.03125 c 1.546875,-1.375 2.140625,-1.90625 2.140625,-2.90625 0,-1.140625 -0.890625,-1.9375 -2.109375,-1.9375 -1.125,0 -1.859375,0.921875 -1.859375,1.8125 0,0.546875 0.5,0.546875 0.53125,0.546875 0.171875,0 0.515625,-0.109375 0.515625,-0.53125 0,-0.25 -0.1875,-0.515625 -0.53125,-0.515625 -0.078125,0 -0.09375,0 -0.125,0.015625 0.21875,-0.65625 0.765625,-1.015625 1.34375,-1.015625 0.90625,0 1.328125,0.8125 1.328125,1.625 C 3.5625,-3.90625 3.078125,-3.125 2.515625,-2.5 l -1.90625,2.125 C 0.5,-0.265625 0.5,-0.234375 0.5,0 H 4.203125 L 4.46875,-1.734375 H 4.234375 C 4.171875,-1.4375 4.109375,-1 4,-0.84375 3.9375,-0.765625 3.28125,-0.765625 3.0625,-0.765625 Z m 0,0"
           style="stroke:none" />
      </symbol>
      <symbol
         style="overflow:visible"
         id="glyph0-3"
         overflow="visible">
        <path
           id="path11"
           d="m 4.578125,-3.1875 c 0,-0.796875 -0.046875,-1.59375 -0.390625,-2.328125 -0.453125,-0.96875 -1.28125,-1.125 -1.6875,-1.125 -0.609375,0 -1.328125,0.265625 -1.75,1.1875 -0.3125,0.6875 -0.359375,1.46875 -0.359375,2.265625 0,0.75 0.03125,1.640625 0.453125,2.40625 0.421875,0.796875 1.15625,1 1.640625,1 0.53125,0 1.296875,-0.203125 1.734375,-1.15625 0.3125,-0.6875 0.359375,-1.46875 0.359375,-2.25 z M 2.484375,0 C 2.09375,0 1.5,-0.25 1.328125,-1.203125 1.21875,-1.796875 1.21875,-2.71875 1.21875,-3.3125 c 0,-0.640625 0,-1.296875 0.078125,-1.828125 0.1875,-1.1875 0.9375,-1.28125 1.1875,-1.28125 0.328125,0 0.984375,0.1875 1.171875,1.171875 0.109375,0.5625 0.109375,1.3125 0.109375,1.9375 0,0.75 0,1.421875 -0.109375,2.0625 C 3.5,-0.296875 2.9375,0 2.484375,0 Z m 0,0"
           style="stroke:none" />
      </symbol>
      <symbol
         style="overflow:visible"
         id="glyph0-4"
         overflow="visible">
        <path
           id="path14"
           d="m 2.890625,-3.515625 c 0.8125,-0.265625 1.390625,-0.953125 1.390625,-1.75 0,-0.8125 -0.875,-1.375 -1.828125,-1.375 -1,0 -1.765625,0.59375 -1.765625,1.359375 0,0.328125 0.21875,0.515625 0.515625,0.515625 0.296875,0 0.5,-0.21875 0.5,-0.515625 0,-0.484375 -0.46875,-0.484375 -0.609375,-0.484375 0.296875,-0.5 0.953125,-0.625 1.3125,-0.625 0.421875,0 0.96875,0.21875 0.96875,1.109375 0,0.125 -0.03125,0.703125 -0.28125,1.140625 C 2.796875,-3.65625 2.453125,-3.625 2.203125,-3.625 2.125,-3.609375 1.890625,-3.59375 1.8125,-3.59375 c -0.078125,0.015625 -0.140625,0.03125 -0.140625,0.125 0,0.109375 0.0625,0.109375 0.234375,0.109375 h 0.4375 c 0.8125,0 1.1875,0.671875 1.1875,1.65625 0,1.359375 -0.6875,1.640625 -1.125,1.640625 -0.4375,0 -1.1875,-0.171875 -1.53125,-0.75 0.34375,0.046875 0.65625,-0.171875 0.65625,-0.546875 0,-0.359375 -0.265625,-0.5625 -0.546875,-0.5625 -0.25,0 -0.5625,0.140625 -0.5625,0.578125 0,0.90625 0.921875,1.5625 2.015625,1.5625 1.21875,0 2.125,-0.90625 2.125,-1.921875 0,-0.8125 -0.640625,-1.59375 -1.671875,-1.8125 z m 0,0"
           style="stroke:none" />
      </symbol>
      <symbol
         style="overflow:visible"
         id="glyph0-5"
         overflow="visible">
        <path
           id="path17"
           d="m 1.3125,-3.265625 v -0.25 c 0,-2.515625 1.234375,-2.875 1.75,-2.875 0.234375,0 0.65625,0.0625 0.875,0.40625 -0.15625,0 -0.546875,0 -0.546875,0.4375 0,0.3125 0.234375,0.46875 0.453125,0.46875 0.15625,0 0.46875,-0.09375 0.46875,-0.484375 0,-0.59375 -0.4375,-1.078125 -1.265625,-1.078125 -1.28125,0 -2.625,1.28125 -2.625,3.484375 0,2.671875 1.15625,3.375 2.078125,3.375 1.109375,0 2.0625,-0.9375 2.0625,-2.25 0,-1.265625 -0.890625,-2.21875 -2,-2.21875 -0.671875,0 -1.046875,0.5 -1.25,0.984375 z M 2.5,-0.0625 c -0.625,0 -0.921875,-0.59375 -0.984375,-0.75 -0.1875,-0.46875 -0.1875,-1.265625 -0.1875,-1.4375 0,-0.78125 0.328125,-1.78125 1.21875,-1.78125 0.171875,0 0.625,0 0.9375,0.625 0.171875,0.359375 0.171875,0.875 0.171875,1.359375 0,0.484375 0,0.984375 -0.171875,1.34375 C 3.1875,-0.109375 2.734375,-0.0625 2.5,-0.0625 Z m 0,0"
           style="stroke:none" />
      </symbol>
      <symbol
         style="overflow:visible"
         id="glyph0-6"
         overflow="visible">
        <path
           id="path20"
           d="m 1.625,-4.5625 c -0.453125,-0.296875 -0.5,-0.625 -0.5,-0.796875 0,-0.609375 0.65625,-1.03125 1.359375,-1.03125 0.71875,0 1.359375,0.515625 1.359375,1.234375 0,0.578125 -0.390625,1.046875 -0.984375,1.390625 z m 1.453125,0.953125 C 3.796875,-3.984375 4.28125,-4.5 4.28125,-5.15625 c 0,-0.921875 -0.875,-1.484375 -1.78125,-1.484375 -1,0 -1.8125,0.734375 -1.8125,1.671875 0,0.171875 0.015625,0.625 0.4375,1.09375 0.109375,0.109375 0.484375,0.359375 0.734375,0.53125 C 1.28125,-3.046875 0.421875,-2.5 0.421875,-1.5 c 0,1.046875 1.015625,1.71875 2.0625,1.71875 1.125,0 2.078125,-0.828125 2.078125,-1.890625 0,-0.359375 -0.109375,-0.8125 -0.5,-1.234375 C 3.875,-3.109375 3.71875,-3.203125 3.078125,-3.609375 Z m -1,0.421875 1.234375,0.78125 c 0.28125,0.1875 0.75,0.484375 0.75,1.09375 0,0.734375 -0.75,1.25 -1.5625,1.25 -0.859375,0 -1.578125,-0.609375 -1.578125,-1.4375 0,-0.578125 0.3125,-1.21875 1.15625,-1.6875 z m 0,0"
           style="stroke:none" />
      </symbol>
      <symbol
         style="overflow:visible"
         id="glyph0-7"
         overflow="visible">
        <path
           id="path23"
           d="m 4.75,-6.078125 c 0.078125,-0.109375 0.078125,-0.125 0.078125,-0.34375 H 2.40625 c -1.203125,0 -1.234375,-0.125 -1.265625,-0.3125 h -0.25 L 0.5625,-4.6875 h 0.25 c 0.03125,-0.15625 0.109375,-0.78125 0.25,-0.90625 0.0625,-0.0625 0.84375,-0.0625 0.96875,-0.0625 h 2.0625 C 3.984375,-5.5 3.203125,-4.40625 2.984375,-4.078125 2.078125,-2.734375 1.75,-1.34375 1.75,-0.328125 c 0,0.09375 0,0.546875 0.46875,0.546875 0.453125,0 0.453125,-0.453125 0.453125,-0.546875 V -0.84375 c 0,-0.546875 0.03125,-1.09375 0.109375,-1.625 0.046875,-0.234375 0.171875,-1.09375 0.625,-1.703125 z m 0,0"
           style="stroke:none" />
      </symbol>
      <symbol
         style="overflow:visible"
         id="glyph0-8"
         overflow="visible">
        <path
           id="path26"
           d="m 4.46875,-2 c 0,-1.1875 -0.8125,-2.1875 -1.890625,-2.1875 -0.46875,0 -0.90625,0.15625 -1.265625,0.515625 V -5.625 c 0.203125,0.0625 0.53125,0.125 0.84375,0.125 1.234375,0 1.9375,-0.90625 1.9375,-1.03125 0,-0.0625 -0.03125,-0.109375 -0.109375,-0.109375 0,0 -0.03125,0 -0.078125,0.03125 C 3.703125,-6.515625 3.21875,-6.3125 2.546875,-6.3125 2.15625,-6.3125 1.6875,-6.390625 1.21875,-6.59375 1.140625,-6.625 1.125,-6.625 1.109375,-6.625 1,-6.625 1,-6.546875 1,-6.390625 V -3.4375 c 0,0.171875 0,0.25 0.140625,0.25 0.078125,0 0.09375,-0.015625 0.140625,-0.078125 C 1.390625,-3.421875 1.75,-3.96875 2.5625,-3.96875 c 0.515625,0 0.765625,0.453125 0.84375,0.640625 0.15625,0.375 0.1875,0.75 0.1875,1.25 0,0.359375 0,0.953125 -0.25,1.375 C 3.109375,-0.3125 2.734375,-0.0625 2.28125,-0.0625 c -0.71875,0 -1.296875,-0.53125 -1.46875,-1.109375 0.03125,0 0.0625,0.015625 0.171875,0.015625 0.328125,0 0.5,-0.25 0.5,-0.484375 0,-0.25 -0.171875,-0.5 -0.5,-0.5 C 0.84375,-2.140625 0.5,-2.0625 0.5,-1.609375 0.5,-0.75 1.1875,0.21875 2.296875,0.21875 3.453125,0.21875 4.46875,-0.734375 4.46875,-2 Z m 0,0"
           style="stroke:none" />
      </symbol>
      <symbol
         style="overflow:visible"
         id="glyph0-9"
         overflow="visible">
        <path
           id="path29"
           d="m 2.9375,-1.640625 v 0.859375 c 0,0.359375 -0.03125,0.46875 -0.765625,0.46875 H 1.96875 V 0 C 2.375,-0.03125 2.890625,-0.03125 3.3125,-0.03125 c 0.421875,0 0.9375,0 1.359375,0.03125 v -0.3125 h -0.21875 c -0.734375,0 -0.75,-0.109375 -0.75,-0.46875 V -1.640625 H 4.6875 v -0.3125 H 3.703125 v -4.53125 c 0,-0.203125 0,-0.265625 -0.171875,-0.265625 -0.078125,0 -0.109375,0 -0.1875,0.125 l -3.0625,4.671875 v 0.3125 z m 0.046875,-0.3125 H 0.5625 l 2.421875,-3.71875 z m 0,0"
           style="stroke:none" />
      </symbol>
      <symbol
         style="overflow:visible"
         id="glyph0-10"
         overflow="visible">
        <path
           id="path32"
           d="m 3.65625,-3.171875 v 0.328125 c 0,2.328125 -1.03125,2.78125 -1.609375,2.78125 -0.171875,0 -0.71875,-0.015625 -0.984375,-0.359375 0.4375,0 0.515625,-0.28125 0.515625,-0.453125 0,-0.3125 -0.234375,-0.453125 -0.453125,-0.453125 -0.15625,0 -0.453125,0.078125 -0.453125,0.46875 0,0.671875 0.53125,1.078125 1.375,1.078125 1.296875,0 2.515625,-1.359375 2.515625,-3.5 0,-2.6875 -1.15625,-3.359375 -2.046875,-3.359375 -0.546875,0 -1.03125,0.1875 -1.453125,0.625 -0.421875,0.453125 -0.640625,0.875 -0.640625,1.625 0,1.234375 0.875,2.21875 1.984375,2.21875 0.609375,0 1.015625,-0.421875 1.25,-1 z M 2.421875,-2.40625 c -0.15625,0 -0.625,0 -0.921875,-0.625 -0.1875,-0.375 -0.1875,-0.859375 -0.1875,-1.359375 0,-0.53125 0,-1 0.21875,-1.375 0.265625,-0.5 0.640625,-0.625 0.984375,-0.625 0.46875,0 0.796875,0.34375 0.96875,0.78125 0.109375,0.328125 0.15625,0.953125 0.15625,1.40625 0,0.828125 -0.34375,1.796875 -1.21875,1.796875 z m 0,0"
           style="stroke:none" />
      </symbol>
      <symbol
         style="overflow:visible"
         id="glyph1-0"
         overflow="visible">
        <path
           id="path35"
           d=""
           style="stroke:none" />
      </symbol>
      <symbol
         style="overflow:visible"
         id="glyph1-1"
         overflow="visible">
        <path
           id="path38"
           d="m 6.5625,-2.296875 c 0.171875,0 0.359375,0 0.359375,-0.203125 0,-0.1875 -0.1875,-0.1875 -0.359375,-0.1875 H 1.171875 c -0.171875,0 -0.34375,0 -0.34375,0.1875 0,0.203125 0.171875,0.203125 0.34375,0.203125 z m 0,0"
           style="stroke:none" />
      </symbol>
      <symbol
         style="overflow:visible"
         id="glyph2-0"
         overflow="visible">
        <path
           id="path41"
           d=""
           style="stroke:none" />
      </symbol>
      <symbol
         style="overflow:visible"
         id="glyph2-1"
         overflow="visible">
        <path
           id="path44"
           d="M 3.734375,17.640625 C 3.953125,17.640625 4,17.640625 4,17.5 4.03125,10.515625 4.828125,4.71875 8.328125,-0.15625 c 0.0625,-0.09375 0.0625,-0.109375 0.0625,-0.140625 0,-0.09375 -0.0625,-0.09375 -0.21875,-0.09375 -0.171875,0 -0.1875,0 -0.203125,0.015625 -0.046875,0.03125 -1.3125,1.484375 -2.3125,3.5 -1.3125,2.625 -2.140625,5.640625 -2.515625,9.28125 -0.03125,0.296875 -0.234375,2.375 -0.234375,4.734375 v 0.390625 c 0,0.109375 0.0625,0.109375 0.28125,0.109375 z m 0,0"
           style="stroke:none" />
      </symbol>
      <symbol
         style="overflow:visible"
         id="glyph2-2"
         overflow="visible">
        <path
           id="path47"
           d="M 4,0.171875 C 4,-0.09375 4,-0.09375 3.734375,-0.09375 H 3.1875 c -0.28125,0 -0.28125,0 -0.28125,0.265625 V 5.8125 c 0,0.265625 0,0.265625 0.28125,0.265625 H 3.734375 C 4,6.078125 4,6.078125 4,5.8125 Z m 0,0"
           style="stroke:none" />
      </symbol>
      <symbol
         style="overflow:visible"
         id="glyph2-3"
         overflow="visible">
        <path
           id="path50"
           d="m 3.1875,-0.5 c -0.21875,0 -0.28125,0 -0.28125,0.109375 V 0 c 0,6.09375 1.078125,9.65625 1.390625,10.671875 C 4.96875,12.875 6.078125,15.21875 7.75,17.265625 7.890625,17.453125 7.9375,17.5 7.96875,17.515625 8,17.53125 8,17.53125 8.171875,17.53125 c 0.15625,0 0.21875,0 0.21875,-0.09375 0,-0.01563 0,-0.04687 -0.0625,-0.125 C 5.015625,12.703125 4.015625,7.15625 4,-0.359375 4,-0.5 3.953125,-0.5 3.734375,-0.5 Z m 0,0"
           style="stroke:none" />
      </symbol>
      <symbol
         style="overflow:visible"
         id="glyph2-4"
         overflow="visible">
        <path
           id="path53"
           d="M 5.8125,17.140625 C 5.8125,11.0625 4.71875,7.484375 4.421875,6.484375 3.734375,4.265625 2.625,1.9375 0.96875,-0.125 0.8125,-0.296875 0.78125,-0.34375 0.734375,-0.375 c -0.015625,0 -0.03125,-0.015625 -0.1875,-0.015625 -0.140625,0 -0.234375,0 -0.234375,0.09375 0,0.03125 0,0.046875 0.140625,0.234375 3.46875,4.84375 4.234375,10.8125 4.25,17.5625 0,0.140625 0.0625,0.140625 0.28125,0.140625 H 5.53125 c 0.203125,0 0.265625,0 0.28125,-0.109375 z m 0,0"
           style="stroke:none" />
      </symbol>
      <symbol
         style="overflow:visible"
         id="glyph2-5"
         overflow="visible">
        <path
           id="path56"
           d="M 5.8125,0.171875 C 5.8125,-0.09375 5.796875,-0.09375 5.53125,-0.09375 H 4.984375 c -0.265625,0 -0.28125,0 -0.28125,0.265625 V 5.8125 c 0,0.265625 0.015625,0.265625 0.28125,0.265625 H 5.53125 c 0.265625,0 0.28125,0 0.28125,-0.265625 z m 0,0"
           style="stroke:none" />
      </symbol>
      <symbol
         style="overflow:visible"
         id="glyph2-6"
         overflow="visible">
        <path
           id="path59"
           d="M 5.8125,-0.390625 C 5.796875,-0.5 5.734375,-0.5 5.53125,-0.5 H 4.984375 c -0.21875,0 -0.28125,0 -0.28125,0.140625 0,1.03125 -0.015625,3.40625 -0.265625,5.875 C 3.890625,10.671875 2.578125,14.25 0.390625,17.3125 0.3125,17.390625 0.3125,17.421875 0.3125,17.4375 c 0,0.09375 0.09375,0.09375 0.234375,0.09375 0.15625,0 0.1875,0 0.203125,-0.01563 C 0.78125,17.484375 2.046875,16.03125 3.0625,14.03125 4.375,11.390625 5.203125,8.375 5.578125,4.75 5.609375,4.4375 5.8125,2.359375 5.8125,0 Z m 0,0"
           style="stroke:none" />
      </symbol>
    </g>
  </defs>
  <g
     transform="translate(-138.52325,-123.03122)"
     id="surface1">
    <g
       id="g68"
       style="fill:#000000;fill-opacity:1">
      <use
         height="100%"
         width="100%"
         id="use66"
         y="133.17101"
         x="252.763"
         xlink:href="#glyph0-1" />
    </g>
    <g
       id="g72"
       style="fill:#000000;fill-opacity:1">
      <use
         height="100%"
         width="100%"
         id="use70"
         y="133.17101"
         x="275.45599"
         xlink:href="#glyph0-1" />
    </g>
    <g
       id="g76"
       style="fill:#000000;fill-opacity:1">
      <use
         height="100%"
         width="100%"
         id="use74"
         y="133.17101"
         x="290.39999"
         xlink:href="#glyph1-1" />
    </g>
    <g
       id="g80"
       style="fill:#000000;fill-opacity:1">
      <use
         height="100%"
         width="100%"
         id="use78"
         y="133.17101"
         x="298.14899"
         xlink:href="#glyph0-1" />
    </g>
    <g
       id="g84"
       style="fill:#000000;fill-opacity:1">
      <use
         height="100%"
         width="100%"
         id="use82"
         y="133.17101"
         x="313.09201"
         xlink:href="#glyph0-2" />
    </g>
    <g
       id="g88"
       style="fill:#000000;fill-opacity:1">
      <use
         height="100%"
         width="100%"
         id="use86"
         y="133.17101"
         x="328.03601"
         xlink:href="#glyph0-3" />
    </g>
    <path
       id="path90"
       transform="matrix(1,0,0,-1,72,72)"
       d="m 266.19922,-64.757812 v 11.957031"
       style="fill:none;stroke:#000000;stroke-width:0.3985;stroke-linecap:butt;stroke-linejoin:miter;stroke-miterlimit:10;stroke-opacity:1" />
    <g
       id="g94"
       style="fill:#000000;fill-opacity:1">
      <use
         height="100%"
         width="100%"
         id="use92"
         y="133.17101"
         x="348.35999"
         xlink:href="#glyph0-2" />
    </g>
    <g
       id="g98"
       style="fill:#000000;fill-opacity:1">
      <use
         height="100%"
         width="100%"
         id="use96"
         y="133.17101"
         x="368.28601"
         xlink:href="#glyph0-2" />
    </g>
    <g
       id="g102"
       style="fill:#000000;fill-opacity:1">
      <use
         height="100%"
         width="100%"
         id="use100"
         y="145.12601"
         x="252.763"
         xlink:href="#glyph0-1" />
    </g>
    <g
       id="g106"
       style="fill:#000000;fill-opacity:1">
      <use
         height="100%"
         width="100%"
         id="use104"
         y="145.12601"
         x="275.45599"
         xlink:href="#glyph0-2" />
    </g>
    <g
       id="g110"
       style="fill:#000000;fill-opacity:1">
      <use
         height="100%"
         width="100%"
         id="use108"
         y="145.12601"
         x="298.14899"
         xlink:href="#glyph0-3" />
    </g>
    <g
       id="g114"
       style="fill:#000000;fill-opacity:1">
      <use
         height="100%"
         width="100%"
         id="use112"
         y="145.12601"
         x="313.09201"
         xlink:href="#glyph0-4" />
    </g>
    <g
       id="g118"
       style="fill:#000000;fill-opacity:1">
      <use
         height="100%"
         width="100%"
         id="use116"
         y="145.12601"
         x="328.03601"
         xlink:href="#glyph0-1" />
    </g>
    <path
       id="path120"
       transform="matrix(1,0,0,-1,72,72)"
       d="m 266.19922,-76.710938 v 11.953126"
       style="fill:none;stroke:#000000;stroke-width:0.3985;stroke-linecap:butt;stroke-linejoin:miter;stroke-miterlimit:10;stroke-opacity:1" />
    <g
       id="g124"
       style="fill:#000000;fill-opacity:1">
      <use
         height="100%"
         width="100%"
         id="use122"
         y="145.12601"
         x="348.35999"
         xlink:href="#glyph0-5" />
    </g>
    <g
       id="g128"
       style="fill:#000000;fill-opacity:1">
      <use
         height="100%"
         width="100%"
         id="use126"
         y="145.12601"
         x="368.28601"
         xlink:href="#glyph0-5" />
    </g>
    <g
       id="g132"
       style="fill:#000000;fill-opacity:1">
      <use
         height="100%"
         width="100%"
         id="use130"
         y="157.08099"
         x="245.015"
         xlink:href="#glyph1-1" />
    </g>
    <g
       id="g136"
       style="fill:#000000;fill-opacity:1">
      <use
         height="100%"
         width="100%"
         id="use134"
         y="157.08099"
         x="252.763"
         xlink:href="#glyph0-1" />
    </g>
    <g
       id="g140"
       style="fill:#000000;fill-opacity:1">
      <use
         height="100%"
         width="100%"
         id="use138"
         y="157.08099"
         x="275.45599"
         xlink:href="#glyph0-3" />
    </g>
    <g
       id="g144"
       style="fill:#000000;fill-opacity:1">
      <use
         height="100%"
         width="100%"
         id="use142"
         y="157.08099"
         x="298.14899"
         xlink:href="#glyph0-2" />
    </g>
    <g
       id="g148"
       style="fill:#000000;fill-opacity:1">
      <use
         height="100%"
         width="100%"
         id="use146"
         y="157.08099"
         x="313.09201"
         xlink:href="#glyph0-4" />
    </g>
    <g
       id="g152"
       style="fill:#000000;fill-opacity:1">
      <use
         height="100%"
         width="100%"
         id="use150"
         y="157.08099"
         x="328.03601"
         xlink:href="#glyph0-2" />
    </g>
    <path
       id="path154"
       transform="matrix(1,0,0,-1,72,72)"
       d="m 266.19922,-88.667969 v 11.957031"
       style="fill:none;stroke:#000000;stroke-width:0.3985;stroke-linecap:butt;stroke-linejoin:miter;stroke-miterlimit:10;stroke-opacity:1" />
    <g
       id="g158"
       style="fill:#000000;fill-opacity:1">
      <use
         height="100%"
         width="100%"
         id="use156"
         y="157.08099"
         x="348.35999"
         xlink:href="#glyph0-6" />
    </g>
    <g
       id="g162"
       style="fill:#000000;fill-opacity:1">
      <use
         height="100%"
         width="100%"
         id="use160"
         y="157.08099"
         x="368.28601"
         xlink:href="#glyph0-7" />
    </g>
    <g
       id="g166"
       style="fill:#000000;fill-opacity:1">
      <use
         height="100%"
         width="100%"
         id="use164"
         y="169.036"
         x="245.015"
         xlink:href="#glyph1-1" />
    </g>
    <g
       id="g170"
       style="fill:#000000;fill-opacity:1">
      <use
         height="100%"
         width="100%"
         id="use168"
         y="169.036"
         x="252.763"
         xlink:href="#glyph0-2" />
    </g>
    <g
       id="g174"
       style="fill:#000000;fill-opacity:1">
      <use
         height="100%"
         width="100%"
         id="use172"
         y="169.036"
         x="267.707"
         xlink:href="#glyph1-1" />
    </g>
    <g
       id="g178"
       style="fill:#000000;fill-opacity:1">
      <use
         height="100%"
         width="100%"
         id="use176"
         y="169.036"
         x="275.45599"
         xlink:href="#glyph0-1" />
    </g>
    <g
       id="g182"
       style="fill:#000000;fill-opacity:1">
      <use
         height="100%"
         width="100%"
         id="use180"
         y="169.036"
         x="298.14899"
         xlink:href="#glyph0-4" />
    </g>
    <g
       id="g186"
       style="fill:#000000;fill-opacity:1">
      <use
         height="100%"
         width="100%"
         id="use184"
         y="169.036"
         x="313.09201"
         xlink:href="#glyph0-8" />
    </g>
    <g
       id="g190"
       style="fill:#000000;fill-opacity:1">
      <use
         height="100%"
         width="100%"
         id="use188"
         y="169.036"
         x="328.03601"
         xlink:href="#glyph0-4" />
    </g>
    <path
       id="path192"
       transform="matrix(1,0,0,-1,72,72)"
       d="m 266.19922,-100.62109 v 11.953121"
       style="fill:none;stroke:#000000;stroke-width:0.3985;stroke-linecap:butt;stroke-linejoin:miter;stroke-miterlimit:10;stroke-opacity:1" />
    <g
       id="g198"
       style="fill:#000000;fill-opacity:1">
      <use
         height="100%"
         width="100%"
         id="use194"
         y="169.036"
         x="343.38"
         xlink:href="#glyph0-1" />
      <use
         height="100%"
         width="100%"
         id="use196"
         y="169.036"
         x="348.3613"
         xlink:href="#glyph0-2" />
    </g>
    <g
       id="g204"
       style="fill:#000000;fill-opacity:1">
      <use
         height="100%"
         width="100%"
         id="use200"
         y="169.036"
         x="363.30499"
         xlink:href="#glyph0-1" />
      <use
         height="100%"
         width="100%"
         id="use202"
         y="169.036"
         x="368.28629"
         xlink:href="#glyph0-3" />
    </g>
    <g
       id="g208"
       style="fill:#000000;fill-opacity:1">
      <use
         height="100%"
         width="100%"
         id="use206"
         y="186.661"
         x="156.461"
         xlink:href="#glyph0-1" />
    </g>
    <g
       id="g212"
       style="fill:#000000;fill-opacity:1">
      <use
         height="100%"
         width="100%"
         id="use210"
         y="186.661"
         x="179.153"
         xlink:href="#glyph0-3" />
    </g>
    <g
       id="g216"
       style="fill:#000000;fill-opacity:1">
      <use
         height="100%"
         width="100%"
         id="use214"
         y="186.661"
         x="201.84599"
         xlink:href="#glyph0-3" />
    </g>
    <g
       id="g220"
       style="fill:#000000;fill-opacity:1">
      <use
         height="100%"
         width="100%"
         id="use218"
         y="186.661"
         x="216.78999"
         xlink:href="#glyph0-3" />
    </g>
    <g
       id="g224"
       style="fill:#000000;fill-opacity:1">
      <use
         height="100%"
         width="100%"
         id="use222"
         y="186.661"
         x="252.763"
         xlink:href="#glyph0-1" />
    </g>
    <g
       id="g228"
       style="fill:#000000;fill-opacity:1">
      <use
         height="100%"
         width="100%"
         id="use226"
         y="186.661"
         x="275.45599"
         xlink:href="#glyph0-1" />
    </g>
    <g
       id="g232"
       style="fill:#000000;fill-opacity:1">
      <use
         height="100%"
         width="100%"
         id="use230"
         y="186.661"
         x="290.39999"
         xlink:href="#glyph1-1" />
    </g>
    <g
       id="g236"
       style="fill:#000000;fill-opacity:1">
      <use
         height="100%"
         width="100%"
         id="use234"
         y="186.661"
         x="298.14899"
         xlink:href="#glyph0-1" />
    </g>
    <g
       id="g240"
       style="fill:#000000;fill-opacity:1">
      <use
         height="100%"
         width="100%"
         id="use238"
         y="186.661"
         x="313.09201"
         xlink:href="#glyph0-2" />
    </g>
    <g
       id="g244"
       style="fill:#000000;fill-opacity:1">
      <use
         height="100%"
         width="100%"
         id="use242"
         y="186.661"
         x="328.03601"
         xlink:href="#glyph0-3" />
    </g>
    <path
       id="path246"
       transform="matrix(1,0,0,-1,72,72)"
       d="m 266.19922,-118.24609 v 11.95312"
       style="fill:none;stroke:#000000;stroke-width:0.3985;stroke-linecap:butt;stroke-linejoin:miter;stroke-miterlimit:10;stroke-opacity:1" />
    <g
       id="g250"
       style="fill:#000000;fill-opacity:1">
      <use
         height="100%"
         width="100%"
         id="use248"
         y="186.661"
         x="348.35999"
         xlink:href="#glyph0-2" />
    </g>
    <g
       id="g254"
       style="fill:#000000;fill-opacity:1">
      <use
         height="100%"
         width="100%"
         id="use252"
         y="186.661"
         x="368.28601"
         xlink:href="#glyph0-2" />
    </g>
    <g
       id="g258"
       style="fill:#000000;fill-opacity:1">
      <use
         height="100%"
         width="100%"
         id="use256"
         y="198.616"
         x="148.71201"
         xlink:href="#glyph1-1" />
    </g>
    <g
       id="g262"
       style="fill:#000000;fill-opacity:1">
      <use
         height="100%"
         width="100%"
         id="use260"
         y="198.616"
         x="156.461"
         xlink:href="#glyph0-1" />
    </g>
    <g
       id="g266"
       style="fill:#000000;fill-opacity:1">
      <use
         height="100%"
         width="100%"
         id="use264"
         y="198.616"
         x="179.153"
         xlink:href="#glyph0-1" />
    </g>
    <g
       id="g270"
       style="fill:#000000;fill-opacity:1">
      <use
         height="100%"
         width="100%"
         id="use268"
         y="198.616"
         x="201.84599"
         xlink:href="#glyph0-3" />
    </g>
    <g
       id="g274"
       style="fill:#000000;fill-opacity:1">
      <use
         height="100%"
         width="100%"
         id="use272"
         y="198.616"
         x="216.78999"
         xlink:href="#glyph0-3" />
    </g>
    <g
       id="g278"
       style="fill:#000000;fill-opacity:1">
      <use
         height="100%"
         width="100%"
         id="use276"
         y="198.616"
         x="252.763"
         xlink:href="#glyph0-3" />
    </g>
    <g
       id="g282"
       style="fill:#000000;fill-opacity:1">
      <use
         height="100%"
         width="100%"
         id="use280"
         y="198.616"
         x="275.45599"
         xlink:href="#glyph0-1" />
    </g>
    <g
       id="g286"
       style="fill:#000000;fill-opacity:1">
      <use
         height="100%"
         width="100%"
         id="use284"
         y="198.616"
         x="298.14899"
         xlink:href="#glyph0-1" />
    </g>
    <g
       id="g290"
       style="fill:#000000;fill-opacity:1">
      <use
         height="100%"
         width="100%"
         id="use288"
         y="198.616"
         x="313.09201"
         xlink:href="#glyph0-1" />
    </g>
    <g
       id="g294"
       style="fill:#000000;fill-opacity:1">
      <use
         height="100%"
         width="100%"
         id="use292"
         y="198.616"
         x="328.03601"
         xlink:href="#glyph0-1" />
    </g>
    <path
       id="path296"
       transform="matrix(1,0,0,-1,72,72)"
       d="m 266.19922,-130.20312 v 11.95703"
       style="fill:none;stroke:#000000;stroke-width:0.3985;stroke-linecap:butt;stroke-linejoin:miter;stroke-miterlimit:10;stroke-opacity:1" />
    <g
       id="g300"
       style="fill:#000000;fill-opacity:1">
      <use
         height="100%"
         width="100%"
         id="use298"
         y="198.616"
         x="348.35999"
         xlink:href="#glyph0-9" />
    </g>
    <g
       id="g304"
       style="fill:#000000;fill-opacity:1">
      <use
         height="100%"
         width="100%"
         id="use302"
         y="198.616"
         x="368.28601"
         xlink:href="#glyph0-9" />
    </g>
    <g
       id="g308"
       style="fill:#000000;fill-opacity:1">
      <use
         height="100%"
         width="100%"
         id="use306"
         y="210.571"
         x="156.461"
         xlink:href="#glyph0-1" />
    </g>
    <g
       id="g312"
       style="fill:#000000;fill-opacity:1">
      <use
         height="100%"
         width="100%"
         id="use310"
         y="210.571"
         x="179.153"
         xlink:href="#glyph0-3" />
    </g>
    <g
       id="g316"
       style="fill:#000000;fill-opacity:1">
      <use
         height="100%"
         width="100%"
         id="use314"
         y="210.571"
         x="201.84599"
         xlink:href="#glyph0-1" />
    </g>
    <g
       id="g320"
       style="fill:#000000;fill-opacity:1">
      <use
         height="100%"
         width="100%"
         id="use318"
         y="210.571"
         x="216.78999"
         xlink:href="#glyph0-3" />
    </g>
    <g
       id="g324"
       style="fill:#000000;fill-opacity:1">
      <use
         height="100%"
         width="100%"
         id="use322"
         y="210.571"
         x="252.763"
         xlink:href="#glyph0-3" />
    </g>
    <g
       id="g328"
       style="fill:#000000;fill-opacity:1">
      <use
         height="100%"
         width="100%"
         id="use326"
         y="210.571"
         x="275.45599"
         xlink:href="#glyph0-1" />
    </g>
    <g
       id="g332"
       style="fill:#000000;fill-opacity:1">
      <use
         height="100%"
         width="100%"
         id="use330"
         y="210.571"
         x="298.14899"
         xlink:href="#glyph0-1" />
    </g>
    <g
       id="g336"
       style="fill:#000000;fill-opacity:1">
      <use
         height="100%"
         width="100%"
         id="use334"
         y="210.571"
         x="313.09201"
         xlink:href="#glyph0-8" />
    </g>
    <g
       id="g340"
       style="fill:#000000;fill-opacity:1">
      <use
         height="100%"
         width="100%"
         id="use338"
         y="210.571"
         x="328.03601"
         xlink:href="#glyph0-2" />
    </g>
    <path
       id="path342"
       transform="matrix(1,0,0,-1,72,72)"
       d="m 266.19922,-142.15625 v 11.95313"
       style="fill:none;stroke:#000000;stroke-width:0.3985;stroke-linecap:butt;stroke-linejoin:miter;stroke-miterlimit:10;stroke-opacity:1" />
    <g
       id="g348"
       style="fill:#000000;fill-opacity:1">
      <use
         height="100%"
         width="100%"
         id="use344"
         y="210.571"
         x="343.38"
         xlink:href="#glyph0-1" />
      <use
         height="100%"
         width="100%"
         id="use346"
         y="210.571"
         x="348.3613"
         xlink:href="#glyph0-3" />
    </g>
    <g
       id="g352"
       style="fill:#000000;fill-opacity:1">
      <use
         height="100%"
         width="100%"
         id="use350"
         y="210.571"
         x="368.28601"
         xlink:href="#glyph0-10" />
    </g>
    <g
       id="g356"
       style="fill:#000000;fill-opacity:1">
      <use
         height="100%"
         width="100%"
         id="use354"
         y="222.526"
         x="156.461"
         xlink:href="#glyph0-2" />
    </g>
    <g
       id="g360"
       style="fill:#000000;fill-opacity:1">
      <use
         height="100%"
         width="100%"
         id="use358"
         y="222.526"
         x="179.153"
         xlink:href="#glyph0-3" />
    </g>
    <g
       id="g364"
       style="fill:#000000;fill-opacity:1">
      <use
         height="100%"
         width="100%"
         id="use362"
         y="222.526"
         x="201.84599"
         xlink:href="#glyph0-3" />
    </g>
    <g
       id="g368"
       style="fill:#000000;fill-opacity:1">
      <use
         height="100%"
         width="100%"
         id="use366"
         y="222.526"
         x="216.78999"
         xlink:href="#glyph0-1" />
    </g>
    <g
       id="g372"
       style="fill:#000000;fill-opacity:1">
      <use
         height="100%"
         width="100%"
         id="use370"
         y="222.526"
         x="252.763"
         xlink:href="#glyph0-3" />
    </g>
    <g
       id="g376"
       style="fill:#000000;fill-opacity:1">
      <use
         height="100%"
         width="100%"
         id="use374"
         y="222.526"
         x="275.45599"
         xlink:href="#glyph0-1" />
    </g>
    <g
       id="g380"
       style="fill:#000000;fill-opacity:1">
      <use
         height="100%"
         width="100%"
         id="use378"
         y="222.526"
         x="298.14899"
         xlink:href="#glyph0-1" />
    </g>
    <g
       id="g384"
       style="fill:#000000;fill-opacity:1">
      <use
         height="100%"
         width="100%"
         id="use382"
         y="222.526"
         x="313.09201"
         xlink:href="#glyph0-10" />
    </g>
    <g
       id="g388"
       style="fill:#000000;fill-opacity:1">
      <use
         height="100%"
         width="100%"
         id="use386"
         y="222.526"
         x="328.03601"
         xlink:href="#glyph0-4" />
    </g>
    <path
       id="path390"
       transform="matrix(1,0,0,-1,72,72)"
       d="m 266.19922,-154.11328 v 11.95703"
       style="fill:none;stroke:#000000;stroke-width:0.3985;stroke-linecap:butt;stroke-linejoin:miter;stroke-miterlimit:10;stroke-opacity:1" />
    <g
       id="g396"
       style="fill:#000000;fill-opacity:1">
      <use
         height="100%"
         width="100%"
         id="use392"
         y="222.526"
         x="343.38"
         xlink:href="#glyph0-1" />
      <use
         height="100%"
         width="100%"
         id="use394"
         y="222.526"
         x="348.3613"
         xlink:href="#glyph0-5" />
    </g>
    <g
       id="g402"
       style="fill:#000000;fill-opacity:1">
      <use
         height="100%"
         width="100%"
         id="use398"
         y="222.526"
         x="363.30499"
         xlink:href="#glyph0-1" />
      <use
         height="100%"
         width="100%"
         id="use400"
         y="222.526"
         x="368.28629"
         xlink:href="#glyph0-9" />
    </g>
    <g
       id="g406"
       style="fill:#000000;fill-opacity:1">
      <use
         height="100%"
         width="100%"
         id="use404"
         y="240.14999"
         x="156.461"
         xlink:href="#glyph0-1" />
    </g>
    <g
       id="g410"
       style="fill:#000000;fill-opacity:1">
      <use
         height="100%"
         width="100%"
         id="use408"
         y="240.14999"
         x="179.153"
         xlink:href="#glyph0-3" />
    </g>
    <g
       id="g414"
       style="fill:#000000;fill-opacity:1">
      <use
         height="100%"
         width="100%"
         id="use412"
         y="240.14999"
         x="201.84599"
         xlink:href="#glyph0-3" />
    </g>
    <g
       id="g418"
       style="fill:#000000;fill-opacity:1">
      <use
         height="100%"
         width="100%"
         id="use416"
         y="240.14999"
         x="216.78999"
         xlink:href="#glyph0-3" />
    </g>
    <g
       id="g422"
       style="fill:#000000;fill-opacity:1">
      <use
         height="100%"
         width="100%"
         id="use420"
         y="240.14999"
         x="252.763"
         xlink:href="#glyph0-1" />
    </g>
    <g
       id="g426"
       style="fill:#000000;fill-opacity:1">
      <use
         height="100%"
         width="100%"
         id="use424"
         y="240.14999"
         x="275.45599"
         xlink:href="#glyph0-1" />
    </g>
    <g
       id="g430"
       style="fill:#000000;fill-opacity:1">
      <use
         height="100%"
         width="100%"
         id="use428"
         y="240.14999"
         x="290.39999"
         xlink:href="#glyph1-1" />
    </g>
    <g
       id="g434"
       style="fill:#000000;fill-opacity:1">
      <use
         height="100%"
         width="100%"
         id="use432"
         y="240.14999"
         x="298.14899"
         xlink:href="#glyph0-1" />
    </g>
    <g
       id="g438"
       style="fill:#000000;fill-opacity:1">
      <use
         height="100%"
         width="100%"
         id="use436"
         y="240.14999"
         x="313.09201"
         xlink:href="#glyph0-2" />
    </g>
    <g
       id="g442"
       style="fill:#000000;fill-opacity:1">
      <use
         height="100%"
         width="100%"
         id="use440"
         y="240.14999"
         x="328.03601"
         xlink:href="#glyph0-3" />
    </g>
    <path
       id="path444"
       transform="matrix(1,0,0,-1,72,72)"
       d="m 266.19922,-171.73828 v 11.95703"
       style="fill:none;stroke:#000000;stroke-width:0.3985;stroke-linecap:butt;stroke-linejoin:miter;stroke-miterlimit:10;stroke-opacity:1" />
    <g
       id="g448"
       style="fill:#000000;fill-opacity:1">
      <use
         height="100%"
         width="100%"
         id="use446"
         y="240.14999"
         x="348.35999"
         xlink:href="#glyph0-2" />
    </g>
    <g
       id="g452"
       style="fill:#000000;fill-opacity:1">
      <use
         height="100%"
         width="100%"
         id="use450"
         y="240.14999"
         x="368.28601"
         xlink:href="#glyph0-2" />
    </g>
    <g
       id="g456"
       style="fill:#000000;fill-opacity:1">
      <use
         height="100%"
         width="100%"
         id="use454"
         y="252.106"
         x="156.461"
         xlink:href="#glyph0-3" />
    </g>
    <g
       id="g460"
       style="fill:#000000;fill-opacity:1">
      <use
         height="100%"
         width="100%"
         id="use458"
         y="252.106"
         x="179.153"
         xlink:href="#glyph0-1" />
    </g>
    <g
       id="g464"
       style="fill:#000000;fill-opacity:1">
      <use
         height="100%"
         width="100%"
         id="use462"
         y="252.106"
         x="201.84599"
         xlink:href="#glyph0-3" />
    </g>
    <g
       id="g468"
       style="fill:#000000;fill-opacity:1">
      <use
         height="100%"
         width="100%"
         id="use466"
         y="252.106"
         x="216.78999"
         xlink:href="#glyph0-3" />
    </g>
    <g
       id="g472"
       style="fill:#000000;fill-opacity:1">
      <use
         height="100%"
         width="100%"
         id="use470"
         y="252.106"
         x="252.763"
         xlink:href="#glyph0-3" />
    </g>
    <g
       id="g476"
       style="fill:#000000;fill-opacity:1">
      <use
         height="100%"
         width="100%"
         id="use474"
         y="252.106"
         x="275.45599"
         xlink:href="#glyph0-1" />
    </g>
    <g
       id="g480"
       style="fill:#000000;fill-opacity:1">
      <use
         height="100%"
         width="100%"
         id="use478"
         y="252.106"
         x="298.14899"
         xlink:href="#glyph0-1" />
    </g>
    <g
       id="g484"
       style="fill:#000000;fill-opacity:1">
      <use
         height="100%"
         width="100%"
         id="use482"
         y="252.106"
         x="313.09201"
         xlink:href="#glyph0-1" />
    </g>
    <g
       id="g488"
       style="fill:#000000;fill-opacity:1">
      <use
         height="100%"
         width="100%"
         id="use486"
         y="252.106"
         x="328.03601"
         xlink:href="#glyph0-1" />
    </g>
    <path
       id="path490"
       transform="matrix(1,0,0,-1,72,72)"
       d="m 266.19922,-183.69141 v 11.95313"
       style="fill:none;stroke:#000000;stroke-width:0.3985;stroke-linecap:butt;stroke-linejoin:miter;stroke-miterlimit:10;stroke-opacity:1" />
    <g
       id="g494"
       style="fill:#000000;fill-opacity:1">
      <use
         height="100%"
         width="100%"
         id="use492"
         y="252.106"
         x="348.35999"
         xlink:href="#glyph0-9" />
    </g>
    <g
       id="g498"
       style="fill:#000000;fill-opacity:1">
      <use
         height="100%"
         width="100%"
         id="use496"
         y="252.106"
         x="368.28601"
         xlink:href="#glyph0-9" />
    </g>
    <g
       id="g502"
       style="fill:#000000;fill-opacity:1">
      <use
         height="100%"
         width="100%"
         id="use500"
         y="264.061"
         x="156.461"
         xlink:href="#glyph0-3" />
    </g>
    <g
       id="g506"
       style="fill:#000000;fill-opacity:1">
      <use
         height="100%"
         width="100%"
         id="use504"
         y="264.061"
         x="171.405"
         xlink:href="#glyph1-1" />
    </g>
    <g
       id="g510"
       style="fill:#000000;fill-opacity:1">
      <use
         height="100%"
         width="100%"
         id="use508"
         y="264.061"
         x="179.15401"
         xlink:href="#glyph0-1" />
    </g>
    <g
       id="g514"
       style="fill:#000000;fill-opacity:1">
      <use
         height="100%"
         width="100%"
         id="use512"
         y="264.061"
         x="201.84599"
         xlink:href="#glyph0-1" />
    </g>
    <g
       id="g518"
       style="fill:#000000;fill-opacity:1">
      <use
         height="100%"
         width="100%"
         id="use516"
         y="264.061"
         x="216.78999"
         xlink:href="#glyph0-3" />
    </g>
    <g
       id="g522"
       style="fill:#000000;fill-opacity:1">
      <use
         height="100%"
         width="100%"
         id="use520"
         y="264.061"
         x="252.763"
         xlink:href="#glyph0-3" />
    </g>
    <g
       id="g526"
       style="fill:#000000;fill-opacity:1">
      <use
         height="100%"
         width="100%"
         id="use524"
         y="264.061"
         x="275.45599"
         xlink:href="#glyph0-3" />
    </g>
    <g
       id="g530"
       style="fill:#000000;fill-opacity:1">
      <use
         height="100%"
         width="100%"
         id="use528"
         y="264.061"
         x="298.14899"
         xlink:href="#glyph0-3" />
    </g>
    <g
       id="g534"
       style="fill:#000000;fill-opacity:1">
      <use
         height="100%"
         width="100%"
         id="use532"
         y="264.061"
         x="313.09201"
         xlink:href="#glyph0-9" />
    </g>
    <g
       id="g538"
       style="fill:#000000;fill-opacity:1">
      <use
         height="100%"
         width="100%"
         id="use536"
         y="264.061"
         x="328.03601"
         xlink:href="#glyph0-1" />
    </g>
    <path
       id="path540"
       transform="matrix(1,0,0,-1,72,72)"
       d="m 266.19922,-195.64844 v 11.95703"
       style="fill:none;stroke:#000000;stroke-width:0.3985;stroke-linecap:butt;stroke-linejoin:miter;stroke-miterlimit:10;stroke-opacity:1" />
    <g
       id="g544"
       style="fill:#000000;fill-opacity:1">
      <use
         height="100%"
         width="100%"
         id="use542"
         y="264.061"
         x="348.35999"
         xlink:href="#glyph0-5" />
    </g>
    <g
       id="g548"
       style="fill:#000000;fill-opacity:1">
      <use
         height="100%"
         width="100%"
         id="use546"
         y="264.061"
         x="368.28601"
         xlink:href="#glyph0-8" />
    </g>
    <g
       id="g552"
       style="fill:#000000;fill-opacity:1">
      <use
         height="100%"
         width="100%"
         id="use550"
         y="276.01599"
         x="156.461"
         xlink:href="#glyph0-3" />
    </g>
    <g
       id="g556"
       style="fill:#000000;fill-opacity:1">
      <use
         height="100%"
         width="100%"
         id="use554"
         y="276.01599"
         x="171.405"
         xlink:href="#glyph1-1" />
    </g>
    <g
       id="g560"
       style="fill:#000000;fill-opacity:1">
      <use
         height="100%"
         width="100%"
         id="use558"
         y="276.01599"
         x="179.15401"
         xlink:href="#glyph0-1" />
    </g>
    <g
       id="g564"
       style="fill:#000000;fill-opacity:1">
      <use
         height="100%"
         width="100%"
         id="use562"
         y="276.01599"
         x="201.84599"
         xlink:href="#glyph0-3" />
    </g>
    <g
       id="g568"
       style="fill:#000000;fill-opacity:1">
      <use
         height="100%"
         width="100%"
         id="use566"
         y="276.01599"
         x="216.78999"
         xlink:href="#glyph0-1" />
    </g>
    <g
       id="g572"
       style="fill:#000000;fill-opacity:1">
      <use
         height="100%"
         width="100%"
         id="use570"
         y="276.01599"
         x="252.763"
         xlink:href="#glyph0-3" />
    </g>
    <g
       id="g576"
       style="fill:#000000;fill-opacity:1">
      <use
         height="100%"
         width="100%"
         id="use574"
         y="276.01599"
         x="275.45599"
         xlink:href="#glyph0-3" />
    </g>
    <g
       id="g580"
       style="fill:#000000;fill-opacity:1">
      <use
         height="100%"
         width="100%"
         id="use578"
         y="276.01599"
         x="298.14899"
         xlink:href="#glyph0-3" />
    </g>
    <g
       id="g584"
       style="fill:#000000;fill-opacity:1">
      <use
         height="100%"
         width="100%"
         id="use582"
         y="276.01599"
         x="313.09201"
         xlink:href="#glyph0-6" />
    </g>
    <g
       id="g588"
       style="fill:#000000;fill-opacity:1">
      <use
         height="100%"
         width="100%"
         id="use586"
         y="276.01599"
         x="328.03601"
         xlink:href="#glyph0-2" />
    </g>
    <path
       id="path590"
       transform="matrix(1,0,0,-1,72,72)"
       d="m 266.19922,-207.60156 v 11.95312"
       style="fill:none;stroke:#000000;stroke-width:0.3985;stroke-linecap:butt;stroke-linejoin:miter;stroke-miterlimit:10;stroke-opacity:1" />
    <g
       id="g596"
       style="fill:#000000;fill-opacity:1">
      <use
         height="100%"
         width="100%"
         id="use592"
         y="276.01599"
         x="343.38"
         xlink:href="#glyph0-1" />
      <use
         height="100%"
         width="100%"
         id="use594"
         y="276.01599"
         x="348.3613"
         xlink:href="#glyph0-2" />
    </g>
    <g
       id="g602"
       style="fill:#000000;fill-opacity:1">
      <use
         height="100%"
         width="100%"
         id="use598"
         y="276.01599"
         x="363.30499"
         xlink:href="#glyph0-1" />
      <use
         height="100%"
         width="100%"
         id="use600"
         y="276.01599"
         x="368.28629"
         xlink:href="#glyph0-3" />
    </g>
    <g
       id="g606"
       style="fill:#000000;fill-opacity:1">
      <use
         height="100%"
         width="100%"
         id="use604"
         y="293.64001"
         x="156.461"
         xlink:href="#glyph0-1" />
    </g>
    <g
       id="g610"
       style="fill:#000000;fill-opacity:1">
      <use
         height="100%"
         width="100%"
         id="use608"
         y="293.64001"
         x="179.153"
         xlink:href="#glyph0-3" />
    </g>
    <g
       id="g614"
       style="fill:#000000;fill-opacity:1">
      <use
         height="100%"
         width="100%"
         id="use612"
         y="293.64001"
         x="201.84599"
         xlink:href="#glyph0-3" />
    </g>
    <g
       id="g618"
       style="fill:#000000;fill-opacity:1">
      <use
         height="100%"
         width="100%"
         id="use616"
         y="293.64001"
         x="216.78999"
         xlink:href="#glyph0-3" />
    </g>
    <g
       id="g622"
       style="fill:#000000;fill-opacity:1">
      <use
         height="100%"
         width="100%"
         id="use620"
         y="293.64001"
         x="252.763"
         xlink:href="#glyph0-1" />
    </g>
    <g
       id="g626"
       style="fill:#000000;fill-opacity:1">
      <use
         height="100%"
         width="100%"
         id="use624"
         y="293.64001"
         x="275.45599"
         xlink:href="#glyph0-1" />
    </g>
    <g
       id="g630"
       style="fill:#000000;fill-opacity:1">
      <use
         height="100%"
         width="100%"
         id="use628"
         y="293.64001"
         x="290.39999"
         xlink:href="#glyph1-1" />
    </g>
    <g
       id="g634"
       style="fill:#000000;fill-opacity:1">
      <use
         height="100%"
         width="100%"
         id="use632"
         y="293.64001"
         x="298.14899"
         xlink:href="#glyph0-1" />
    </g>
    <g
       id="g638"
       style="fill:#000000;fill-opacity:1">
      <use
         height="100%"
         width="100%"
         id="use636"
         y="293.64001"
         x="313.09201"
         xlink:href="#glyph0-2" />
    </g>
    <g
       id="g642"
       style="fill:#000000;fill-opacity:1">
      <use
         height="100%"
         width="100%"
         id="use640"
         y="293.64001"
         x="328.03601"
         xlink:href="#glyph0-3" />
    </g>
    <path
       id="path644"
       transform="matrix(1,0,0,-1,72,72)"
       d="m 266.19922,-225.22656 v 11.95312"
       style="fill:none;stroke:#000000;stroke-width:0.3985;stroke-linecap:butt;stroke-linejoin:miter;stroke-miterlimit:10;stroke-opacity:1" />
    <g
       id="g648"
       style="fill:#000000;fill-opacity:1">
      <use
         height="100%"
         width="100%"
         id="use646"
         y="293.64001"
         x="348.35999"
         xlink:href="#glyph0-2" />
    </g>
    <g
       id="g652"
       style="fill:#000000;fill-opacity:1">
      <use
         height="100%"
         width="100%"
         id="use650"
         y="293.64001"
         x="368.28601"
         xlink:href="#glyph0-2" />
    </g>
    <g
       id="g656"
       style="fill:#000000;fill-opacity:1">
      <use
         height="100%"
         width="100%"
         id="use654"
         y="305.59601"
         x="156.461"
         xlink:href="#glyph0-3" />
    </g>
    <g
       id="g660"
       style="fill:#000000;fill-opacity:1">
      <use
         height="100%"
         width="100%"
         id="use658"
         y="305.59601"
         x="179.153"
         xlink:href="#glyph0-1" />
    </g>
    <g
       id="g664"
       style="fill:#000000;fill-opacity:1">
      <use
         height="100%"
         width="100%"
         id="use662"
         y="305.59601"
         x="201.84599"
         xlink:href="#glyph0-3" />
    </g>
    <g
       id="g668"
       style="fill:#000000;fill-opacity:1">
      <use
         height="100%"
         width="100%"
         id="use666"
         y="305.59601"
         x="216.78999"
         xlink:href="#glyph0-3" />
    </g>
    <g
       id="g672"
       style="fill:#000000;fill-opacity:1">
      <use
         height="100%"
         width="100%"
         id="use670"
         y="305.59601"
         x="252.763"
         xlink:href="#glyph0-3" />
    </g>
    <g
       id="g676"
       style="fill:#000000;fill-opacity:1">
      <use
         height="100%"
         width="100%"
         id="use674"
         y="305.59601"
         x="275.45599"
         xlink:href="#glyph0-1" />
    </g>
    <g
       id="g680"
       style="fill:#000000;fill-opacity:1">
      <use
         height="100%"
         width="100%"
         id="use678"
         y="305.59601"
         x="298.14899"
         xlink:href="#glyph0-1" />
    </g>
    <g
       id="g684"
       style="fill:#000000;fill-opacity:1">
      <use
         height="100%"
         width="100%"
         id="use682"
         y="305.59601"
         x="313.09201"
         xlink:href="#glyph0-1" />
    </g>
    <g
       id="g688"
       style="fill:#000000;fill-opacity:1">
      <use
         height="100%"
         width="100%"
         id="use686"
         y="305.59601"
         x="328.03601"
         xlink:href="#glyph0-1" />
    </g>
    <path
       id="path690"
       transform="matrix(1,0,0,-1,72,72)"
       d="m 266.19922,-237.18359 v 11.95703"
       style="fill:none;stroke:#000000;stroke-width:0.3985;stroke-linecap:butt;stroke-linejoin:miter;stroke-miterlimit:10;stroke-opacity:1" />
    <g
       id="g694"
       style="fill:#000000;fill-opacity:1">
      <use
         height="100%"
         width="100%"
         id="use692"
         y="305.59601"
         x="348.35999"
         xlink:href="#glyph0-9" />
    </g>
    <g
       id="g698"
       style="fill:#000000;fill-opacity:1">
      <use
         height="100%"
         width="100%"
         id="use696"
         y="305.59601"
         x="368.28601"
         xlink:href="#glyph0-9" />
    </g>
    <g
       id="g702"
       style="fill:#000000;fill-opacity:1">
      <use
         height="100%"
         width="100%"
         id="use700"
         y="317.55099"
         x="156.461"
         xlink:href="#glyph0-3" />
    </g>
    <g
       id="g706"
       style="fill:#000000;fill-opacity:1">
      <use
         height="100%"
         width="100%"
         id="use704"
         y="317.55099"
         x="179.153"
         xlink:href="#glyph0-3" />
    </g>
    <g
       id="g710"
       style="fill:#000000;fill-opacity:1">
      <use
         height="100%"
         width="100%"
         id="use708"
         y="317.55099"
         x="201.84599"
         xlink:href="#glyph0-1" />
    </g>
    <g
       id="g714"
       style="fill:#000000;fill-opacity:1">
      <use
         height="100%"
         width="100%"
         id="use712"
         y="317.55099"
         x="216.78999"
         xlink:href="#glyph0-3" />
    </g>
    <g
       id="g718"
       style="fill:#000000;fill-opacity:1">
      <use
         height="100%"
         width="100%"
         id="use716"
         y="317.55099"
         x="252.763"
         xlink:href="#glyph0-3" />
    </g>
    <g
       id="g722"
       style="fill:#000000;fill-opacity:1">
      <use
         height="100%"
         width="100%"
         id="use720"
         y="317.55099"
         x="275.45599"
         xlink:href="#glyph0-3" />
    </g>
    <g
       id="g726"
       style="fill:#000000;fill-opacity:1">
      <use
         height="100%"
         width="100%"
         id="use724"
         y="317.55099"
         x="298.14899"
         xlink:href="#glyph0-3" />
    </g>
    <g
       id="g730"
       style="fill:#000000;fill-opacity:1">
      <use
         height="100%"
         width="100%"
         id="use728"
         y="317.55099"
         x="313.09201"
         xlink:href="#glyph0-9" />
    </g>
    <g
       id="g734"
       style="fill:#000000;fill-opacity:1">
      <use
         height="100%"
         width="100%"
         id="use732"
         y="317.55099"
         x="328.03601"
         xlink:href="#glyph0-1" />
    </g>
    <path
       id="path736"
       transform="matrix(1,0,0,-1,72,72)"
       d="m 266.19922,-249.13672 v 11.95313"
       style="fill:none;stroke:#000000;stroke-width:0.3985;stroke-linecap:butt;stroke-linejoin:miter;stroke-miterlimit:10;stroke-opacity:1" />
    <g
       id="g740"
       style="fill:#000000;fill-opacity:1">
      <use
         height="100%"
         width="100%"
         id="use738"
         y="317.55099"
         x="348.35999"
         xlink:href="#glyph0-5" />
    </g>
    <g
       id="g744"
       style="fill:#000000;fill-opacity:1">
      <use
         height="100%"
         width="100%"
         id="use742"
         y="317.55099"
         x="368.28601"
         xlink:href="#glyph0-8" />
    </g>
    <g
       id="g748"
       style="fill:#000000;fill-opacity:1">
      <use
         height="100%"
         width="100%"
         id="use746"
         y="329.50601"
         x="156.461"
         xlink:href="#glyph0-3" />
    </g>
    <g
       id="g752"
       style="fill:#000000;fill-opacity:1">
      <use
         height="100%"
         width="100%"
         id="use750"
         y="329.50601"
         x="179.153"
         xlink:href="#glyph0-3" />
    </g>
    <g
       id="g756"
       style="fill:#000000;fill-opacity:1">
      <use
         height="100%"
         width="100%"
         id="use754"
         y="329.50601"
         x="194.09801"
         xlink:href="#glyph1-1" />
    </g>
    <g
       id="g760"
       style="fill:#000000;fill-opacity:1">
      <use
         height="100%"
         width="100%"
         id="use758"
         y="329.50601"
         x="201.847"
         xlink:href="#glyph0-2" />
    </g>
    <g
       id="g764"
       style="fill:#000000;fill-opacity:1">
      <use
         height="100%"
         width="100%"
         id="use762"
         y="329.50601"
         x="216.78999"
         xlink:href="#glyph0-1" />
    </g>
    <g
       id="g768"
       style="fill:#000000;fill-opacity:1">
      <use
         height="100%"
         width="100%"
         id="use766"
         y="329.50601"
         x="252.763"
         xlink:href="#glyph0-3" />
    </g>
    <g
       id="g772"
       style="fill:#000000;fill-opacity:1">
      <use
         height="100%"
         width="100%"
         id="use770"
         y="329.50601"
         x="275.45599"
         xlink:href="#glyph0-3" />
    </g>
    <g
       id="g776"
       style="fill:#000000;fill-opacity:1">
      <use
         height="100%"
         width="100%"
         id="use774"
         y="329.50601"
         x="298.14899"
         xlink:href="#glyph0-3" />
    </g>
    <g
       id="g780"
       style="fill:#000000;fill-opacity:1">
      <use
         height="100%"
         width="100%"
         id="use778"
         y="329.50601"
         x="313.09201"
         xlink:href="#glyph0-3" />
    </g>
    <g
       id="g784"
       style="fill:#000000;fill-opacity:1">
      <use
         height="100%"
         width="100%"
         id="use782"
         y="329.50601"
         x="328.03601"
         xlink:href="#glyph0-3" />
    </g>
    <path
       id="path786"
       transform="matrix(1,0,0,-1,72,72)"
       d="m 266.19922,-261.09375 v 11.95703"
       style="fill:none;stroke:#000000;stroke-width:0.3985;stroke-linecap:butt;stroke-linejoin:miter;stroke-miterlimit:10;stroke-opacity:1" />
    <g
       id="g790"
       style="fill:#000000;fill-opacity:1">
      <use
         height="100%"
         width="100%"
         id="use788"
         y="329.50601"
         x="348.35999"
         xlink:href="#glyph0-3" />
    </g>
    <g
       id="g794"
       style="fill:#000000;fill-opacity:1">
      <use
         height="100%"
         width="100%"
         id="use792"
         y="329.50601"
         x="368.28601"
         xlink:href="#glyph0-3" />
    </g>
    <g
       id="g798"
       style="fill:#000000;fill-opacity:1">
      <use
         height="100%"
         width="100%"
         id="use796"
         y="180.85899"
         x="135.617"
         xlink:href="#glyph2-1" />
    </g>
    <g
       id="g802"
       style="fill:#000000;fill-opacity:1">
      <use
         height="100%"
         width="100%"
         id="use800"
         y="198.39301"
         x="135.617"
         xlink:href="#glyph2-2" />
    </g>
    <g
       id="g806"
       style="fill:#000000;fill-opacity:1">
      <use
         height="100%"
         width="100%"
         id="use804"
         y="204.77"
         x="135.617"
         xlink:href="#glyph2-3" />
    </g>
    <g
       id="g810"
       style="fill:#000000;fill-opacity:1">
      <use
         height="100%"
         width="100%"
         id="use808"
         y="180.85899"
         x="226.145"
         xlink:href="#glyph2-4" />
    </g>
    <g
       id="g814"
       style="fill:#000000;fill-opacity:1">
      <use
         height="100%"
         width="100%"
         id="use812"
         y="198.39301"
         x="226.145"
         xlink:href="#glyph2-5" />
    </g>
    <g
       id="g818"
       style="fill:#000000;fill-opacity:1">
      <use
         height="100%"
         width="100%"
         id="use816"
         y="204.77"
         x="226.145"
         xlink:href="#glyph2-6" />
    </g>
    <g
       id="g822"
       style="fill:#000000;fill-opacity:1">
      <use
         height="100%"
         width="100%"
         id="use820"
         y="234.765"
         x="135.617"
         xlink:href="#glyph2-1" />
    </g>
    <g
       id="g826"
       style="fill:#000000;fill-opacity:1">
      <use
         height="100%"
         width="100%"
         id="use824"
         y="252.299"
         x="135.617"
         xlink:href="#glyph2-2" />
    </g>
    <g
       id="g830"
       style="fill:#000000;fill-opacity:1">
      <use
         height="100%"
         width="100%"
         id="use828"
         y="258.67599"
         x="135.617"
         xlink:href="#glyph2-3" />
    </g>
    <g
       id="g834"
       style="fill:#000000;fill-opacity:1">
      <use
         height="100%"
         width="100%"
         id="use832"
         y="234.765"
         x="226.145"
         xlink:href="#glyph2-4" />
    </g>
    <g
       id="g838"
       style="fill:#000000;fill-opacity:1">
      <use
         height="100%"
         width="100%"
         id="use836"
         y="252.299"
         x="226.145"
         xlink:href="#glyph2-5" />
    </g>
    <g
       id="g842"
       style="fill:#000000;fill-opacity:1">
      <use
         height="100%"
         width="100%"
         id="use840"
         y="258.67599"
         x="226.145"
         xlink:href="#glyph2-6" />
    </g>
    <g
       id="g846"
       style="fill:#000000;fill-opacity:1">
      <use
         height="100%"
         width="100%"
         id="use844"
         y="288.25601"
         x="135.617"
         xlink:href="#glyph2-1" />
    </g>
    <g
       id="g850"
       style="fill:#000000;fill-opacity:1">
      <use
         height="100%"
         width="100%"
         id="use848"
         y="305.79001"
         x="135.617"
         xlink:href="#glyph2-2" />
    </g>
    <g
       id="g854"
       style="fill:#000000;fill-opacity:1">
      <use
         height="100%"
         width="100%"
         id="use852"
         y="312.16699"
         x="135.617"
         xlink:href="#glyph2-3" />
    </g>
    <g
       id="g858"
       style="fill:#000000;fill-opacity:1">
      <use
         height="100%"
         width="100%"
         id="use856"
         y="288.25601"
         x="226.145"
         xlink:href="#glyph2-4" />
    </g>
    <g
       id="g862"
       style="fill:#000000;fill-opacity:1">
      <use
         height="100%"
         width="100%"
         id="use860"
         y="305.79001"
         x="226.145"
         xlink:href="#glyph2-5" />
    </g>
    <g
       id="g866"
       style="fill:#000000;fill-opacity:1">
      <use
         height="100%"
         width="100%"
         id="use864"
         y="312.16699"
         x="226.145"
         xlink:href="#glyph2-6" />
    </g>
    <g
       id="g870"
       style="fill:#000000;fill-opacity:1">
      <use
         height="100%"
         width="100%"
         id="use868"
         y="127.784"
         x="231.92"
         xlink:href="#glyph2-1" />
    </g>
    <g
       id="g874"
       style="fill:#000000;fill-opacity:1">
      <use
         height="100%"
         width="100%"
         id="use872"
         y="145.31799"
         x="231.92"
         xlink:href="#glyph2-2" />
    </g>
    <g
       id="g878"
       style="fill:#000000;fill-opacity:1">
      <use
         height="100%"
         width="100%"
         id="use876"
         y="151.69501"
         x="231.92"
         xlink:href="#glyph2-3" />
    </g>
    <g
       id="g882"
       style="fill:#000000;fill-opacity:1">
      <use
         height="100%"
         width="100%"
         id="use880"
         y="127.784"
         x="377.642"
         xlink:href="#glyph2-4" />
    </g>
    <g
       id="g886"
       style="fill:#000000;fill-opacity:1">
      <use
         height="100%"
         width="100%"
         id="use884"
         y="145.31799"
         x="377.642"
         xlink:href="#glyph2-5" />
    </g>
    <g
       id="g890"
       style="fill:#000000;fill-opacity:1">
      <use
         height="100%"
         width="100%"
         id="use888"
         y="151.69501"
         x="377.642"
         xlink:href="#glyph2-6" />
    </g>
    <g
       id="g894"
       style="fill:#000000;fill-opacity:1">
      <use
         height="100%"
         width="100%"
         id="use892"
         y="180.85899"
         x="231.92"
         xlink:href="#glyph2-1" />
    </g>
    <g
       id="g898"
       style="fill:#000000;fill-opacity:1">
      <use
         height="100%"
         width="100%"
         id="use896"
         y="198.39301"
         x="231.92"
         xlink:href="#glyph2-2" />
    </g>
    <g
       id="g902"
       style="fill:#000000;fill-opacity:1">
      <use
         height="100%"
         width="100%"
         id="use900"
         y="204.77"
         x="231.92"
         xlink:href="#glyph2-3" />
    </g>
    <g
       id="g906"
       style="fill:#000000;fill-opacity:1">
      <use
         height="100%"
         width="100%"
         id="use904"
         y="180.85899"
         x="377.642"
         xlink:href="#glyph2-4" />
    </g>
    <g
       id="g910"
       style="fill:#000000;fill-opacity:1">
      <use
         height="100%"
         width="100%"
         id="use908"
         y="198.39301"
         x="377.642"
         xlink:href="#glyph2-5" />
    </g>
    <g
       id="g914"
       style="fill:#000000;fill-opacity:1">
      <use
         height="100%"
         width="100%"
         id="use912"
         y="204.77"
         x="377.642"
         xlink:href="#glyph2-6" />
    </g>
    <g
       id="g918"
       style="fill:#000000;fill-opacity:1">
      <use
         height="100%"
         width="100%"
         id="use916"
         y="234.765"
         x="231.92"
         xlink:href="#glyph2-1" />
    </g>
    <g
       id="g922"
       style="fill:#000000;fill-opacity:1">
      <use
         height="100%"
         width="100%"
         id="use920"
         y="252.299"
         x="231.92"
         xlink:href="#glyph2-2" />
    </g>
    <g
       id="g926"
       style="fill:#000000;fill-opacity:1">
      <use
         height="100%"
         width="100%"
         id="use924"
         y="258.67599"
         x="231.92"
         xlink:href="#glyph2-3" />
    </g>
    <g
       id="g930"
       style="fill:#000000;fill-opacity:1">
      <use
         height="100%"
         width="100%"
         id="use928"
         y="234.765"
         x="377.642"
         xlink:href="#glyph2-4" />
    </g>
    <g
       id="g934"
       style="fill:#000000;fill-opacity:1">
      <use
         height="100%"
         width="100%"
         id="use932"
         y="252.299"
         x="377.642"
         xlink:href="#glyph2-5" />
    </g>
    <g
       id="g938"
       style="fill:#000000;fill-opacity:1">
      <use
         height="100%"
         width="100%"
         id="use936"
         y="258.67599"
         x="377.642"
         xlink:href="#glyph2-6" />
    </g>
    <g
       id="g942"
       style="fill:#000000;fill-opacity:1">
      <use
         height="100%"
         width="100%"
         id="use940"
         y="288.25601"
         x="231.92"
         xlink:href="#glyph2-1" />
    </g>
    <g
       id="g946"
       style="fill:#000000;fill-opacity:1">
      <use
         height="100%"
         width="100%"
         id="use944"
         y="305.79001"
         x="231.92"
         xlink:href="#glyph2-2" />
    </g>
    <g
       id="g950"
       style="fill:#000000;fill-opacity:1">
      <use
         height="100%"
         width="100%"
         id="use948"
         y="312.16699"
         x="231.92"
         xlink:href="#glyph2-3" />
    </g>
    <g
       id="g954"
       style="fill:#000000;fill-opacity:1">
      <use
         height="100%"
         width="100%"
         id="use952"
         y="288.25601"
         x="377.642"
         xlink:href="#glyph2-4" />
    </g>
    <g
       id="g958"
       style="fill:#000000;fill-opacity:1">
      <use
         height="100%"
         width="100%"
         id="use956"
         y="305.79001"
         x="377.642"
         xlink:href="#glyph2-5" />
    </g>
    <g
       id="g962"
       style="fill:#000000;fill-opacity:1">
      <use
         height="100%"
         width="100%"
         id="use960"
         y="312.16699"
         x="377.642"
         xlink:href="#glyph2-6" />
    </g>
    <g
       id="g966"
       style="fill:#000000;fill-opacity:1">
      <use
         height="100%"
         width="100%"
         id="use964"
         y="127.784"
         x="231.92"
         xlink:href="#glyph2-1" />
    </g>
    <g
       id="g970"
       style="fill:#000000;fill-opacity:1">
      <use
         height="100%"
         width="100%"
         id="use968"
         y="145.31799"
         x="231.92"
         xlink:href="#glyph2-2" />
    </g>
    <g
       id="g974"
       style="fill:#000000;fill-opacity:1">
      <use
         height="100%"
         width="100%"
         id="use972"
         y="151.69501"
         x="231.92"
         xlink:href="#glyph2-3" />
    </g>
    <g
       id="g978"
       style="fill:#000000;fill-opacity:1">
      <use
         height="100%"
         width="100%"
         id="use976"
         y="127.784"
         x="377.642"
         xlink:href="#glyph2-4" />
    </g>
    <g
       id="g982"
       style="fill:#000000;fill-opacity:1">
      <use
         height="100%"
         width="100%"
         id="use980"
         y="145.31799"
         x="377.642"
         xlink:href="#glyph2-5" />
    </g>
    <g
       id="g986"
       style="fill:#000000;fill-opacity:1">
      <use
         height="100%"
         width="100%"
         id="use984"
         y="151.69501"
         x="377.642"
         xlink:href="#glyph2-6" />
    </g>
    <g
       id="g990"
       style="fill:#000000;fill-opacity:1">
      <use
         height="100%"
         width="100%"
         id="use988"
         y="180.85899"
         x="231.92"
         xlink:href="#glyph2-1" />
    </g>
    <g
       id="g994"
       style="fill:#000000;fill-opacity:1">
      <use
         height="100%"
         width="100%"
         id="use992"
         y="198.39301"
         x="231.92"
         xlink:href="#glyph2-2" />
    </g>
    <g
       id="g998"
       style="fill:#000000;fill-opacity:1">
      <use
         height="100%"
         width="100%"
         id="use996"
         y="204.77"
         x="231.92"
         xlink:href="#glyph2-3" />
    </g>
    <g
       id="g1002"
       style="fill:#000000;fill-opacity:1">
      <use
         height="100%"
         width="100%"
         id="use1000"
         y="180.85899"
         x="377.642"
         xlink:href="#glyph2-4" />
    </g>
    <g
       id="g1006"
       style="fill:#000000;fill-opacity:1">
      <use
         height="100%"
         width="100%"
         id="use1004"
         y="198.39301"
         x="377.642"
         xlink:href="#glyph2-5" />
    </g>
    <g
       id="g1010"
       style="fill:#000000;fill-opacity:1">
      <use
         height="100%"
         width="100%"
         id="use1008"
         y="204.77"
         x="377.642"
         xlink:href="#glyph2-6" />
    </g>
    <g
       id="g1014"
       style="fill:#000000;fill-opacity:1">
      <use
         height="100%"
         width="100%"
         id="use1012"
         y="234.765"
         x="231.92"
         xlink:href="#glyph2-1" />
    </g>
    <g
       id="g1018"
       style="fill:#000000;fill-opacity:1">
      <use
         height="100%"
         width="100%"
         id="use1016"
         y="252.299"
         x="231.92"
         xlink:href="#glyph2-2" />
    </g>
    <g
       id="g1022"
       style="fill:#000000;fill-opacity:1">
      <use
         height="100%"
         width="100%"
         id="use1020"
         y="258.67599"
         x="231.92"
         xlink:href="#glyph2-3" />
    </g>
    <g
       id="g1026"
       style="fill:#000000;fill-opacity:1">
      <use
         height="100%"
         width="100%"
         id="use1024"
         y="234.765"
         x="377.642"
         xlink:href="#glyph2-4" />
    </g>
    <g
       id="g1030"
       style="fill:#000000;fill-opacity:1">
      <use
         height="100%"
         width="100%"
         id="use1028"
         y="252.299"
         x="377.642"
         xlink:href="#glyph2-5" />
    </g>
    <g
       id="g1034"
       style="fill:#000000;fill-opacity:1">
      <use
         height="100%"
         width="100%"
         id="use1032"
         y="258.67599"
         x="377.642"
         xlink:href="#glyph2-6" />
    </g>
    <g
       id="g1038"
       style="fill:#000000;fill-opacity:1">
      <use
         height="100%"
         width="100%"
         id="use1036"
         y="288.25601"
         x="231.92"
         xlink:href="#glyph2-1" />
    </g>
    <g
       id="g1042"
       style="fill:#000000;fill-opacity:1">
      <use
         height="100%"
         width="100%"
         id="use1040"
         y="305.79001"
         x="231.92"
         xlink:href="#glyph2-2" />
    </g>
    <g
       id="g1046"
       style="fill:#000000;fill-opacity:1">
      <use
         height="100%"
         width="100%"
         id="use1044"
         y="312.16699"
         x="231.92"
         xlink:href="#glyph2-3" />
    </g>
    <g
       id="g1050"
       style="fill:#000000;fill-opacity:1">
      <use
         height="100%"
         width="100%"
         id="use1048"
         y="288.25601"
         x="377.642"
         xlink:href="#glyph2-4" />
    </g>
    <g
       id="g1054"
       style="fill:#000000;fill-opacity:1">
      <use
         height="100%"
         width="100%"
         id="use1052"
         y="305.79001"
         x="377.642"
         xlink:href="#glyph2-5" />
    </g>
    <g
       id="g1058"
       style="fill:#000000;fill-opacity:1">
      <use
         height="100%"
         width="100%"
         id="use1056"
         y="312.16699"
         x="377.642"
         xlink:href="#glyph2-6" />
    </g>
    <g
       id="g1062"
       style="fill:#000000;fill-opacity:1">
      <use
         height="100%"
         width="100%"
         id="use1060"
         y="127.784"
         x="231.92"
         xlink:href="#glyph2-1" />
    </g>
    <g
       id="g1066"
       style="fill:#000000;fill-opacity:1">
      <use
         height="100%"
         width="100%"
         id="use1064"
         y="145.31799"
         x="231.92"
         xlink:href="#glyph2-2" />
    </g>
    <g
       id="g1070"
       style="fill:#000000;fill-opacity:1">
      <use
         height="100%"
         width="100%"
         id="use1068"
         y="151.69501"
         x="231.92"
         xlink:href="#glyph2-3" />
    </g>
    <g
       id="g1074"
       style="fill:#000000;fill-opacity:1">
      <use
         height="100%"
         width="100%"
         id="use1072"
         y="127.784"
         x="377.642"
         xlink:href="#glyph2-4" />
    </g>
    <g
       id="g1078"
       style="fill:#000000;fill-opacity:1">
      <use
         height="100%"
         width="100%"
         id="use1076"
         y="145.31799"
         x="377.642"
         xlink:href="#glyph2-5" />
    </g>
    <g
       id="g1082"
       style="fill:#000000;fill-opacity:1">
      <use
         height="100%"
         width="100%"
         id="use1080"
         y="151.69501"
         x="377.642"
         xlink:href="#glyph2-6" />
    </g>
    <g
       id="g1086"
       style="fill:#000000;fill-opacity:1">
      <use
         height="100%"
         width="100%"
         id="use1084"
         y="180.85899"
         x="231.92"
         xlink:href="#glyph2-1" />
    </g>
    <g
       id="g1090"
       style="fill:#000000;fill-opacity:1">
      <use
         height="100%"
         width="100%"
         id="use1088"
         y="198.39301"
         x="231.92"
         xlink:href="#glyph2-2" />
    </g>
    <g
       id="g1094"
       style="fill:#000000;fill-opacity:1">
      <use
         height="100%"
         width="100%"
         id="use1092"
         y="204.77"
         x="231.92"
         xlink:href="#glyph2-3" />
    </g>
    <g
       id="g1098"
       style="fill:#000000;fill-opacity:1">
      <use
         height="100%"
         width="100%"
         id="use1096"
         y="180.85899"
         x="377.642"
         xlink:href="#glyph2-4" />
    </g>
    <g
       id="g1102"
       style="fill:#000000;fill-opacity:1">
      <use
         height="100%"
         width="100%"
         id="use1100"
         y="198.39301"
         x="377.642"
         xlink:href="#glyph2-5" />
    </g>
    <g
       id="g1106"
       style="fill:#000000;fill-opacity:1">
      <use
         height="100%"
         width="100%"
         id="use1104"
         y="204.77"
         x="377.642"
         xlink:href="#glyph2-6" />
    </g>
    <g
       id="g1110"
       style="fill:#000000;fill-opacity:1">
      <use
         height="100%"
         width="100%"
         id="use1108"
         y="234.765"
         x="231.92"
         xlink:href="#glyph2-1" />
    </g>
    <g
       id="g1114"
       style="fill:#000000;fill-opacity:1">
      <use
         height="100%"
         width="100%"
         id="use1112"
         y="252.299"
         x="231.92"
         xlink:href="#glyph2-2" />
    </g>
    <g
       id="g1118"
       style="fill:#000000;fill-opacity:1">
      <use
         height="100%"
         width="100%"
         id="use1116"
         y="258.67599"
         x="231.92"
         xlink:href="#glyph2-3" />
    </g>
    <g
       id="g1122"
       style="fill:#000000;fill-opacity:1">
      <use
         height="100%"
         width="100%"
         id="use1120"
         y="234.765"
         x="377.642"
         xlink:href="#glyph2-4" />
    </g>
    <g
       id="g1126"
       style="fill:#000000;fill-opacity:1">
      <use
         height="100%"
         width="100%"
         id="use1124"
         y="252.299"
         x="377.642"
         xlink:href="#glyph2-5" />
    </g>
    <g
       id="g1130"
       style="fill:#000000;fill-opacity:1">
      <use
         height="100%"
         width="100%"
         id="use1128"
         y="258.67599"
         x="377.642"
         xlink:href="#glyph2-6" />
    </g>
    <g
       id="g1134"
       style="fill:#000000;fill-opacity:1">
      <use
         height="100%"
         width="100%"
         id="use1132"
         y="288.25601"
         x="231.92"
         xlink:href="#glyph2-1" />
    </g>
    <g
       id="g1138"
       style="fill:#000000;fill-opacity:1">
      <use
         height="100%"
         width="100%"
         id="use1136"
         y="305.79001"
         x="231.92"
         xlink:href="#glyph2-2" />
    </g>
    <g
       id="g1142"
       style="fill:#000000;fill-opacity:1">
      <use
         height="100%"
         width="100%"
         id="use1140"
         y="312.16699"
         x="231.92"
         xlink:href="#glyph2-3" />
    </g>
    <g
       id="g1146"
       style="fill:#000000;fill-opacity:1">
      <use
         height="100%"
         width="100%"
         id="use1144"
         y="288.25601"
         x="377.642"
         xlink:href="#glyph2-4" />
    </g>
    <g
       id="g1150"
       style="fill:#000000;fill-opacity:1">
      <use
         height="100%"
         width="100%"
         id="use1148"
         y="305.79001"
         x="377.642"
         xlink:href="#glyph2-5" />
    </g>
    <g
       id="g1154"
       style="fill:#000000;fill-opacity:1">
      <use
         height="100%"
         width="100%"
         id="use1152"
         y="312.16699"
         x="377.642"
         xlink:href="#glyph2-6" />
    </g>
    <path
       id="path1156"
       transform="matrix(1,0,0,-1,398.726,231.438)"
       d="m -149.48381,94.7505 h 12.01953 v 13.45703 h -12.01953 z m 0,0"
       style="fill:none;stroke:#ff0000;stroke-width:0.3985;stroke-linecap:butt;stroke-linejoin:miter;stroke-miterlimit:10;stroke-opacity:1" />
    <path
       id="path1158"
       transform="matrix(1,0,0,-1,398.726,231.438)"
       d="m -149.48381,41.258313 h 12.01953 V 54.71925 h -12.01953 z m 0,0"
       style="fill:none;stroke:#0000ff;stroke-width:0.3985;stroke-linecap:butt;stroke-linejoin:miter;stroke-miterlimit:10;stroke-opacity:1" />
    <path
       id="path1160"
       transform="matrix(1,0,0,-1,398.726,231.438)"
       d="m -149.48381,-12.233875 h 12.01953 V 1.227063 h -12.01953 z m 0,0"
       style="fill:none;stroke:#0000ff;stroke-width:0.3985;stroke-linecap:butt;stroke-linejoin:miter;stroke-miterlimit:10;stroke-opacity:1" />
    <path
       id="path1162"
       transform="matrix(1,0,0,-1,398.726,231.438)"
       d="m -149.48381,-65.722156 h 12.01953 v 13.460937 h -12.01953 z m 0,0"
       style="fill:none;stroke:#0000ff;stroke-width:0.3985;stroke-linecap:butt;stroke-linejoin:miter;stroke-miterlimit:10;stroke-opacity:1" />
    <path
       id="path1164"
       transform="matrix(1,0,0,-1,398.726,231.438)"
       d="m -126.79241,29.301281 h 12.02344 v 13.460938 h -12.02344 z m 0,0"
       style="fill:none;stroke:#ff0000;stroke-width:0.3985;stroke-linecap:butt;stroke-linejoin:miter;stroke-miterlimit:10;stroke-opacity:1" />
    <path
       id="path1166"
       transform="matrix(1,0,0,-1,398.726,231.438)"
       d="m -126.79241,-24.187 h 12.02344 v 13.460938 h -12.02344 z m 0,0"
       style="fill:none;stroke:#0000ff;stroke-width:0.3985;stroke-linecap:butt;stroke-linejoin:miter;stroke-miterlimit:10;stroke-opacity:1" />
    <path
       id="path1168"
       transform="matrix(1,0,0,-1,398.726,231.438)"
       d="m -126.79241,-77.679187 h 12.02344 v 13.460937 h -12.02344 z m 0,0"
       style="fill:none;stroke:#0000ff;stroke-width:0.3985;stroke-linecap:butt;stroke-linejoin:miter;stroke-miterlimit:10;stroke-opacity:1" />
    <path
       id="path1170"
       transform="matrix(1,0,0,-1,398.726,231.438)"
       d="m -89.155687,-36.144031 h 12.023437 v 13.460937 h -12.023437 z m 0,0"
       style="fill:none;stroke:#ff0000;stroke-width:0.3985;stroke-linecap:butt;stroke-linejoin:miter;stroke-miterlimit:10;stroke-opacity:1" />
    <path
       id="path1172"
       transform="matrix(1,0,0,-1,398.726,231.438)"
       d="m -89.155687,-89.632312 h 12.023437 v 13.457031 h -12.023437 z m 0,0"
       style="fill:none;stroke:#0000ff;stroke-width:0.3985;stroke-linecap:butt;stroke-linejoin:miter;stroke-miterlimit:10;stroke-opacity:1" />
  </g>
</svg>
