<?xml version="1.0" encoding="UTF-8" standalone="no"?>
<svg
   xmlns:dc="http://purl.org/dc/elements/1.1/"
   xmlns:cc="http://creativecommons.org/ns#"
   xmlns:rdf="http://www.w3.org/1999/02/22-rdf-syntax-ns#"
   xmlns:svg="http://www.w3.org/2000/svg"
   xmlns="http://www.w3.org/2000/svg"
   xmlns:xlink="http://www.w3.org/1999/xlink"
   width="248.9754pt"
   height="84.094376pt"
   viewBox="0 0 248.9754 84.094376"
   version="1.1"
   id="svg313">
  <metadata
     id="metadata317">
    <rdf:RDF>
      <cc:Work
         rdf:about="">
        <dc:format>image/svg+xml</dc:format>
        <dc:type
           rdf:resource="http://purl.org/dc/dcmitype/StillImage" />
      </cc:Work>
    </rdf:RDF>
  </metadata>
  <defs
     id="defs70">
    <g
       id="g68">
      <symbol
         overflow="visible"
         id="glyph0-0">
        <path
           style="stroke:none"
           d=""
           id="path2" />
      </symbol>
      <symbol
         overflow="visible"
         id="glyph0-1">
        <path
           style="stroke:none"
           d="m 2.890625,-3.515625 c 0.8125,-0.265625 1.390625,-0.953125 1.390625,-1.75 0,-0.8125 -0.875,-1.375 -1.828125,-1.375 -1,0 -1.765625,0.59375 -1.765625,1.359375 0,0.328125 0.21875,0.515625 0.515625,0.515625 0.296875,0 0.5,-0.21875 0.5,-0.515625 0,-0.484375 -0.46875,-0.484375 -0.609375,-0.484375 0.296875,-0.5 0.953125,-0.625 1.3125,-0.625 0.421875,0 0.96875,0.21875 0.96875,1.109375 0,0.125 -0.03125,0.703125 -0.28125,1.140625 C 2.796875,-3.65625 2.453125,-3.625 2.203125,-3.625 2.125,-3.609375 1.890625,-3.59375 1.8125,-3.59375 c -0.078125,0.015625 -0.140625,0.03125 -0.140625,0.125 0,0.109375 0.0625,0.109375 0.234375,0.109375 h 0.4375 c 0.8125,0 1.1875,0.671875 1.1875,1.65625 0,1.359375 -0.6875,1.640625 -1.125,1.640625 -0.4375,0 -1.1875,-0.171875 -1.53125,-0.75 0.34375,0.046875 0.65625,-0.171875 0.65625,-0.546875 0,-0.359375 -0.265625,-0.5625 -0.546875,-0.5625 -0.25,0 -0.5625,0.140625 -0.5625,0.578125 0,0.90625 0.921875,1.5625 2.015625,1.5625 1.21875,0 2.125,-0.90625 2.125,-1.921875 0,-0.8125 -0.640625,-1.59375 -1.671875,-1.8125 z m 0,0"
           id="path5" />
      </symbol>
      <symbol
         overflow="visible"
         id="glyph0-2">
        <path
           style="stroke:none"
           d="m 2.9375,-6.375 c 0,-0.25 0,-0.265625 -0.234375,-0.265625 C 2.078125,-6 1.203125,-6 0.890625,-6 v 0.3125 c 0.203125,0 0.78125,0 1.296875,-0.265625 v 5.171875 c 0,0.359375 -0.03125,0.46875 -0.921875,0.46875 h -0.3125 V 0 c 0.34375,-0.03125 1.203125,-0.03125 1.609375,-0.03125 0.390625,0 1.265625,0 1.609375,0.03125 v -0.3125 h -0.3125 c -0.90625,0 -0.921875,-0.109375 -0.921875,-0.46875 z m 0,0"
           id="path8" />
      </symbol>
      <symbol
         overflow="visible"
         id="glyph0-3">
        <path
           style="stroke:none"
           d="m 4.578125,-3.1875 c 0,-0.796875 -0.046875,-1.59375 -0.390625,-2.328125 -0.453125,-0.96875 -1.28125,-1.125 -1.6875,-1.125 -0.609375,0 -1.328125,0.265625 -1.75,1.1875 -0.3125,0.6875 -0.359375,1.46875 -0.359375,2.265625 0,0.75 0.03125,1.640625 0.453125,2.40625 0.421875,0.796875 1.15625,1 1.640625,1 0.53125,0 1.296875,-0.203125 1.734375,-1.15625 0.3125,-0.6875 0.359375,-1.46875 0.359375,-2.25 z M 2.484375,0 C 2.09375,0 1.5,-0.25 1.328125,-1.203125 1.21875,-1.796875 1.21875,-2.71875 1.21875,-3.3125 c 0,-0.640625 0,-1.296875 0.078125,-1.828125 0.1875,-1.1875 0.9375,-1.28125 1.1875,-1.28125 0.328125,0 0.984375,0.1875 1.171875,1.171875 0.109375,0.5625 0.109375,1.3125 0.109375,1.9375 0,0.75 0,1.421875 -0.109375,2.0625 C 3.5,-0.296875 2.9375,0 2.484375,0 Z m 0,0"
           id="path11" />
      </symbol>
      <symbol
         overflow="visible"
         id="glyph0-4">
        <path
           style="stroke:none"
           d="m 1.265625,-0.765625 1.0625,-1.03125 c 1.546875,-1.375 2.140625,-1.90625 2.140625,-2.90625 0,-1.140625 -0.890625,-1.9375 -2.109375,-1.9375 -1.125,0 -1.859375,0.921875 -1.859375,1.8125 0,0.546875 0.5,0.546875 0.53125,0.546875 0.171875,0 0.515625,-0.109375 0.515625,-0.53125 0,-0.25 -0.1875,-0.515625 -0.53125,-0.515625 -0.078125,0 -0.09375,0 -0.125,0.015625 0.21875,-0.65625 0.765625,-1.015625 1.34375,-1.015625 0.90625,0 1.328125,0.8125 1.328125,1.625 C 3.5625,-3.90625 3.078125,-3.125 2.515625,-2.5 l -1.90625,2.125 C 0.5,-0.265625 0.5,-0.234375 0.5,0 H 4.203125 L 4.46875,-1.734375 H 4.234375 C 4.171875,-1.4375 4.109375,-1 4,-0.84375 3.9375,-0.765625 3.28125,-0.765625 3.0625,-0.765625 Z m 0,0"
           id="path14" />
      </symbol>
      <symbol
         overflow="visible"
         id="glyph0-5">
        <path
           style="stroke:none"
           d="m 4.75,-6.078125 c 0.078125,-0.109375 0.078125,-0.125 0.078125,-0.34375 H 2.40625 c -1.203125,0 -1.234375,-0.125 -1.265625,-0.3125 h -0.25 L 0.5625,-4.6875 h 0.25 c 0.03125,-0.15625 0.109375,-0.78125 0.25,-0.90625 0.0625,-0.0625 0.84375,-0.0625 0.96875,-0.0625 h 2.0625 C 3.984375,-5.5 3.203125,-4.40625 2.984375,-4.078125 2.078125,-2.734375 1.75,-1.34375 1.75,-0.328125 c 0,0.09375 0,0.546875 0.46875,0.546875 0.453125,0 0.453125,-0.453125 0.453125,-0.546875 V -0.84375 c 0,-0.546875 0.03125,-1.09375 0.109375,-1.625 0.046875,-0.234375 0.171875,-1.09375 0.625,-1.703125 z m 0,0"
           id="path17" />
      </symbol>
      <symbol
         overflow="visible"
         id="glyph0-6">
        <path
           style="stroke:none"
           d="m 2.9375,-1.640625 v 0.859375 c 0,0.359375 -0.03125,0.46875 -0.765625,0.46875 H 1.96875 V 0 C 2.375,-0.03125 2.890625,-0.03125 3.3125,-0.03125 c 0.421875,0 0.9375,0 1.359375,0.03125 v -0.3125 h -0.21875 c -0.734375,0 -0.75,-0.109375 -0.75,-0.46875 V -1.640625 H 4.6875 v -0.3125 H 3.703125 v -4.53125 c 0,-0.203125 0,-0.265625 -0.171875,-0.265625 -0.078125,0 -0.109375,0 -0.1875,0.125 l -3.0625,4.671875 v 0.3125 z m 0.046875,-0.3125 H 0.5625 l 2.421875,-3.71875 z m 0,0"
           id="path20" />
      </symbol>
      <symbol
         overflow="visible"
         id="glyph0-7">
        <path
           style="stroke:none"
           d="m 1.625,-4.5625 c -0.453125,-0.296875 -0.5,-0.625 -0.5,-0.796875 0,-0.609375 0.65625,-1.03125 1.359375,-1.03125 0.71875,0 1.359375,0.515625 1.359375,1.234375 0,0.578125 -0.390625,1.046875 -0.984375,1.390625 z m 1.453125,0.953125 C 3.796875,-3.984375 4.28125,-4.5 4.28125,-5.15625 c 0,-0.921875 -0.875,-1.484375 -1.78125,-1.484375 -1,0 -1.8125,0.734375 -1.8125,1.671875 0,0.171875 0.015625,0.625 0.4375,1.09375 0.109375,0.109375 0.484375,0.359375 0.734375,0.53125 C 1.28125,-3.046875 0.421875,-2.5 0.421875,-1.5 c 0,1.046875 1.015625,1.71875 2.0625,1.71875 1.125,0 2.078125,-0.828125 2.078125,-1.890625 0,-0.359375 -0.109375,-0.8125 -0.5,-1.234375 C 3.875,-3.109375 3.71875,-3.203125 3.078125,-3.609375 Z m -1,0.421875 1.234375,0.78125 c 0.28125,0.1875 0.75,0.484375 0.75,1.09375 0,0.734375 -0.75,1.25 -1.5625,1.25 -0.859375,0 -1.578125,-0.609375 -1.578125,-1.4375 0,-0.578125 0.3125,-1.21875 1.15625,-1.6875 z m 0,0"
           id="path23" />
      </symbol>
      <symbol
         overflow="visible"
         id="glyph0-8">
        <path
           style="stroke:none"
           d="m 1.3125,-3.265625 v -0.25 c 0,-2.515625 1.234375,-2.875 1.75,-2.875 0.234375,0 0.65625,0.0625 0.875,0.40625 -0.15625,0 -0.546875,0 -0.546875,0.4375 0,0.3125 0.234375,0.46875 0.453125,0.46875 0.15625,0 0.46875,-0.09375 0.46875,-0.484375 0,-0.59375 -0.4375,-1.078125 -1.265625,-1.078125 -1.28125,0 -2.625,1.28125 -2.625,3.484375 0,2.671875 1.15625,3.375 2.078125,3.375 1.109375,0 2.0625,-0.9375 2.0625,-2.25 0,-1.265625 -0.890625,-2.21875 -2,-2.21875 -0.671875,0 -1.046875,0.5 -1.25,0.984375 z M 2.5,-0.0625 c -0.625,0 -0.921875,-0.59375 -0.984375,-0.75 -0.1875,-0.46875 -0.1875,-1.265625 -0.1875,-1.4375 0,-0.78125 0.328125,-1.78125 1.21875,-1.78125 0.171875,0 0.625,0 0.9375,0.625 0.171875,0.359375 0.171875,0.875 0.171875,1.359375 0,0.484375 0,0.984375 -0.171875,1.34375 C 3.1875,-0.109375 2.734375,-0.0625 2.5,-0.0625 Z m 0,0"
           id="path26" />
      </symbol>
      <symbol
         overflow="visible"
         id="glyph1-0">
        <path
           style="stroke:none"
           d=""
           id="path29" />
      </symbol>
      <symbol
         overflow="visible"
         id="glyph1-1">
        <path
           style="stroke:none"
           d="m 6.5625,-2.296875 c 0.171875,0 0.359375,0 0.359375,-0.203125 0,-0.1875 -0.1875,-0.1875 -0.359375,-0.1875 H 1.171875 c -0.171875,0 -0.34375,0 -0.34375,0.1875 0,0.203125 0.171875,0.203125 0.34375,0.203125 z m 0,0"
           id="path32" />
      </symbol>
      <symbol
         overflow="visible"
         id="glyph2-0">
        <path
           style="stroke:none"
           d=""
           id="path35" />
      </symbol>
      <symbol
         overflow="visible"
         id="glyph2-1">
        <path
           style="stroke:none"
           d="M 3.734375,17.640625 C 3.953125,17.640625 4,17.640625 4,17.5 4.03125,10.515625 4.828125,4.71875 8.328125,-0.15625 c 0.0625,-0.09375 0.0625,-0.109375 0.0625,-0.140625 0,-0.09375 -0.0625,-0.09375 -0.21875,-0.09375 -0.171875,0 -0.1875,0 -0.203125,0.015625 -0.046875,0.03125 -1.3125,1.484375 -2.3125,3.5 -1.3125,2.625 -2.140625,5.640625 -2.515625,9.28125 -0.03125,0.296875 -0.234375,2.375 -0.234375,4.734375 v 0.390625 c 0,0.109375 0.0625,0.109375 0.28125,0.109375 z m 0,0"
           id="path38" />
      </symbol>
      <symbol
         overflow="visible"
         id="glyph2-2">
        <path
           style="stroke:none"
           d="m 3.1875,-0.5 c -0.21875,0 -0.28125,0 -0.28125,0.109375 V 0 c 0,6.09375 1.078125,9.65625 1.390625,10.671875 C 4.96875,12.875 6.078125,15.21875 7.75,17.265625 7.890625,17.453125 7.9375,17.5 7.96875,17.515625 8,17.53125 8,17.53125 8.171875,17.53125 c 0.15625,0 0.21875,0 0.21875,-0.09375 0,-0.01563 0,-0.04687 -0.0625,-0.125 C 5.015625,12.703125 4.015625,7.15625 4,-0.359375 4,-0.5 3.953125,-0.5 3.734375,-0.5 Z m 0,0"
           id="path41" />
      </symbol>
      <symbol
         overflow="visible"
         id="glyph2-3">
        <path
           style="stroke:none"
           d="M 5.8125,17.140625 C 5.8125,11.0625 4.71875,7.484375 4.421875,6.484375 3.734375,4.265625 2.625,1.9375 0.96875,-0.125 0.8125,-0.296875 0.78125,-0.34375 0.734375,-0.375 c -0.015625,0 -0.03125,-0.015625 -0.1875,-0.015625 -0.140625,0 -0.234375,0 -0.234375,0.09375 0,0.03125 0,0.046875 0.140625,0.234375 3.46875,4.84375 4.234375,10.8125 4.25,17.5625 0,0.140625 0.0625,0.140625 0.28125,0.140625 H 5.53125 c 0.203125,0 0.265625,0 0.28125,-0.109375 z m 0,0"
           id="path44" />
      </symbol>
      <symbol
         overflow="visible"
         id="glyph2-4">
        <path
           style="stroke:none"
           d="M 5.8125,-0.390625 C 5.796875,-0.5 5.734375,-0.5 5.53125,-0.5 H 4.984375 c -0.21875,0 -0.28125,0 -0.28125,0.140625 0,1.03125 -0.015625,3.40625 -0.265625,5.875 C 3.890625,10.671875 2.578125,14.25 0.390625,17.3125 0.3125,17.390625 0.3125,17.421875 0.3125,17.4375 c 0,0.09375 0.09375,0.09375 0.234375,0.09375 0.15625,0 0.1875,0 0.203125,-0.01563 C 0.78125,17.484375 2.046875,16.03125 3.0625,14.03125 4.375,11.390625 5.203125,8.375 5.578125,4.75 5.609375,4.4375 5.8125,2.359375 5.8125,0 Z m 0,0"
           id="path47" />
      </symbol>
      <symbol
         overflow="visible"
         id="glyph2-5">
        <path
           style="stroke:none"
           d="m 6.984375,23.421875 c 0,-0.04687 -0.03125,-0.0625 -0.046875,-0.09375 -0.375,-0.375 -1.03125,-1.03125 -1.703125,-2.109375 C 3.625,18.640625 2.90625,15.40625 2.90625,11.5625 c 0,-2.6875 0.359375,-6.140625 2,-9.109375 C 5.6875,1.03125 6.515625,0.21875 6.953125,-0.21875 c 0.03125,-0.03125 0.03125,-0.046875 0.03125,-0.078125 0,-0.109375 -0.078125,-0.109375 -0.21875,-0.109375 -0.140625,0 -0.15625,0 -0.3125,0.15625 -3.328125,3.046875 -4.375,7.609375 -4.375,11.796875 0,3.921875 0.890625,7.875 3.421875,10.859375 0.203125,0.21875 0.578125,0.625 0.984375,0.984375 0.125,0.125 0.140625,0.125 0.28125,0.125 0.140625,0 0.21875,0 0.21875,-0.09375 z m 0,0"
           id="path50" />
      </symbol>
      <symbol
         overflow="visible"
         id="glyph2-6">
        <path
           style="stroke:none"
           d="M 5.25,11.5625 C 5.25,7.640625 4.359375,3.703125 1.828125,0.71875 1.625,0.484375 1.25,0.078125 0.84375,-0.28125 c -0.125,-0.125 -0.140625,-0.125 -0.28125,-0.125 -0.125,0 -0.21875,0 -0.21875,0.109375 0,0.03125 0.046875,0.078125 0.0625,0.09375 0.34375,0.359375 1.015625,1.03125 1.6875,2.109375 1.609375,2.5625 2.328125,5.8125 2.328125,9.640625 0,2.6875 -0.359375,6.140625 -2,9.125 -0.78125,1.40625 -1.609375,2.234375 -2.03125,2.65625 -0.015625,0.03125 -0.046875,0.0625 -0.046875,0.09375 0,0.09375 0.09375,0.09375 0.21875,0.09375 0.140625,0 0.15625,0 0.3125,-0.15625 C 4.203125,20.328125 5.25,15.765625 5.25,11.5625 Z m 0,0"
           id="path53" />
      </symbol>
      <symbol
         overflow="visible"
         id="glyph3-0">
        <path
           style="stroke:none"
           d=""
           id="path56" />
      </symbol>
      <symbol
         overflow="visible"
         id="glyph3-1">
        <path
           style="stroke:none"
           d="m 6.515625,-1.859375 c 0,-0.828125 -0.5625,-1.5625 -1.734375,-1.71875 C 5.734375,-3.765625 6.25,-4.390625 6.25,-5.125 6.25,-6.015625 5.546875,-6.84375 4.109375,-6.84375 H 0.34375 V -6.375 h 0.9375 v 5.90625 H 0.34375 V 0 h 4.015625 c 1.46875,0 2.15625,-0.890625 2.15625,-1.859375 z M 4.828125,-5.125 c 0,0.734375 -0.265625,1.390625 -1.078125,1.390625 H 2.578125 V -6.375 h 1.40625 c 0.171875,0 0.84375,0 0.84375,1.25 z m 0.21875,3.25 c 0,0.421875 -0.078125,0.734375 -0.21875,0.953125 C 4.5625,-0.46875 4.171875,-0.46875 4,-0.46875 H 2.578125 V -3.375 H 4.09375 c 0.203125,0 0.515625,0 0.75,0.46875 0.203125,0.390625 0.203125,0.9375 0.203125,1.03125 z m 0,0"
           id="path59" />
      </symbol>
      <symbol
         overflow="visible"
         id="glyph3-2">
        <path
           style="stroke:none"
           d="m 6.625,-2.265625 c 0,-0.203125 -0.0625,-0.203125 -0.234375,-0.203125 -0.125,0 -0.21875,0 -0.234375,0.171875 0,1.3125 -1.03125,1.9375 -1.890625,1.9375 -0.703125,0 -1.40625,-0.3125 -1.765625,-0.921875 -0.359375,-0.578125 -0.421875,-1.234375 -0.421875,-2.140625 0,-0.640625 0,-1.59375 0.46875,-2.234375 0.5,-0.6875 1.265625,-0.828125 1.703125,-0.828125 0.796875,0 1.640625,0.625 1.84375,2.078125 C 6.125,-4.25 6.1875,-4.25 6.359375,-4.25 6.625,-4.25 6.625,-4.265625 6.625,-4.53125 v -2.140625 c 0,-0.1875 0,-0.28125 -0.171875,-0.28125 -0.09375,0 -0.109375,0.03125 -0.1875,0.09375 L 5.6875,-6.328125 c -0.46875,-0.40625 -0.96875,-0.625 -1.625,-0.625 -1.953125,0 -3.5,1.28125 -3.5,3.53125 0,2.21875 1.5,3.53125 3.5,3.53125 1.625,0 2.5625,-1.3125 2.5625,-2.375 z m 0,0"
           id="path62" />
      </symbol>
      <symbol
         overflow="visible"
         id="glyph3-3">
        <path
           style="stroke:none"
           d="m 7.171875,0 v -0.46875 h -0.84375 l -2.1875,-6.234375 c -0.09375,-0.25 -0.1875,-0.25 -0.375,-0.25 -0.171875,0 -0.28125,0 -0.375,0.25 l -2.109375,6 c -0.0625,0.15625 -0.0625,0.1875 -0.359375,0.21875 C 0.734375,-0.46875 0.5,-0.46875 0.34375,-0.46875 V 0 L 1.40625,-0.03125 2.578125,0 v -0.46875 c -0.078125,0 -0.78125,0 -0.78125,-0.125 L 1.84375,-0.703125 2.234375,-1.8125 h 2.1875 l 0.46875,1.34375 H 4.0625 V 0 c 0.359375,-0.03125 1.21875,-0.03125 1.625,-0.03125 0.390625,0 1.125,0 1.484375,0.03125 z M 4.25,-2.28125 H 2.390625 L 3.3125,-4.921875 Z m 0,0"
           id="path65" />
      </symbol>
    </g>
  </defs>
  <g
     id="surface1"
     transform="translate(-130.74374,-115.92325)">
    <g
       style="fill:#000000;fill-opacity:1"
       id="g74">
      <use
         xlink:href="#glyph0-1"
         x="220.532"
         y="142.13699"
         id="use72"
         width="100%"
         height="100%" />
    </g>
    <g
       style="fill:#000000;fill-opacity:1"
       id="g78">
      <use
         xlink:href="#glyph0-2"
         x="235.476"
         y="142.13699"
         id="use76"
         width="100%"
         height="100%" />
    </g>
    <g
       style="fill:#000000;fill-opacity:1"
       id="g82">
      <use
         xlink:href="#glyph0-3"
         x="220.532"
         y="154.092"
         id="use80"
         width="100%"
         height="100%" />
    </g>
    <g
       style="fill:#000000;fill-opacity:1"
       id="g86">
      <use
         xlink:href="#glyph0-2"
         x="235.476"
         y="154.092"
         id="use84"
         width="100%"
         height="100%" />
    </g>
    <g
       style="fill:#000000;fill-opacity:1"
       id="g90">
      <use
         xlink:href="#glyph0-4"
         x="271.44901"
         y="154.092"
         id="use88"
         width="100%"
         height="100%" />
    </g>
    <g
       style="fill:#000000;fill-opacity:1"
       id="g94">
      <use
         xlink:href="#glyph0-4"
         x="294.142"
         y="154.092"
         id="use92"
         width="100%"
         height="100%" />
    </g>
    <g
       style="fill:#000000;fill-opacity:1"
       id="g98">
      <use
         xlink:href="#glyph0-2"
         x="314.06699"
         y="154.092"
         id="use96"
         width="100%"
         height="100%" />
    </g>
    <g
       style="fill:#000000;fill-opacity:1"
       id="g102">
      <use
         xlink:href="#glyph0-2"
         x="333.99301"
         y="154.092"
         id="use100"
         width="100%"
         height="100%" />
    </g>
    <g
       style="fill:#000000;fill-opacity:1"
       id="g106">
      <use
         xlink:href="#glyph0-4"
         x="220.532"
         y="166.047"
         id="use104"
         width="100%"
         height="100%" />
    </g>
    <g
       style="fill:#000000;fill-opacity:1"
       id="g110">
      <use
         xlink:href="#glyph0-4"
         x="235.476"
         y="166.047"
         id="use108"
         width="100%"
         height="100%" />
    </g>
    <g
       style="fill:#000000;fill-opacity:1"
       id="g114">
      <use
         xlink:href="#glyph1-1"
         x="263.70099"
         y="166.047"
         id="use112"
         width="100%"
         height="100%" />
    </g>
    <g
       style="fill:#000000;fill-opacity:1"
       id="g118">
      <use
         xlink:href="#glyph0-4"
         x="271.45001"
         y="166.047"
         id="use116"
         width="100%"
         height="100%" />
    </g>
    <g
       style="fill:#000000;fill-opacity:1"
       id="g122">
      <use
         xlink:href="#glyph1-1"
         x="286.39401"
         y="166.047"
         id="use120"
         width="100%"
         height="100%" />
    </g>
    <g
       style="fill:#000000;fill-opacity:1"
       id="g126">
      <use
         xlink:href="#glyph0-2"
         x="294.142"
         y="166.047"
         id="use124"
         width="100%"
         height="100%" />
    </g>
    <g
       style="fill:#000000;fill-opacity:1"
       id="g130">
      <use
         xlink:href="#glyph0-3"
         x="314.06699"
         y="166.047"
         id="use128"
         width="100%"
         height="100%" />
    </g>
    <g
       style="fill:#000000;fill-opacity:1"
       id="g134">
      <use
         xlink:href="#glyph0-2"
         x="333.99301"
         y="166.047"
         id="use132"
         width="100%"
         height="100%" />
    </g>
    <g
       style="fill:#000000;fill-opacity:1"
       id="g138">
      <use
         xlink:href="#glyph0-2"
         x="157.439"
         y="183.67101"
         id="use136"
         width="100%"
         height="100%" />
    </g>
    <g
       style="fill:#000000;fill-opacity:1"
       id="g142">
      <use
         xlink:href="#glyph0-4"
         x="172.383"
         y="183.67101"
         id="use140"
         width="100%"
         height="100%" />
    </g>
    <g
       style="fill:#000000;fill-opacity:1"
       id="g146">
      <use
         xlink:href="#glyph0-4"
         x="187.327"
         y="183.67101"
         id="use144"
         width="100%"
         height="100%" />
    </g>
    <g
       style="fill:#000000;fill-opacity:1"
       id="g150">
      <use
         xlink:href="#glyph0-5"
         x="220.532"
         y="183.67101"
         id="use148"
         width="100%"
         height="100%" />
    </g>
    <g
       style="fill:#000000;fill-opacity:1"
       id="g154">
      <use
         xlink:href="#glyph0-5"
         x="235.476"
         y="183.67101"
         id="use152"
         width="100%"
         height="100%" />
    </g>
    <g
       style="fill:#000000;fill-opacity:1"
       id="g158">
      <use
         xlink:href="#glyph0-3"
         x="271.44901"
         y="183.67101"
         id="use156"
         width="100%"
         height="100%" />
    </g>
    <g
       style="fill:#000000;fill-opacity:1"
       id="g162">
      <use
         xlink:href="#glyph0-5"
         x="294.142"
         y="183.67101"
         id="use160"
         width="100%"
         height="100%" />
    </g>
    <g
       style="fill:#000000;fill-opacity:1"
       id="g166">
      <use
         xlink:href="#glyph0-5"
         x="314.06699"
         y="183.67101"
         id="use164"
         width="100%"
         height="100%" />
    </g>
    <g
       style="fill:#000000;fill-opacity:1"
       id="g172">
      <use
         xlink:href="#glyph0-2"
         x="329.01199"
         y="183.67101"
         id="use168"
         width="100%"
         height="100%" />
      <use
         xlink:href="#glyph0-6"
         x="333.99329"
         y="183.67101"
         id="use170"
         width="100%"
         height="100%" />
    </g>
    <g
       style="fill:#000000;fill-opacity:1"
       id="g176">
      <use
         xlink:href="#glyph0-4"
         x="157.439"
         y="195.627"
         id="use174"
         width="100%"
         height="100%" />
    </g>
    <g
       style="fill:#000000;fill-opacity:1"
       id="g180">
      <use
         xlink:href="#glyph0-3"
         x="172.383"
         y="195.627"
         id="use178"
         width="100%"
         height="100%" />
    </g>
    <g
       style="fill:#000000;fill-opacity:1"
       id="g184">
      <use
         xlink:href="#glyph0-1"
         x="187.327"
         y="195.627"
         id="use182"
         width="100%"
         height="100%" />
    </g>
    <g
       style="fill:#000000;fill-opacity:1"
       id="g190">
      <use
         xlink:href="#glyph0-2"
         x="215.552"
         y="195.627"
         id="use186"
         width="100%"
         height="100%" />
      <use
         xlink:href="#glyph0-4"
         x="220.53329"
         y="195.627"
         id="use188"
         width="100%"
         height="100%" />
    </g>
    <g
       style="fill:#000000;fill-opacity:1"
       id="g194">
      <use
         xlink:href="#glyph0-7"
         x="235.476"
         y="195.627"
         id="use192"
         width="100%"
         height="100%" />
    </g>
    <g
       style="fill:#000000;fill-opacity:1"
       id="g198">
      <use
         xlink:href="#glyph0-7"
         x="271.44901"
         y="195.627"
         id="use196"
         width="100%"
         height="100%" />
    </g>
    <g
       style="fill:#000000;fill-opacity:1"
       id="g204">
      <use
         xlink:href="#glyph0-2"
         x="289.16101"
         y="195.627"
         id="use200"
         width="100%"
         height="100%" />
      <use
         xlink:href="#glyph0-8"
         x="294.1423"
         y="195.627"
         id="use202"
         width="100%"
         height="100%" />
    </g>
    <g
       style="fill:#000000;fill-opacity:1"
       id="g210">
      <use
         xlink:href="#glyph0-2"
         x="309.08701"
         y="195.627"
         id="use206"
         width="100%"
         height="100%" />
      <use
         xlink:href="#glyph0-4"
         x="314.0683"
         y="195.627"
         id="use208"
         width="100%"
         height="100%" />
    </g>
    <g
       style="fill:#000000;fill-opacity:1"
       id="g216">
      <use
         xlink:href="#glyph0-4"
         x="329.01199"
         y="195.627"
         id="use212"
         width="100%"
         height="100%" />
      <use
         xlink:href="#glyph0-3"
         x="333.99329"
         y="195.627"
         id="use214"
         width="100%"
         height="100%" />
    </g>
    <g
       style="fill:#000000;fill-opacity:1"
       id="g220">
      <use
         xlink:href="#glyph2-1"
         x="206.43401"
         y="133.967"
         id="use218"
         width="100%"
         height="100%" />
    </g>
    <g
       style="fill:#000000;fill-opacity:1"
       id="g224">
      <use
         xlink:href="#glyph2-2"
         x="206.43401"
         y="151.89999"
         id="use222"
         width="100%"
         height="100%" />
    </g>
    <g
       style="fill:#000000;fill-opacity:1"
       id="g228">
      <use
         xlink:href="#glyph2-3"
         x="240.855"
         y="133.967"
         id="use226"
         width="100%"
         height="100%" />
    </g>
    <g
       style="fill:#000000;fill-opacity:1"
       id="g232">
      <use
         xlink:href="#glyph2-4"
         x="240.855"
         y="151.89999"
         id="use230"
         width="100%"
         height="100%" />
    </g>
    <g
       style="fill:#000000;fill-opacity:1"
       id="g236">
      <use
         xlink:href="#glyph2-5"
         x="255.967"
         y="145.922"
         id="use234"
         width="100%"
         height="100%" />
    </g>
    <g
       style="fill:#000000;fill-opacity:1"
       id="g240">
      <use
         xlink:href="#glyph2-6"
         x="339.37299"
         y="145.922"
         id="use238"
         width="100%"
         height="100%" />
    </g>
    <g
       style="fill:#000000;fill-opacity:1"
       id="g244">
      <use
         xlink:href="#glyph2-5"
         x="149.70399"
         y="175.502"
         id="use242"
         width="100%"
         height="100%" />
    </g>
    <g
       style="fill:#000000;fill-opacity:1"
       id="g248">
      <use
         xlink:href="#glyph2-6"
         x="192.705"
         y="175.502"
         id="use246"
         width="100%"
         height="100%" />
    </g>
    <g
       style="fill:#000000;fill-opacity:1"
       id="g252">
      <use
         xlink:href="#glyph2-5"
         x="207.817"
         y="175.502"
         id="use250"
         width="100%"
         height="100%" />
    </g>
    <g
       style="fill:#000000;fill-opacity:1"
       id="g256">
      <use
         xlink:href="#glyph2-6"
         x="240.855"
         y="175.502"
         id="use254"
         width="100%"
         height="100%" />
    </g>
    <g
       style="fill:#000000;fill-opacity:1"
       id="g260">
      <use
         xlink:href="#glyph2-5"
         x="255.967"
         y="175.502"
         id="use258"
         width="100%"
         height="100%" />
    </g>
    <g
       style="fill:#000000;fill-opacity:1"
       id="g264">
      <use
         xlink:href="#glyph2-6"
         x="339.37299"
         y="175.502"
         id="use262"
         width="100%"
         height="100%" />
    </g>
    <path
       style="fill:none;stroke:#0000ff;stroke-width:0.79701;stroke-linecap:butt;stroke-linejoin:miter;stroke-miterlimit:10;stroke-opacity:1"
       d="m -175.21116,51.92725 -14.6914,7.347656"
       transform="matrix(1,0,0,-1,387.676,183.771)"
       id="path266" />
    <path
       style="fill:#0000ff;fill-opacity:1;fill-rule:nonzero;stroke:none"
       d="m 214.78516,133 -2.78125,-3.70703 0.46093,2.55078 -2.3164,1.15625"
       id="path268" />
    <g
       style="fill:#0000ff;fill-opacity:1"
       id="g272">
      <use
         xlink:href="#glyph3-1"
         x="189.961"
         y="123.767"
         id="use270"
         width="100%"
         height="100%" />
    </g>
    <path
       style="fill:none;stroke:#0000ff;stroke-width:0.79701;stroke-linecap:butt;stroke-linejoin:miter;stroke-miterlimit:10;stroke-opacity:1"
       d="M -45.617406,39.974125 -30.926,47.317875"
       transform="matrix(1,0,0,-1,387.676,183.771)"
       id="path274" />
    <path
       style="fill:#0000ff;fill-opacity:1;fill-rule:nonzero;stroke:none"
       d="m 339.74219,144.95703 h 4.63281 l -2.31641,-1.16016 0.46094,-2.54687"
       id="path276" />
    <g
       style="fill:#0000ff;fill-opacity:1"
       id="g280">
      <use
         xlink:href="#glyph3-2"
         x="357.479"
         y="135.612"
         id="use278"
         width="100%"
         height="100%" />
    </g>
    <path
       style="fill:none;stroke:#0000ff;stroke-width:0.79701;stroke-linecap:butt;stroke-linejoin:miter;stroke-miterlimit:10;stroke-opacity:1"
       d="m -233.32053,10.392094 -14.69141,7.347656"
       transform="matrix(1,0,0,-1,387.676,183.771)"
       id="path282" />
    <path
       style="fill:#0000ff;fill-opacity:1;fill-rule:nonzero;stroke:none"
       d="m 156.67187,174.53516 -2.78125,-3.70704 0.46485,2.55079 -2.31641,1.15625"
       id="path284" />
    <g
       style="fill:#0000ff;fill-opacity:1"
       id="g288">
      <use
         xlink:href="#glyph3-3"
         x="131.39999"
         y="165.302"
         id="use286"
         width="100%"
         height="100%" />
    </g>
    <path
       style="fill:none;stroke:#0000ff;stroke-width:0.79701;stroke-linecap:butt;stroke-linejoin:miter;stroke-miterlimit:10;stroke-opacity:1"
       d="m -175.21116,10.392094 -14.6914,7.347656"
       transform="matrix(1,0,0,-1,387.676,183.771)"
       id="path290" />
    <path
       style="fill:#0000ff;fill-opacity:1;fill-rule:nonzero;stroke:none"
       d="m 214.78516,174.53516 -2.78125,-3.70704 0.46093,2.55079 -2.3164,1.15625"
       id="path292" />
    <g
       style="fill:#0000ff;fill-opacity:1"
       id="g298">
      <use
         xlink:href="#glyph3-3"
         x="182.429"
         y="165.302"
         id="use294"
         width="100%"
         height="100%" />
      <use
         xlink:href="#glyph3-1"
         x="189.96072"
         y="165.302"
         id="use296"
         width="100%"
         height="100%" />
    </g>
    <path
       style="fill:none;stroke:#0000ff;stroke-width:0.79701;stroke-linecap:butt;stroke-linejoin:miter;stroke-miterlimit:10;stroke-opacity:1"
       d="M -45.617406,10.392094 -30.926,17.73975"
       transform="matrix(1,0,0,-1,387.676,183.771)"
       id="path300" />
    <path
       style="fill:#0000ff;fill-opacity:1;fill-rule:nonzero;stroke:none"
       d="m 339.74219,174.53516 h 4.63281 l -2.31641,-1.15625 0.46094,-2.55079"
       id="path302" />
    <g
       style="fill:#0000ff;fill-opacity:1"
       id="g310">
      <use
         xlink:href="#glyph3-3"
         x="357.479"
         y="165.192"
         id="use304"
         width="100%"
         height="100%" />
      <use
         xlink:href="#glyph3-1"
         x="365.01071"
         y="165.192"
         id="use306"
         width="100%"
         height="100%" />
      <use
         xlink:href="#glyph3-2"
         x="372.09415"
         y="165.192"
         id="use308"
         width="100%"
         height="100%" />
    </g>
  </g>
</svg>
