<?xml version="1.0" standalone="no"?>

<svg 
     version="1.1"
     baseProfile="full"
     xmlns="http://www.w3.org/2000/svg"
     xmlns:xlink="http://www.w3.org/1999/xlink"
     xmlns:ev="http://www.w3.org/2001/xml-events"
     x="0px"
     y="0px"
     width="546px"
     height="470px"
     viewBox="0 0 546 470"
     >
<title></title>
<desc>Creator: FreeHEP Graphics2D Driver Producer: geogebra.export.SVGExtensions Revision: 12753  Source:  Date: Monday, March 23, 2020 at 5:43:07 PM Eastern Daylight Time</desc>
<g stroke-dashoffset="0" stroke-linejoin="miter" stroke-dasharray="none" stroke-width="1" stroke-linecap="square" stroke-miterlimit="10">
<g transform="matrix(0.6236220472440945, 0, 0, 0.6236220472440945, 0, 0)">
<g fill="#ffffff" fill-rule="nonzero" fill-opacity="1" stroke="none">
  <path d="M 0 0 L 877 0 L 877 755 L 0 755 L 0 0 z"/>
</g> <!-- drawing style -->
</g> <!-- transform -->
<g id="misc">
</g><!-- misc -->
<g id="layer0">
<g transform="matrix(0.6236220472440945, 0, 0, 0.6236220472440945, 0, 0)">
<g stroke-opacity="1" stroke-linejoin="round" fill="none" stroke="#000000" stroke-linecap="round">
  <path d="M 62.54545454545459 373.18181818181813 L 153.4545454545455 305"/>
</g> <!-- drawing style -->
</g> <!-- transform -->
<g transform="matrix(0.6236220472440945, 0, 0, 0.6236220472440945, 0, 0)">
<g stroke-opacity="1" stroke-linejoin="round" fill="none" stroke="#000000" stroke-linecap="round">
  <path d="M 289.81818181818187 373.18181818181813 L 380.72727272727275 305"/>
</g> <!-- drawing style -->
</g> <!-- transform -->
<g transform="matrix(0.6236220472440945, 0, 0, 0.6236220472440945, 0, 0)">
<g stroke-opacity="1" stroke-linejoin="round" fill="none" stroke="#000000" stroke-linecap="round">
  <path d="M 153.4545454545455 305 L 380.72727272727275 305"/>
</g> <!-- drawing style -->
</g> <!-- transform -->
<g transform="matrix(0.6236220472440945, 0, 0, 0.6236220472440945, 0, 0)">
<g stroke-opacity="1" stroke-linejoin="round" fill="none" stroke="#000000" stroke-linecap="round">
  <path d="M 62.54545454545459 373.18181818181813 L 289.81818181818187 373.18181818181813"/>
</g> <!-- drawing style -->
</g> <!-- transform -->
<g transform="matrix(0.6236220472440945, 0, 0, 0.6236220472440945, 0, 0)">
<g stroke-opacity="1" stroke-linejoin="round" stroke-width="3.5" fill="none" stroke="#ff0066" stroke-linecap="round">
  <path d="M 130.72727272727278 344.09090909090907 L 130.72727272727278 183.09090909090912"/>
</g> <!-- drawing style -->
</g> <!-- transform -->
<g transform="matrix(0.6236220472440945, 0, 0, 0.6236220472440945, 0, 0)">
<g fill="#ff0066" fill-rule="nonzero" fill-opacity="1" stroke="none">
  <path d="M 130.72727966308594 164.09091186523438 L 135.47727966308594 183.09091186523438 L 125.9772720336914 183.09091186523438 z"/>
</g> <!-- drawing style -->
</g> <!-- transform -->
<g transform="matrix(0.6236220472440945, 0, 0, 0.6236220472440945, 0, 0)">
<g stroke-opacity="1" stroke-linejoin="round" stroke-width="3.5" fill="none" stroke="#0066ff" stroke-linecap="round">
  <path d="M 130.72727272727278 344.09090909090907 L 248.09090909090912 344.09090909090907"/>
</g> <!-- drawing style -->
</g> <!-- transform -->
<g transform="matrix(0.6236220472440945, 0, 0, 0.6236220472440945, 0, 0)">
<g fill="#0066ff" fill-rule="nonzero" fill-opacity="1" stroke="none">
  <path d="M 267.0909118652344 344.0909118652344 L 248.09091186523438 348.8409118652344 L 248.09091186523438 339.3409118652344 z"/>
</g> <!-- drawing style -->
</g> <!-- transform -->
<g transform="matrix(0.32178898197215344, 0, 0, 0.32178898197215344, 91.67243990410032, 117.19939271821751)">
<g fill="#ff0066" fill-rule="nonzero" fill-opacity="1" stroke="none">
  <path d="M 53.59375 -40.09375 Q 51.59375 -41.59375 48.796875 -41.59375 Q 46.09375 -41.59375 43.75 -39.1875 Q 41.40625 -36.796875 40.296875 -32.5 Q 40 -31.59375 38.5 -25.6875 Q 37 -19.796875 36.796875 -18.90625 Q 34.59375 -9.90625 34.59375 -7.796875 Q 34.59375 -2.796875 40.203125 -2.796875 Q 44 -2.796875 48.203125 -5.75 Q 52.40625 -8.703125 54.40625 -14.90625 Q 54.796875 -16.203125 56.703125 -16.203125 Q 59.09375 -16.203125 59.09375 -14.796875 Q 59.09375 -13.40625 57.796875 -10.953125 Q 56.5 -8.5 54.203125 -5.796875 Q 51.90625 -3.09375 48 -1.140625 Q 44.09375 0.796875 39.703125 0.796875 Q 29.5 0.796875 25.90625 -5.296875 Q 21.5 0.796875 15.203125 0.796875 Q 10.5 0.796875 7.140625 -1.640625 Q 3.796875 -4.09375 3.796875 -8 Q 3.796875 -11.5 6 -13.640625 Q 8.203125 -15.796875 11 -15.796875 Q 13.296875 -15.796875 14.640625 -14.390625 Q 16 -13 16 -11.203125 Q 16 -9.09375 14.546875 -7.046875 Q 13.09375 -5 10.59375 -4.296875 Q 12.59375 -2.796875 15.40625 -2.796875 Q 18.09375 -2.796875 20.4375 -5.140625 Q 22.796875 -7.5 23.90625 -11.90625 L 27.296875 -25.59375 Q 29.59375 -34.796875 29.59375 -36.59375 Q 29.59375 -41.59375 24 -41.59375 Q 20.203125 -41.59375 16 -38.640625 Q 11.796875 -35.703125 9.796875 -29.5 Q 9.40625 -28.203125 7.5 -28.203125 Q 5.09375 -28.203125 5.09375 -29.59375 Q 5.09375 -31 6.390625 -33.453125 Q 7.703125 -35.90625 10 -38.59375 Q 12.296875 -41.296875 16.1875 -43.25 Q 20.09375 -45.203125 24.5 -45.203125 Q 34.703125 -45.203125 38.296875 -39.09375 Q 42.703125 -45.203125 49 -45.203125 Q 53.703125 -45.203125 57.046875 -42.75 Q 60.40625 -40.296875 60.40625 -36.40625 Q 60.40625 -32.90625 58.203125 -30.75 Q 56 -28.59375 53.203125 -28.59375 Q 50.90625 -28.59375 49.546875 -30 Q 48.203125 -31.40625 48.203125 -33.203125 Q 48.203125 -35.296875 49.640625 -37.34375 Q 51.09375 -39.40625 53.59375 -40.09375 z"/>
</g> <!-- drawing style -->
</g> <!-- transform -->
<g transform="matrix(0.22525228438361392, 0, 0, 0.22525228438361392, 112.87920248962098, 122.02622774748916)">
<g fill="#ff0066" fill-rule="nonzero" fill-opacity="1" stroke="none">
  <path d="M 35.40625 -62.296875 L 35.40625 -4.703125 L 49.40625 -4.703125 L 49.40625 -0 Q 45 -0.296875 29.5 -0.296875 Q 14 -0.296875 9.59375 -0 L 9.59375 -4.703125 L 23.5 -4.703125 L 23.5 -56.40625 Q 17.296875 -54.40625 10.5 -54.40625 L 8.5 -54.40625 L 8.5 -59.09375 L 10.5 -59.09375 Q 22.90625 -59.09375 30.59375 -64.796875 Q 31.5 -65.5 32.796875 -65.5 Q 34.59375 -65.5 35 -64.84375 Q 35.40625 -64.203125 35.40625 -62.296875 z"/>
</g> <!-- drawing style -->
</g> <!-- transform -->
<g transform="matrix(0.32178898197215344, 0, 0, 0.32178898197215344, 152.16377536443275, 207.0009591951145)">
<g fill="#0066ff" fill-rule="nonzero" fill-opacity="1" stroke="none">
  <path d="M 53.59375 -40.09375 Q 51.59375 -41.59375 48.796875 -41.59375 Q 46.09375 -41.59375 43.75 -39.1875 Q 41.40625 -36.796875 40.296875 -32.5 Q 40 -31.59375 38.5 -25.6875 Q 37 -19.796875 36.796875 -18.90625 Q 34.59375 -9.90625 34.59375 -7.796875 Q 34.59375 -2.796875 40.203125 -2.796875 Q 44 -2.796875 48.203125 -5.75 Q 52.40625 -8.703125 54.40625 -14.90625 Q 54.796875 -16.203125 56.703125 -16.203125 Q 59.09375 -16.203125 59.09375 -14.796875 Q 59.09375 -13.40625 57.796875 -10.953125 Q 56.5 -8.5 54.203125 -5.796875 Q 51.90625 -3.09375 48 -1.140625 Q 44.09375 0.796875 39.703125 0.796875 Q 29.5 0.796875 25.90625 -5.296875 Q 21.5 0.796875 15.203125 0.796875 Q 10.5 0.796875 7.140625 -1.640625 Q 3.796875 -4.09375 3.796875 -8 Q 3.796875 -11.5 6 -13.640625 Q 8.203125 -15.796875 11 -15.796875 Q 13.296875 -15.796875 14.640625 -14.390625 Q 16 -13 16 -11.203125 Q 16 -9.09375 14.546875 -7.046875 Q 13.09375 -5 10.59375 -4.296875 Q 12.59375 -2.796875 15.40625 -2.796875 Q 18.09375 -2.796875 20.4375 -5.140625 Q 22.796875 -7.5 23.90625 -11.90625 L 27.296875 -25.59375 Q 29.59375 -34.796875 29.59375 -36.59375 Q 29.59375 -41.59375 24 -41.59375 Q 20.203125 -41.59375 16 -38.640625 Q 11.796875 -35.703125 9.796875 -29.5 Q 9.40625 -28.203125 7.5 -28.203125 Q 5.09375 -28.203125 5.09375 -29.59375 Q 5.09375 -31 6.390625 -33.453125 Q 7.703125 -35.90625 10 -38.59375 Q 12.296875 -41.296875 16.1875 -43.25 Q 20.09375 -45.203125 24.5 -45.203125 Q 34.703125 -45.203125 38.296875 -39.09375 Q 42.703125 -45.203125 49 -45.203125 Q 53.703125 -45.203125 57.046875 -42.75 Q 60.40625 -40.296875 60.40625 -36.40625 Q 60.40625 -32.90625 58.203125 -30.75 Q 56 -28.59375 53.203125 -28.59375 Q 50.90625 -28.59375 49.546875 -30 Q 48.203125 -31.40625 48.203125 -33.203125 Q 48.203125 -35.296875 49.640625 -37.34375 Q 51.09375 -39.40625 53.59375 -40.09375 z"/>
</g> <!-- drawing style -->
</g> <!-- transform -->
<g transform="matrix(0.22525228438361392, 0, 0, 0.22525228438361392, 173.37053794995342, 211.82779422438614)">
<g fill="#0066ff" fill-rule="nonzero" fill-opacity="1" stroke="none">
  <path d="M 51.703125 -22.203125 L 48.59375 -0 L 5.703125 -0 L 5.703125 -1.796875 Q 5.703125 -3.40625 5.890625 -3.84375 Q 6.09375 -4.296875 7 -5.203125 L 27.09375 -25.703125 Q 37.90625 -36.703125 37.90625 -46.5 Q 37.90625 -52.5 34.40625 -56.640625 Q 30.90625 -60.796875 24.703125 -60.796875 Q 18.59375 -60.796875 14.40625 -57.296875 Q 15.5 -57 16.59375 -56.453125 Q 17.703125 -55.90625 18.890625 -54.203125 Q 20.09375 -52.5 20.09375 -50.09375 Q 20.09375 -46.59375 17.84375 -44.75 Q 15.59375 -42.90625 12.90625 -42.90625 Q 10.40625 -42.90625 8.046875 -44.65625 Q 5.703125 -46.40625 5.703125 -50.296875 Q 5.703125 -57 11.84375 -61.25 Q 18 -65.5 27.203125 -65.5 Q 37.90625 -65.5 44.796875 -60.296875 Q 51.703125 -55.09375 51.703125 -46.59375 Q 51.703125 -43.09375 50.703125 -40.390625 Q 49.703125 -37.703125 46.890625 -34.75 Q 44.09375 -31.796875 41.6875 -29.890625 Q 39.296875 -28 33.90625 -24 Q 29.203125 -20.59375 19.5 -12.5 L 34.203125 -12.5 Q 43.296875 -12.5 44.40625 -13.09375 Q 45.703125 -13.796875 47 -22.203125 L 51.703125 -22.203125 z"/>
</g> <!-- drawing style -->
</g> <!-- transform -->
<g transform="matrix(0.6236220472440945, 0, 0, 0.6236220472440945, 0, 0)">
<g fill="#000000" fill-rule="nonzero" fill-opacity="1" stroke="none">
  <path d="M 21 36.765625 Q 17.5625 36.765625 15.65625 39.3125 Q 13.765625 41.84375 13.765625 46.453125 Q 13.765625 51.03125 15.65625 53.578125 Q 17.5625 56.109375 21 56.109375 Q 24.453125 56.109375 26.34375 53.578125 Q 28.234375 51.03125 28.234375 46.453125 Q 28.234375 41.84375 26.34375 39.3125 Q 24.453125 36.765625 21 36.765625 z M 21 31.3125 Q 28.03125 31.3125 32.015625 35.34375 Q 36 39.359375 36 46.453125 Q 36 53.515625 32.015625 57.546875 Q 28.03125 61.5625 21 61.5625 Q 13.984375 61.5625 9.984375 57.546875 Q 6 53.515625 6 46.453125 Q 6 39.359375 9.984375 35.34375 Q 13.984375 31.3125 21 31.3125 z M 57.61328125 45.078125 Q 56.69140625 44.65625 55.78515625 44.453125 Q 54.87890625 44.234375 53.95703125 44.234375 Q 51.26953125 44.234375 49.81640625 45.96875 Q 48.36328125 47.703125 48.36328125 50.921875 L 48.36328125 61 L 41.36328125 61 L 41.36328125 39.125 L 48.36328125 39.125 L 48.36328125 42.71875 Q 49.70703125 40.5625 51.45703125 39.578125 Q 53.20703125 38.59375 55.64453125 38.59375 Q 55.98828125 38.59375 56.39453125 38.625 Q 56.81640625 38.65625 57.59765625 38.75 L 57.61328125 45.078125 z M 68.73046875 32.90625 L 68.73046875 39.125 L 75.93359375 39.125 L 75.93359375 44.125 L 68.73046875 44.125 L 68.73046875 53.40625 Q 68.73046875 54.921875 69.32421875 55.46875 Q 69.93359375 56 71.73046875 56 L 75.32421875 56 L 75.32421875 61 L 69.33984375 61 Q 65.19921875 61 63.46484375 59.28125 Q 61.73046875 57.546875 61.73046875 53.40625 L 61.73046875 44.125 L 58.26171875 44.125 L 58.26171875 39.125 L 61.73046875 39.125 L 61.73046875 32.90625 L 68.73046875 32.90625 z M 102.2109375 47.671875 L 102.2109375 61 L 95.1796875 61 L 95.1796875 58.828125 L 95.1796875 50.84375 Q 95.1796875 47.96875 95.0390625 46.90625 Q 94.9140625 45.828125 94.6015625 45.3125 Q 94.1953125 44.625 93.4921875 44.25 Q 92.7890625 43.875 91.8984375 43.875 Q 89.7109375 43.875 88.4609375 45.5625 Q 87.2109375 47.25 87.2109375 50.234375 L 87.2109375 61 L 80.2109375 61 L 80.2109375 30.609375 L 87.2109375 30.609375 L 87.2109375 42.328125 Q 88.7890625 40.40625 90.5546875 39.5 Q 92.3359375 38.59375 94.4921875 38.59375 Q 98.2734375 38.59375 100.2421875 40.921875 Q 102.2109375 43.25 102.2109375 47.671875 z M 119.09375 43.59375 Q 116.78125 43.59375 115.546875 45.265625 Q 114.328125 46.9375 114.328125 50.078125 Q 114.328125 53.21875 115.546875 54.890625 Q 116.78125 56.5625 119.09375 56.5625 Q 121.390625 56.5625 122.59375 54.890625 Q 123.8125 53.21875 123.8125 50.078125 Q 123.8125 46.9375 122.59375 45.265625 Q 121.390625 43.59375 119.09375 43.59375 z M 119.09375 38.59375 Q 124.75 38.59375 127.921875 41.640625 Q 131.09375 44.6875 131.09375 50.078125 Q 131.09375 55.46875 127.921875 58.515625 Q 124.75 61.5625 119.09375 61.5625 Q 113.4375 61.5625 110.234375 58.515625 Q 107.046875 55.46875 107.046875 50.078125 Q 107.046875 44.6875 110.234375 41.640625 Q 113.4375 38.59375 119.09375 38.59375 z M 151.05859375 57.28125 Q 149.60546875 59.203125 147.87109375 60.109375 Q 146.13671875 61 143.83984375 61 Q 139.83984375 61 137.21484375 57.84375 Q 134.60546875 54.6875 134.60546875 49.8125 Q 134.60546875 44.90625 137.21484375 41.78125 Q 139.83984375 38.640625 143.83984375 38.640625 Q 146.13671875 38.640625 147.87109375 39.546875 Q 149.60546875 40.4375 151.05859375 42.359375 L 151.05859375 39.125 L 158.08984375 39.125 L 158.08984375 58.796875 Q 158.08984375 64.0625 154.74609375 66.84375 Q 151.41796875 69.640625 145.08984375 69.640625 Q 143.04296875 69.640625 141.12109375 69.328125 Q 139.21484375 69.015625 137.27734375 68.359375 L 137.27734375 62.921875 Q 139.12109375 63.96875 140.87109375 64.484375 Q 142.63671875 65 144.41796875 65 Q 147.85546875 65 149.44921875 63.5 Q 151.05859375 62 151.05859375 58.796875 L 151.05859375 57.28125 z M 146.44921875 43.671875 Q 144.27734375 43.671875 143.05859375 45.28125 Q 141.85546875 46.875 141.85546875 49.8125 Q 141.85546875 52.8125 143.02734375 54.375 Q 144.19921875 55.921875 146.44921875 55.921875 Q 148.63671875 55.921875 149.83984375 54.328125 Q 151.05859375 52.71875 151.05859375 49.8125 Q 151.05859375 46.875 149.83984375 45.28125 Q 148.63671875 43.671875 146.44921875 43.671875 z M 175.20703125 43.59375 Q 172.89453125 43.59375 171.66015625 45.265625 Q 170.44140625 46.9375 170.44140625 50.078125 Q 170.44140625 53.21875 171.66015625 54.890625 Q 172.89453125 56.5625 175.20703125 56.5625 Q 177.50390625 56.5625 178.70703125 54.890625 Q 179.92578125 53.21875 179.92578125 50.078125 Q 179.92578125 46.9375 178.70703125 45.265625 Q 177.50390625 43.59375 175.20703125 43.59375 z M 175.20703125 38.59375 Q 180.86328125 38.59375 184.03515625 41.640625 Q 187.20703125 44.6875 187.20703125 50.078125 Q 187.20703125 55.46875 184.03515625 58.515625 Q 180.86328125 61.5625 175.20703125 61.5625 Q 169.55078125 61.5625 166.34765625 58.515625 Q 163.16015625 55.46875 163.16015625 50.078125 Q 163.16015625 44.6875 166.34765625 41.640625 Q 169.55078125 38.59375 175.20703125 38.59375 z M 214.28125 47.671875 L 214.28125 61 L 207.25 61 L 207.25 58.828125 L 207.25 50.796875 Q 207.25 47.96875 207.109375 46.90625 Q 206.984375 45.828125 206.671875 45.3125 Q 206.265625 44.625 205.5625 44.25 Q 204.859375 43.875 203.96875 43.875 Q 201.78125 43.875 200.53125 45.5625 Q 199.28125 47.25 199.28125 50.234375 L 199.28125 61 L 192.28125 61 L 192.28125 39.125 L 199.28125 39.125 L 199.28125 42.328125 Q 200.859375 40.40625 202.625 39.5 Q 204.40625 38.59375 206.5625 38.59375 Q 210.34375 38.59375 212.3125 40.921875 Q 214.28125 43.25 214.28125 47.671875 z M 230.5703125 51.15625 Q 228.3828125 51.15625 227.2734375 51.90625 Q 226.1640625 52.640625 226.1640625 54.078125 Q 226.1640625 55.40625 227.0546875 56.171875 Q 227.9453125 56.921875 229.5234375 56.921875 Q 231.5078125 56.921875 232.8515625 55.5 Q 234.1953125 54.078125 234.1953125 51.953125 L 234.1953125 51.15625 L 230.5703125 51.15625 z M 241.2421875 48.515625 L 241.2421875 61 L 234.1953125 61 L 234.1953125 57.75 Q 232.7890625 59.75 231.0234375 60.65625 Q 229.2734375 61.5625 226.7578125 61.5625 Q 223.3515625 61.5625 221.2265625 59.578125 Q 219.1171875 57.59375 219.1171875 54.4375 Q 219.1171875 50.59375 221.7578125 48.796875 Q 224.4140625 47 230.0703125 47 L 234.1953125 47 L 234.1953125 46.453125 Q 234.1953125 44.78125 232.8828125 44.015625 Q 231.5859375 43.25 228.8046875 43.25 Q 226.5546875 43.25 224.6171875 43.703125 Q 222.6953125 44.140625 221.0390625 45.046875 L 221.0390625 39.703125 Q 223.2734375 39.15625 225.5390625 38.875 Q 227.8046875 38.59375 230.0703125 38.59375 Q 235.9921875 38.59375 238.6171875 40.9375 Q 241.2421875 43.265625 241.2421875 48.515625 z M 247.75 30.609375 L 254.75 30.609375 L 254.75 61 L 247.75 61 L 247.75 30.609375 z M 275.69921875 31.84375 L 288.18359375 31.84375 Q 293.74609375 31.84375 296.71484375 34.3125 Q 299.69921875 36.78125 299.69921875 41.34375 Q 299.69921875 45.9375 296.71484375 48.40625 Q 293.74609375 50.875 288.18359375 50.875 L 283.21484375 50.875 L 283.21484375 61 L 275.69921875 61 L 275.69921875 31.84375 z M 283.21484375 37.28125 L 283.21484375 45.4375 L 287.38671875 45.4375 Q 289.57421875 45.4375 290.76171875 44.375 Q 291.94921875 43.296875 291.94921875 41.34375 Q 291.94921875 39.390625 290.76171875 38.34375 Q 289.57421875 37.28125 287.38671875 37.28125 L 283.21484375 37.28125 z M 320.953125 45.078125 Q 320.03125 44.65625 319.125 44.453125 Q 318.21875 44.234375 317.296875 44.234375 Q 314.609375 44.234375 313.15625 45.96875 Q 311.703125 47.703125 311.703125 50.921875 L 311.703125 61 L 304.703125 61 L 304.703125 39.125 L 311.703125 39.125 L 311.703125 42.71875 Q 313.046875 40.5625 314.796875 39.578125 Q 316.546875 38.59375 318.984375 38.59375 Q 319.328125 38.59375 319.734375 38.625 Q 320.15625 38.65625 320.9375 38.75 L 320.953125 45.078125 z M 334.8359375 43.59375 Q 332.5234375 43.59375 331.2890625 45.265625 Q 330.0703125 46.9375 330.0703125 50.078125 Q 330.0703125 53.21875 331.2890625 54.890625 Q 332.5234375 56.5625 334.8359375 56.5625 Q 337.1328125 56.5625 338.3359375 54.890625 Q 339.5546875 53.21875 339.5546875 50.078125 Q 339.5546875 46.9375 338.3359375 45.265625 Q 337.1328125 43.59375 334.8359375 43.59375 z M 334.8359375 38.59375 Q 340.4921875 38.59375 343.6640625 41.640625 Q 346.8359375 44.6875 346.8359375 50.078125 Q 346.8359375 55.46875 343.6640625 58.515625 Q 340.4921875 61.5625 334.8359375 61.5625 Q 329.1796875 61.5625 325.9765625 58.515625 Q 322.7890625 55.46875 322.7890625 50.078125 Q 322.7890625 44.6875 325.9765625 41.640625 Q 329.1796875 38.59375 334.8359375 38.59375 z M 351.91015625 39.125 L 358.91015625 39.125 L 358.91015625 60.609375 Q 358.91015625 65 356.80078125 67.3125 Q 354.69140625 69.640625 350.67578125 69.640625 L 347.22265625 69.640625 L 347.22265625 65.046875 L 348.42578125 65.046875 Q 350.42578125 65.046875 351.16015625 64.140625 Q 351.91015625 63.25 351.91015625 60.609375 L 351.91015625 39.125 z M 351.91015625 30.609375 L 358.91015625 30.609375 L 358.91015625 36.3125 L 351.91015625 36.3125 L 351.91015625 30.609375 z M 387.46484375 50 L 387.46484375 52 L 371.10546875 52 Q 371.37109375 54.453125 372.88671875 55.6875 Q 374.41796875 56.921875 377.15234375 56.921875 Q 379.35546875 56.921875 381.66796875 56.265625 Q 383.98046875 55.609375 386.41796875 54.28125 L 386.41796875 59.671875 Q 383.94921875 60.609375 381.46484375 61.078125 Q 378.98046875 61.5625 376.49609375 61.5625 Q 370.55859375 61.5625 367.26171875 58.546875 Q 363.98046875 55.53125 363.98046875 50.078125 Q 363.98046875 44.734375 367.21484375 41.671875 Q 370.44921875 38.59375 376.10546875 38.59375 Q 381.26171875 38.59375 384.35546875 41.703125 Q 387.46484375 44.8125 387.46484375 50 z M 380.27734375 47.671875 Q 380.27734375 45.6875 379.10546875 44.46875 Q 377.94921875 43.25 376.07421875 43.25 Q 374.04296875 43.25 372.76171875 44.390625 Q 371.49609375 45.53125 371.18359375 47.671875 L 380.27734375 47.671875 z M 410.421875 39.8125 L 410.421875 45.515625 Q 409 44.53125 407.5625 44.0625 Q 406.125 43.59375 404.59375 43.59375 Q 401.65625 43.59375 400.015625 45.3125 Q 398.390625 47.015625 398.390625 50.078125 Q 398.390625 53.140625 400.015625 54.859375 Q 401.65625 56.5625 404.59375 56.5625 Q 406.234375 56.5625 407.703125 56.078125 Q 409.171875 55.59375 410.421875 54.625 L 410.421875 60.359375 Q 408.78125 60.953125 407.09375 61.25 Q 405.40625 61.5625 403.703125 61.5625 Q 397.796875 61.5625 394.453125 58.53125 Q 391.109375 55.484375 391.109375 50.078125 Q 391.109375 44.671875 394.453125 41.640625 Q 397.796875 38.59375 403.703125 38.59375 Q 405.421875 38.59375 407.09375 38.90625 Q 408.765625 39.203125 410.421875 39.8125 z M 424.1015625 32.90625 L 424.1015625 39.125 L 431.3046875 39.125 L 431.3046875 44.125 L 424.1015625 44.125 L 424.1015625 53.40625 Q 424.1015625 54.921875 424.6953125 55.46875 Q 425.3046875 56 427.1015625 56 L 430.6953125 56 L 430.6953125 61 L 424.7109375 61 Q 420.5703125 61 418.8359375 59.28125 Q 417.1015625 57.546875 417.1015625 53.40625 L 417.1015625 44.125 L 413.6328125 44.125 L 413.6328125 39.125 L 417.1015625 39.125 L 417.1015625 32.90625 L 424.1015625 32.90625 z M 435.58203125 39.125 L 442.58203125 39.125 L 442.58203125 61 L 435.58203125 61 L 435.58203125 39.125 z M 435.58203125 30.609375 L 442.58203125 30.609375 L 442.58203125 36.3125 L 435.58203125 36.3125 L 435.58203125 30.609375 z M 459.69921875 43.59375 Q 457.38671875 43.59375 456.15234375 45.265625 Q 454.93359375 46.9375 454.93359375 50.078125 Q 454.93359375 53.21875 456.15234375 54.890625 Q 457.38671875 56.5625 459.69921875 56.5625 Q 461.99609375 56.5625 463.19921875 54.890625 Q 464.41796875 53.21875 464.41796875 50.078125 Q 464.41796875 46.9375 463.19921875 45.265625 Q 461.99609375 43.59375 459.69921875 43.59375 z M 459.69921875 38.59375 Q 465.35546875 38.59375 468.52734375 41.640625 Q 471.69921875 44.6875 471.69921875 50.078125 Q 471.69921875 55.46875 468.52734375 58.515625 Q 465.35546875 61.5625 459.69921875 61.5625 Q 454.04296875 61.5625 450.83984375 58.515625 Q 447.65234375 55.46875 447.65234375 50.078125 Q 447.65234375 44.6875 450.83984375 41.640625 Q 454.04296875 38.59375 459.69921875 38.59375 z M 498.7734375 47.671875 L 498.7734375 61 L 491.7421875 61 L 491.7421875 58.828125 L 491.7421875 50.796875 Q 491.7421875 47.96875 491.6015625 46.90625 Q 491.4765625 45.828125 491.1640625 45.3125 Q 490.7578125 44.625 490.0546875 44.25 Q 489.3515625 43.875 488.4609375 43.875 Q 486.2734375 43.875 485.0234375 45.5625 Q 483.7734375 47.25 483.7734375 50.234375 L 483.7734375 61 L 476.7734375 61 L 476.7734375 39.125 L 483.7734375 39.125 L 483.7734375 42.328125 Q 485.3515625 40.40625 487.1171875 39.5 Q 488.8984375 38.59375 491.0546875 38.59375 Q 494.8359375 38.59375 496.8046875 40.921875 Q 498.7734375 43.25 498.7734375 47.671875 z"/>
</g> <!-- drawing style -->
</g> <!-- transform -->
<g transform="matrix(0.6236220472440945, 0, 0, 0.6236220472440945, 0, 0)">
<g fill="#000000" fill-rule="nonzero" fill-opacity="1" stroke="none">
  <path d="M 104.83984375 99.125 L 111.83984375 99.125 L 111.83984375 121 L 104.83984375 121 L 104.83984375 99.125 z M 104.83984375 90.609375 L 111.83984375 90.609375 L 111.83984375 96.3125 L 104.83984375 96.3125 L 104.83984375 90.609375 z M 140.55078125 107.671875 L 140.55078125 121 L 133.51953125 121 L 133.51953125 118.828125 L 133.51953125 110.796875 Q 133.51953125 107.96875 133.37890625 106.90625 Q 133.25390625 105.828125 132.94140625 105.3125 Q 132.53515625 104.625 131.83203125 104.25 Q 131.12890625 103.875 130.23828125 103.875 Q 128.05078125 103.875 126.80078125 105.5625 Q 125.55078125 107.25 125.55078125 110.234375 L 125.55078125 121 L 118.55078125 121 L 118.55078125 99.125 L 125.55078125 99.125 L 125.55078125 102.328125 Q 127.12890625 100.40625 128.89453125 99.5 Q 130.67578125 98.59375 132.83203125 98.59375 Q 136.61328125 98.59375 138.58203125 100.921875 Q 140.55078125 103.25 140.55078125 107.671875 z M 154.66796875 92.90625 L 154.66796875 99.125 L 161.87109375 99.125 L 161.87109375 104.125 L 154.66796875 104.125 L 154.66796875 113.40625 Q 154.66796875 114.921875 155.26171875 115.46875 Q 155.87109375 116 157.66796875 116 L 161.26171875 116 L 161.26171875 121 L 155.27734375 121 Q 151.13671875 121 149.40234375 119.28125 Q 147.66796875 117.546875 147.66796875 113.40625 L 147.66796875 104.125 L 144.19921875 104.125 L 144.19921875 99.125 L 147.66796875 99.125 L 147.66796875 92.90625 L 154.66796875 92.90625 z M 176.5546875 103.59375 Q 174.2421875 103.59375 173.0078125 105.265625 Q 171.7890625 106.9375 171.7890625 110.078125 Q 171.7890625 113.21875 173.0078125 114.890625 Q 174.2421875 116.5625 176.5546875 116.5625 Q 178.8515625 116.5625 180.0546875 114.890625 Q 181.2734375 113.21875 181.2734375 110.078125 Q 181.2734375 106.9375 180.0546875 105.265625 Q 178.8515625 103.59375 176.5546875 103.59375 z M 176.5546875 98.59375 Q 182.2109375 98.59375 185.3828125 101.640625 Q 188.5546875 104.6875 188.5546875 110.078125 Q 188.5546875 115.46875 185.3828125 118.515625 Q 182.2109375 121.5625 176.5546875 121.5625 Q 170.8984375 121.5625 167.6953125 118.515625 Q 164.5078125 115.46875 164.5078125 110.078125 Q 164.5078125 104.6875 167.6953125 101.640625 Q 170.8984375 98.59375 176.5546875 98.59375 z M 217.3671875 111.15625 Q 215.1796875 111.15625 214.0703125 111.90625 Q 212.9609375 112.640625 212.9609375 114.078125 Q 212.9609375 115.40625 213.8515625 116.171875 Q 214.7421875 116.921875 216.3203125 116.921875 Q 218.3046875 116.921875 219.6484375 115.5 Q 220.9921875 114.078125 220.9921875 111.953125 L 220.9921875 111.15625 L 217.3671875 111.15625 z M 228.0390625 108.515625 L 228.0390625 121 L 220.9921875 121 L 220.9921875 117.75 Q 219.5859375 119.75 217.8203125 120.65625 Q 216.0703125 121.5625 213.5546875 121.5625 Q 210.1484375 121.5625 208.0234375 119.578125 Q 205.9140625 117.59375 205.9140625 114.4375 Q 205.9140625 110.59375 208.5546875 108.796875 Q 211.2109375 107 216.8671875 107 L 220.9921875 107 L 220.9921875 106.453125 Q 220.9921875 104.78125 219.6796875 104.015625 Q 218.3828125 103.25 215.6015625 103.25 Q 213.3515625 103.25 211.4140625 103.703125 Q 209.4921875 104.140625 207.8359375 105.046875 L 207.8359375 99.703125 Q 210.0703125 99.15625 212.3359375 98.875 Q 214.6015625 98.59375 216.8671875 98.59375 Q 222.7890625 98.59375 225.4140625 100.9375 Q 228.0390625 103.265625 228.0390625 108.515625 z M 248.78515625 91.84375 L 261.26953125 91.84375 Q 266.83203125 91.84375 269.80078125 94.3125 Q 272.78515625 96.78125 272.78515625 101.34375 Q 272.78515625 105.9375 269.80078125 108.40625 Q 266.83203125 110.875 261.26953125 110.875 L 256.30078125 110.875 L 256.30078125 121 L 248.78515625 121 L 248.78515625 91.84375 z M 256.30078125 97.28125 L 256.30078125 105.4375 L 260.47265625 105.4375 Q 262.66015625 105.4375 263.84765625 104.375 Q 265.03515625 103.296875 265.03515625 101.34375 Q 265.03515625 99.390625 263.84765625 98.34375 Q 262.66015625 97.28125 260.47265625 97.28125 L 256.30078125 97.28125 z M 277.7890625 90.609375 L 284.7890625 90.609375 L 284.7890625 121 L 277.7890625 121 L 277.7890625 90.609375 z M 301.3125 111.15625 Q 299.125 111.15625 298.015625 111.90625 Q 296.90625 112.640625 296.90625 114.078125 Q 296.90625 115.40625 297.796875 116.171875 Q 298.6875 116.921875 300.265625 116.921875 Q 302.25 116.921875 303.59375 115.5 Q 304.9375 114.078125 304.9375 111.953125 L 304.9375 111.15625 L 301.3125 111.15625 z M 311.984375 108.515625 L 311.984375 121 L 304.9375 121 L 304.9375 117.75 Q 303.53125 119.75 301.765625 120.65625 Q 300.015625 121.5625 297.5 121.5625 Q 294.09375 121.5625 291.96875 119.578125 Q 289.859375 117.59375 289.859375 114.4375 Q 289.859375 110.59375 292.5 108.796875 Q 295.15625 107 300.8125 107 L 304.9375 107 L 304.9375 106.453125 Q 304.9375 104.78125 303.625 104.015625 Q 302.328125 103.25 299.546875 103.25 Q 297.296875 103.25 295.359375 103.703125 Q 293.4375 104.140625 291.78125 105.046875 L 291.78125 99.703125 Q 294.015625 99.15625 296.28125 98.875 Q 298.546875 98.59375 300.8125 98.59375 Q 306.734375 98.59375 309.359375 100.9375 Q 311.984375 103.265625 311.984375 108.515625 z M 340.4921875 107.671875 L 340.4921875 121 L 333.4609375 121 L 333.4609375 118.828125 L 333.4609375 110.796875 Q 333.4609375 107.96875 333.3203125 106.90625 Q 333.1953125 105.828125 332.8828125 105.3125 Q 332.4765625 104.625 331.7734375 104.25 Q 331.0703125 103.875 330.1796875 103.875 Q 327.9921875 103.875 326.7421875 105.5625 Q 325.4921875 107.25 325.4921875 110.234375 L 325.4921875 121 L 318.4921875 121 L 318.4921875 99.125 L 325.4921875 99.125 L 325.4921875 102.328125 Q 327.0703125 100.40625 328.8359375 99.5 Q 330.6171875 98.59375 332.7734375 98.59375 Q 336.5546875 98.59375 338.5234375 100.921875 Q 340.4921875 103.25 340.4921875 107.671875 z M 368.8125 110 L 368.8125 112 L 352.453125 112 Q 352.71875 114.453125 354.234375 115.6875 Q 355.765625 116.921875 358.5 116.921875 Q 360.703125 116.921875 363.015625 116.265625 Q 365.328125 115.609375 367.765625 114.28125 L 367.765625 119.671875 Q 365.296875 120.609375 362.8125 121.078125 Q 360.328125 121.5625 357.84375 121.5625 Q 351.90625 121.5625 348.609375 118.546875 Q 345.328125 115.53125 345.328125 110.078125 Q 345.328125 104.734375 348.5625 101.671875 Q 351.796875 98.59375 357.453125 98.59375 Q 362.609375 98.59375 365.703125 101.703125 Q 368.8125 104.8125 368.8125 110 z M 361.625 107.671875 Q 361.625 105.6875 360.453125 104.46875 Q 359.296875 103.25 357.421875 103.25 Q 355.390625 103.25 354.109375 104.390625 Q 352.84375 105.53125 352.53125 107.671875 L 361.625 107.671875 z"/>
</g> <!-- drawing style -->
</g> <!-- transform -->
</g><!-- layer0 -->
</g> <!-- default stroke -->
</svg> <!-- bounding box -->
