<?xml version="1.0" encoding="UTF-8" standalone="no"?>
<svg
   width="156.45551pt"
   height="79.858498pt"
   viewBox="0 0 156.45551 79.858498"
   version="1.1"
   id="svg272"
   xmlns:xlink="http://www.w3.org/1999/xlink"
   xmlns="http://www.w3.org/2000/svg"
   xmlns:svg="http://www.w3.org/2000/svg">
  <defs
     id="defs43">
    <g
       id="g41">
      <symbol
         overflow="visible"
         id="glyph0-0">
        <path
           style="stroke:none"
           d=""
           id="path2" />
      </symbol>
      <symbol
         overflow="visible"
         id="glyph0-1">
        <path
           style="stroke:none"
           d="m 2.890625,-3.515625 c 0.8125,-0.265625 1.5625,-1.125 1.5625,-1.90625 0,-0.8125 -1.046875,-1.546875 -2,-1.546875 -1,0 -1.9375,0.765625 -1.9375,1.53125 0,0.328125 0.390625,0.671875 0.6875,0.671875 0.296875,0 0.671875,-0.375 0.671875,-0.671875 0,-0.5 -0.640625,-0.65625 -0.484375,-0.65625 0.125,-0.21875 0.65625,-0.296875 1.015625,-0.296875 0.421875,0 0.78125,0.0625 0.78125,0.953125 0,0.125 0.03125,0.578125 -0.234375,1.015625 -0.296875,0.484375 -0.5,0.46875 -0.75,0.46875 C 2.125,-3.9375 1.890625,-3.921875 1.8125,-3.921875 1.734375,-3.90625 1.484375,-3.734375 1.484375,-3.625 c 0,0.109375 0.25,0.265625 0.421875,0.265625 h 0.4375 c 0.8125,0 1,0.515625 1,1.5 0,1.34375 -0.5,1.46875 -0.9375,1.46875 -0.4375,0 -1.0625,-0.125 -1.203125,-0.375 0.015625,0 0.5,-0.375 0.5,-0.765625 0,-0.359375 -0.4375,-0.71875 -0.71875,-0.71875 -0.25,0 -0.75,0.3125 -0.75,0.75 0,0.90625 1.109375,1.71875 2.203125,1.71875 1.21875,0 2.28125,-1.0625 2.28125,-2.078125 0,-0.828125 -0.796875,-1.765625 -1.828125,-1.984375 z m 0,0"
           id="path5" />
      </symbol>
      <symbol
         overflow="visible"
         id="glyph0-2">
        <path
           style="stroke:none"
           d="M 1.390625,-0.8125 2.4375,-1.84375 C 4,-3.21875 4.640625,-3.875 4.640625,-4.859375 4.640625,-6 3.578125,-6.96875 2.359375,-6.96875 1.234375,-6.96875 0.3125,-5.875 0.3125,-5 c 0,0.5625 0.6875,0.71875 0.71875,0.71875 0.171875,0 0.6875,-0.28125 0.6875,-0.6875 0,-0.25 -0.359375,-0.6875 -0.703125,-0.6875 -0.078125,0 -0.09375,0 0.125,-0.078125 0.140625,-0.390625 0.515625,-0.59375 1.09375,-0.59375 0.90625,0 1.15625,0.640625 1.15625,1.46875 0,0.796875 -0.453125,1.453125 -1,2.078125 l -1.90625,2.140625 C 0.375,-0.53125 0.3125,-0.40625 0.3125,0 H 4.34375 L 4.671875,-2.0625 H 4.078125 C 4,-1.59375 3.984375,-1.28125 3.875,-1.125 3.8125,-1.046875 3.28125,-1.09375 3.0625,-1.09375 H 1.265625 Z m 0,0"
           id="path8" />
      </symbol>
      <symbol
         overflow="visible"
         id="glyph0-3">
        <path
           style="stroke:none"
           d="M 4.75,-3.34375 C 4.75,-4.140625 4.703125,-4.9375 4.359375,-5.6875 3.890625,-6.640625 2.90625,-6.96875 2.5,-6.96875 c -0.609375,0 -1.515625,0.421875 -1.921875,1.359375 -0.3125,0.6875 -0.375,1.46875 -0.375,2.265625 0,0.734375 0.09375,1.75 0.5,2.5 0.4375,0.8125 1.296875,1.0625 1.78125,1.0625 0.53125,0 1.46875,-0.375 1.90625,-1.3125 C 4.703125,-1.78125 4.75,-2.5625 4.75,-3.34375 Z M 2.484375,-0.328125 C 2.09375,-0.328125 1.671875,-0.40625 1.5,-1.359375 1.390625,-1.96875 1.390625,-2.875 1.390625,-3.46875 c 0,-0.640625 0,-1.296875 0.078125,-1.828125 0.1875,-1.1875 0.765625,-1.125 1.015625,-1.125 0.328125,0 0.8125,0.015625 1,1.015625 0.09375,0.546875 0.09375,1.3125 0.09375,1.9375 0,0.75 0,1.421875 -0.109375,2.0625 -0.15625,0.953125 -0.53125,1.078125 -0.984375,1.078125 z m 0,0"
           id="path11" />
      </symbol>
      <symbol
         overflow="visible"
         id="glyph0-4">
        <path
           style="stroke:none"
           d="M 3.09375,-6.546875 C 3.09375,-6.78125 2.9375,-6.96875 2.625,-6.96875 1.953125,-6.28125 1.203125,-6.328125 0.703125,-6.328125 V -5.6875 c 0.390625,0 1.09375,-0.046875 1.3125,-0.171875 v 4.90625 c 0,0.359375 0.140625,0.3125 -0.75,0.3125 h -0.5 v 0.65625 C 1.296875,-0.03125 2.15625,-0.03125 2.5625,-0.03125 c 0.390625,0 1.265625,0 1.78125,0.046875 v -0.65625 H 3.859375 c -0.90625,0 -0.765625,0.0625 -0.765625,-0.3125 z m 0,0"
           id="path14" />
      </symbol>
      <symbol
         overflow="visible"
         id="glyph0-5">
        <path
           style="stroke:none"
           d="m 3.484375,-3.328125 v 0.3125 c 0,2.34375 -0.859375,2.625 -1.4375,2.625 -0.171875,0 -0.59375,0.03125 -0.625,-0.03125 C 1.5,-0.421875 1.75,-0.875 1.75,-1.03125 c 0,-0.3125 -0.40625,-0.640625 -0.625,-0.640625 -0.15625,0 -0.640625,0.265625 -0.640625,0.65625 0,0.671875 0.71875,1.234375 1.5625,1.234375 1.296875,0 2.671875,-1.515625 2.671875,-3.65625 0,-2.6875 -1.3125,-3.53125 -2.203125,-3.53125 -0.546875,0 -1.15625,0.234375 -1.59375,0.671875 -0.40625,0.453125 -0.6875,1 -0.6875,1.734375 0,1.25 1.0625,2.390625 2.171875,2.390625 0.609375,0 1.1875,-0.578125 1.421875,-1.15625 z m -1.0625,0.59375 c -0.15625,0 -0.453125,0.171875 -0.75,-0.453125 -0.1875,-0.375 -0.1875,-0.875 -0.1875,-1.359375 0,-0.53125 -0.046875,-0.890625 0.15625,-1.265625 0.265625,-0.5 0.53125,-0.578125 0.875,-0.578125 0.46875,0 0.609375,0.1875 0.78125,0.625 0.125,0.328125 0.15625,0.953125 0.15625,1.40625 0,0.828125 -0.15625,1.625 -1.03125,1.625 z m 0,0"
           id="path17" />
      </symbol>
      <symbol
         overflow="visible"
         id="glyph1-0">
        <path
           style="stroke:none"
           d=""
           id="path20" />
      </symbol>
      <symbol
         overflow="visible"
         id="glyph1-1">
        <path
           style="stroke:none"
           d="m 6.5625,-2.296875 c 0.171875,0 0.5625,-0.125 0.5625,-0.328125 0,-0.203125 -0.390625,-0.328125 -0.5625,-0.328125 H 1.171875 C 1,-2.953125 0.625,-2.828125 0.625,-2.625 c 0,0.203125 0.375,0.328125 0.546875,0.328125 z m 0,0"
           id="path23" />
      </symbol>
      <symbol
         overflow="visible"
         id="glyph2-0">
        <path
           style="stroke:none"
           d=""
           id="path26" />
      </symbol>
      <symbol
         overflow="visible"
         id="glyph2-1">
        <path
           style="stroke:none"
           d="m 3.734375,17.640625 c 0.21875,0 0.46875,-0.125 0.46875,-0.265625 0.03125,-6.984375 0.765625,-12.703125 4.265625,-17.578125 0.0625,-0.09375 0.125,-0.203125 0.125,-0.21875 0,-0.09375 -0.265625,-0.234375 -0.421875,-0.234375 -0.171875,0 -0.328125,0.03125 -0.34375,0.0625 -0.046875,0.03125 -1.3125,1.484375 -2.3125,3.484375 -1.3125,2.625 -2.203125,5.75 -2.578125,9.375 -0.03125,0.3125 -0.234375,2.390625 -0.234375,4.75 V 17.40625 C 2.71875,17.515625 2.96875,17.640625 3.1875,17.640625 Z m 0,0"
           id="path29" />
      </symbol>
      <symbol
         overflow="visible"
         id="glyph2-2">
        <path
           style="stroke:none"
           d="m 3.1875,-0.765625 c -0.21875,0 -0.46875,0.140625 -0.484375,0.25 V -0.125 c 0,6.09375 1.078125,9.65625 1.390625,10.65625 0.6875,2.21875 1.84375,4.640625 3.515625,6.6875 0.140625,0.1875 0.1875,0.234375 0.21875,0.25 0.03125,0.01563 0.171875,0.0625 0.34375,0.0625 0.15625,0 0.421875,-0.125 0.421875,-0.21875 0,-0.03125 -0.0625,-0.140625 -0.125,-0.234375 -3.3125,-4.609375 -4.25,-10.046875 -4.265625,-17.5625 0,-0.140625 -0.25,-0.28125 -0.46875,-0.28125 z m 0,0"
           id="path32" />
      </symbol>
      <symbol
         overflow="visible"
         id="glyph2-3">
        <path
           style="stroke:none"
           d="m 6.015625,17.015625 c 0,-6.09375 -1.09375,-9.65625 -1.40625,-10.671875 -0.671875,-2.203125 -1.84375,-4.640625 -3.5,-6.6875 -0.15625,-0.1875 -0.1875,-0.234375 -0.234375,-0.25 -0.015625,-0.015625 -0.171875,-0.0625 -0.328125,-0.0625 -0.140625,0 -0.421875,0.140625 -0.421875,0.234375 0,0.015625 0.046875,0.125 0.1875,0.3125 C 3.78125,4.734375 4.5,10.625 4.5,17.375 c 0,0.140625 0.265625,0.265625 0.484375,0.265625 H 5.53125 c 0.203125,0 0.46875,-0.125 0.484375,-0.234375 z m 0,0"
           id="path35" />
      </symbol>
      <symbol
         overflow="visible"
         id="glyph2-4">
        <path
           style="stroke:none"
           d="M 6.015625,-0.515625 C 6,-0.625 5.734375,-0.765625 5.53125,-0.765625 H 4.984375 C 4.765625,-0.765625 4.5,-0.625 4.5,-0.484375 c 0,1.015625 0,3.390625 -0.265625,5.875 -0.53125,5.15625 -1.796875,8.625 -3.984375,11.6875 -0.078125,0.09375 -0.125,0.203125 -0.125,0.234375 0,0.09375 0.28125,0.21875 0.421875,0.21875 0.15625,0 0.328125,-0.03125 0.34375,-0.0625 0.03125,-0.01563 1.296875,-1.484375 2.3125,-3.484375 1.3125,-2.625 2.203125,-5.734375 2.5625,-9.375 0.03125,-0.296875 0.25,-2.375 0.25,-4.734375 z m 0,0"
           id="path38" />
      </symbol>
    </g>
  </defs>
  <g
     id="surface1"
     transform="translate(-166.79013,-124.34075)">
    <g
       style="fill:#000000;fill-opacity:1"
       id="g47">
      <use
         xlink:href="#glyph0-1"
         x="242.354"
         y="134.16701"
         id="use45"
         width="100%"
         height="100%" />
    </g>
    <g
       style="fill:#000000;fill-opacity:1"
       id="g51">
      <use
         xlink:href="#glyph0-1"
         x="265.04599"
         y="134.16701"
         id="use49"
         width="100%"
         height="100%" />
    </g>
    <g
       style="fill:#000000;fill-opacity:1"
       id="g55">
      <use
         xlink:href="#glyph0-2"
         x="287.73901"
         y="134.16701"
         id="use53"
         width="100%"
         height="100%" />
    </g>
    <g
       style="fill:#000000;fill-opacity:1"
       id="g59">
      <use
         xlink:href="#glyph0-3"
         x="310.82999"
         y="134.16701"
         id="use57"
         width="100%"
         height="100%" />
    </g>
    <g
       style="fill:#000000;fill-opacity:1"
       id="g63">
      <use
         xlink:href="#glyph0-3"
         x="242.354"
         y="146.12199"
         id="use61"
         width="100%"
         height="100%" />
    </g>
    <g
       style="fill:#000000;fill-opacity:1"
       id="g67">
      <use
         xlink:href="#glyph0-4"
         x="265.04599"
         y="146.12199"
         id="use65"
         width="100%"
         height="100%" />
    </g>
    <g
       style="fill:#000000;fill-opacity:1"
       id="g71">
      <use
         xlink:href="#glyph1-1"
         x="279.991"
         y="146.12199"
         id="use69"
         width="100%"
         height="100%" />
    </g>
    <g
       style="fill:#000000;fill-opacity:1"
       id="g75">
      <use
         xlink:href="#glyph0-2"
         x="287.73901"
         y="146.12199"
         id="use73"
         width="100%"
         height="100%" />
    </g>
    <g
       style="fill:#000000;fill-opacity:1"
       id="g79">
      <use
         xlink:href="#glyph1-1"
         x="303.082"
         y="146.12199"
         id="use77"
         width="100%"
         height="100%" />
    </g>
    <g
       style="fill:#000000;fill-opacity:1"
       id="g83">
      <use
         xlink:href="#glyph0-5"
         x="310.83099"
         y="146.12199"
         id="use81"
         width="100%"
         height="100%" />
    </g>
    <g
       style="fill:#000000;fill-opacity:1"
       id="g87">
      <use
         xlink:href="#glyph1-1"
         x="234.605"
         y="158.077"
         id="use85"
         width="100%"
         height="100%" />
    </g>
    <g
       style="fill:#000000;fill-opacity:1"
       id="g91">
      <use
         xlink:href="#glyph0-1"
         x="242.354"
         y="158.077"
         id="use89"
         width="100%"
         height="100%" />
    </g>
    <g
       style="fill:#000000;fill-opacity:1"
       id="g95">
      <use
         xlink:href="#glyph1-1"
         x="257.298"
         y="158.077"
         id="use93"
         width="100%"
         height="100%" />
    </g>
    <g
       style="fill:#000000;fill-opacity:1"
       id="g99">
      <use
         xlink:href="#glyph0-1"
         x="265.047"
         y="158.077"
         id="use97"
         width="100%"
         height="100%" />
    </g>
    <g
       style="fill:#000000;fill-opacity:1"
       id="g103">
      <use
         xlink:href="#glyph1-1"
         x="279.991"
         y="158.077"
         id="use101"
         width="100%"
         height="100%" />
    </g>
    <g
       style="fill:#000000;fill-opacity:1"
       id="g107">
      <use
         xlink:href="#glyph0-1"
         x="287.73901"
         y="158.077"
         id="use105"
         width="100%"
         height="100%" />
    </g>
    <g
       style="fill:#000000;fill-opacity:1"
       id="g111">
      <use
         xlink:href="#glyph1-1"
         x="303.082"
         y="158.077"
         id="use109"
         width="100%"
         height="100%" />
    </g>
    <g
       style="fill:#000000;fill-opacity:1"
       id="g115">
      <use
         xlink:href="#glyph0-1"
         x="310.83099"
         y="158.077"
         id="use113"
         width="100%"
         height="100%" />
    </g>
    <g
       style="fill:#000000;fill-opacity:1"
       id="g119">
      <use
         xlink:href="#glyph0-4"
         x="174.224"
         y="175.702"
         id="use117"
         width="100%"
         height="100%" />
    </g>
    <g
       style="fill:#000000;fill-opacity:1"
       id="g123">
      <use
         xlink:href="#glyph0-3"
         x="189.168"
         y="175.702"
         id="use121"
         width="100%"
         height="100%" />
    </g>
    <g
       style="fill:#000000;fill-opacity:1"
       id="g127">
      <use
         xlink:href="#glyph0-3"
         x="204.112"
         y="175.702"
         id="use125"
         width="100%"
         height="100%" />
    </g>
    <g
       style="fill:#000000;fill-opacity:1"
       id="g131">
      <use
         xlink:href="#glyph0-1"
         x="242.354"
         y="175.702"
         id="use129"
         width="100%"
         height="100%" />
    </g>
    <g
       style="fill:#000000;fill-opacity:1"
       id="g135">
      <use
         xlink:href="#glyph0-1"
         x="265.04599"
         y="175.702"
         id="use133"
         width="100%"
         height="100%" />
    </g>
    <g
       style="fill:#000000;fill-opacity:1"
       id="g139">
      <use
         xlink:href="#glyph0-2"
         x="287.73901"
         y="175.702"
         id="use137"
         width="100%"
         height="100%" />
    </g>
    <g
       style="fill:#000000;fill-opacity:1"
       id="g143">
      <use
         xlink:href="#glyph0-3"
         x="310.82999"
         y="175.702"
         id="use141"
         width="100%"
         height="100%" />
    </g>
    <g
       style="fill:#000000;fill-opacity:1"
       id="g147">
      <use
         xlink:href="#glyph0-3"
         x="174.224"
         y="187.657"
         id="use145"
         width="100%"
         height="100%" />
    </g>
    <g
       style="fill:#000000;fill-opacity:1"
       id="g151">
      <use
         xlink:href="#glyph0-4"
         x="189.168"
         y="187.657"
         id="use149"
         width="100%"
         height="100%" />
    </g>
    <g
       style="fill:#000000;fill-opacity:1"
       id="g155">
      <use
         xlink:href="#glyph0-3"
         x="204.112"
         y="187.657"
         id="use153"
         width="100%"
         height="100%" />
    </g>
    <g
       style="fill:#000000;fill-opacity:1"
       id="g159">
      <use
         xlink:href="#glyph0-3"
         x="242.354"
         y="187.657"
         id="use157"
         width="100%"
         height="100%" />
    </g>
    <g
       style="fill:#000000;fill-opacity:1"
       id="g163">
      <use
         xlink:href="#glyph0-4"
         x="265.04599"
         y="187.657"
         id="use161"
         width="100%"
         height="100%" />
    </g>
    <g
       style="fill:#000000;fill-opacity:1"
       id="g167">
      <use
         xlink:href="#glyph1-1"
         x="279.991"
         y="187.657"
         id="use165"
         width="100%"
         height="100%" />
    </g>
    <g
       style="fill:#000000;fill-opacity:1"
       id="g171">
      <use
         xlink:href="#glyph0-2"
         x="287.73901"
         y="187.657"
         id="use169"
         width="100%"
         height="100%" />
    </g>
    <g
       style="fill:#000000;fill-opacity:1"
       id="g175">
      <use
         xlink:href="#glyph1-1"
         x="303.082"
         y="187.657"
         id="use173"
         width="100%"
         height="100%" />
    </g>
    <g
       style="fill:#000000;fill-opacity:1"
       id="g179">
      <use
         xlink:href="#glyph0-5"
         x="310.83099"
         y="187.657"
         id="use177"
         width="100%"
         height="100%" />
    </g>
    <g
       style="fill:#000000;fill-opacity:1"
       id="g183">
      <use
         xlink:href="#glyph0-4"
         x="174.224"
         y="199.612"
         id="use181"
         width="100%"
         height="100%" />
    </g>
    <g
       style="fill:#000000;fill-opacity:1"
       id="g187">
      <use
         xlink:href="#glyph0-3"
         x="189.168"
         y="199.612"
         id="use185"
         width="100%"
         height="100%" />
    </g>
    <g
       style="fill:#000000;fill-opacity:1"
       id="g191">
      <use
         xlink:href="#glyph0-4"
         x="204.112"
         y="199.612"
         id="use189"
         width="100%"
         height="100%" />
    </g>
    <g
       style="fill:#000000;fill-opacity:1"
       id="g195">
      <use
         xlink:href="#glyph0-3"
         x="242.354"
         y="199.612"
         id="use193"
         width="100%"
         height="100%" />
    </g>
    <g
       style="fill:#000000;fill-opacity:1"
       id="g199">
      <use
         xlink:href="#glyph0-3"
         x="265.04599"
         y="199.612"
         id="use197"
         width="100%"
         height="100%" />
    </g>
    <g
       style="fill:#000000;fill-opacity:1"
       id="g203">
      <use
         xlink:href="#glyph1-1"
         x="279.991"
         y="199.612"
         id="use201"
         width="100%"
         height="100%" />
    </g>
    <g
       style="fill:#000000;fill-opacity:1"
       id="g207">
      <use
         xlink:href="#glyph0-4"
         x="287.73901"
         y="199.612"
         id="use205"
         width="100%"
         height="100%" />
    </g>
    <g
       style="fill:#000000;fill-opacity:1"
       id="g211">
      <use
         xlink:href="#glyph1-1"
         x="303.082"
         y="199.612"
         id="use209"
         width="100%"
         height="100%" />
    </g>
    <g
       style="fill:#000000;fill-opacity:1"
       id="g215">
      <use
         xlink:href="#glyph0-1"
         x="310.83099"
         y="199.612"
         id="use213"
         width="100%"
         height="100%" />
    </g>
    <path
       style="fill:none;stroke:#000000;stroke-width:0.43834;stroke-linecap:butt;stroke-linejoin:miter;stroke-miterlimit:10;stroke-opacity:1"
       d="M -17.909656,41.391344 V 5.524156"
       transform="matrix(1,0,0,-1,315.812,166.989)"
       id="path217" />
    <g
       style="fill:#000000;fill-opacity:1"
       id="g221">
      <use
         xlink:href="#glyph2-1"
         x="225.468"
         y="125.997"
         id="use219"
         width="100%"
         height="100%" />
    </g>
    <g
       style="fill:#000000;fill-opacity:1"
       id="g225">
      <use
         xlink:href="#glyph2-2"
         x="225.468"
         y="143.92999"
         id="use223"
         width="100%"
         height="100%" />
    </g>
    <g
       style="fill:#000000;fill-opacity:1"
       id="g229">
      <use
         xlink:href="#glyph2-3"
         x="316.23001"
         y="125.997"
         id="use227"
         width="100%"
         height="100%" />
    </g>
    <g
       style="fill:#000000;fill-opacity:1"
       id="g233">
      <use
         xlink:href="#glyph2-4"
         x="316.23001"
         y="143.92999"
         id="use231"
         width="100%"
         height="100%" />
    </g>
    <g
       style="fill:#000000;fill-opacity:1"
       id="g237">
      <use
         xlink:href="#glyph2-1"
         x="165.08701"
         y="167.532"
         id="use235"
         width="100%"
         height="100%" />
    </g>
    <g
       style="fill:#000000;fill-opacity:1"
       id="g241">
      <use
         xlink:href="#glyph2-2"
         x="165.08701"
         y="185.465"
         id="use239"
         width="100%"
         height="100%" />
    </g>
    <g
       style="fill:#000000;fill-opacity:1"
       id="g245">
      <use
         xlink:href="#glyph2-3"
         x="209.511"
         y="167.532"
         id="use243"
         width="100%"
         height="100%" />
    </g>
    <g
       style="fill:#000000;fill-opacity:1"
       id="g249">
      <use
         xlink:href="#glyph2-4"
         x="209.511"
         y="185.465"
         id="use247"
         width="100%"
         height="100%" />
    </g>
    <path
       style="fill:none;stroke:#000000;stroke-width:0.43834;stroke-linecap:butt;stroke-linejoin:miter;stroke-miterlimit:10;stroke-opacity:1"
       d="M -17.909656,-0.143812 V -36.011"
       transform="matrix(1,0,0,-1,315.812,166.989)"
       id="path251" />
    <g
       style="fill:#000000;fill-opacity:1"
       id="g255">
      <use
         xlink:href="#glyph2-1"
         x="225.468"
         y="167.532"
         id="use253"
         width="100%"
         height="100%" />
    </g>
    <g
       style="fill:#000000;fill-opacity:1"
       id="g259">
      <use
         xlink:href="#glyph2-2"
         x="225.468"
         y="185.465"
         id="use257"
         width="100%"
         height="100%" />
    </g>
    <g
       style="fill:#000000;fill-opacity:1"
       id="g263">
      <use
         xlink:href="#glyph2-3"
         x="316.23001"
         y="167.532"
         id="use261"
         width="100%"
         height="100%" />
    </g>
    <g
       style="fill:#000000;fill-opacity:1"
       id="g267">
      <use
         xlink:href="#glyph2-4"
         x="316.23001"
         y="185.465"
         id="use265"
         width="100%"
         height="100%" />
    </g>
    <path
       style="fill:none;stroke:#ff0000;stroke-width:0.3985;stroke-linecap:butt;stroke-linejoin:miter;stroke-miterlimit:10;stroke-opacity:1"
       d="m -81.40575,-12.499281 h 20.546875 v -11.953125 h 22.691406 V -36.011 H 0.199719"
       transform="matrix(1,0,0,-1,315.812,166.989)"
       id="path269" />
  </g>
</svg>
