<?xml version="1.0" encoding="UTF-8" standalone="no"?>
<svg
   width="219.5535pt"
   height="210.75012pt"
   viewBox="0 0 219.5535 210.75012"
   version="1.1"
   id="svg919"
   xmlns:xlink="http://www.w3.org/1999/xlink"
   xmlns="http://www.w3.org/2000/svg"
   xmlns:svg="http://www.w3.org/2000/svg">
  <defs
     id="defs58">
    <g
       id="g56">
      <symbol
         overflow="visible"
         id="glyph0-0">
        <path
           style="stroke:none"
           d=""
           id="path2" />
      </symbol>
      <symbol
         overflow="visible"
         id="glyph0-1">
        <path
           style="stroke:none"
           d="M 3.09375,-6.546875 C 3.09375,-6.78125 2.9375,-6.96875 2.625,-6.96875 1.953125,-6.28125 1.203125,-6.328125 0.703125,-6.328125 V -5.6875 c 0.390625,0 1.09375,-0.046875 1.3125,-0.171875 v 4.90625 c 0,0.359375 0.140625,0.3125 -0.75,0.3125 h -0.5 v 0.65625 C 1.296875,-0.03125 2.15625,-0.03125 2.5625,-0.03125 c 0.390625,0 1.265625,0 1.78125,0.046875 v -0.65625 H 3.859375 c -0.90625,0 -0.765625,0.0625 -0.765625,-0.3125 z m 0,0"
           id="path5" />
      </symbol>
      <symbol
         overflow="visible"
         id="glyph0-2">
        <path
           style="stroke:none"
           d="m 2.890625,-3.515625 c 0.8125,-0.265625 1.5625,-1.125 1.5625,-1.90625 0,-0.8125 -1.046875,-1.546875 -2,-1.546875 -1,0 -1.9375,0.765625 -1.9375,1.53125 0,0.328125 0.390625,0.671875 0.6875,0.671875 0.296875,0 0.671875,-0.375 0.671875,-0.671875 0,-0.5 -0.640625,-0.65625 -0.484375,-0.65625 0.125,-0.21875 0.65625,-0.296875 1.015625,-0.296875 0.421875,0 0.78125,0.0625 0.78125,0.953125 0,0.125 0.03125,0.578125 -0.234375,1.015625 -0.296875,0.484375 -0.5,0.46875 -0.75,0.46875 C 2.125,-3.9375 1.890625,-3.921875 1.8125,-3.921875 1.734375,-3.90625 1.484375,-3.734375 1.484375,-3.625 c 0,0.109375 0.25,0.265625 0.421875,0.265625 h 0.4375 c 0.8125,0 1,0.515625 1,1.5 0,1.34375 -0.5,1.46875 -0.9375,1.46875 -0.4375,0 -1.0625,-0.125 -1.203125,-0.375 0.015625,0 0.5,-0.375 0.5,-0.765625 0,-0.359375 -0.4375,-0.71875 -0.71875,-0.71875 -0.25,0 -0.75,0.3125 -0.75,0.75 0,0.90625 1.109375,1.71875 2.203125,1.71875 1.21875,0 2.28125,-1.0625 2.28125,-2.078125 0,-0.828125 -0.796875,-1.765625 -1.828125,-1.984375 z m 0,0"
           id="path8" />
      </symbol>
      <symbol
         overflow="visible"
         id="glyph0-3">
        <path
           style="stroke:none"
           d="M 1.390625,-0.8125 2.4375,-1.84375 C 4,-3.21875 4.640625,-3.875 4.640625,-4.859375 4.640625,-6 3.578125,-6.96875 2.359375,-6.96875 1.234375,-6.96875 0.3125,-5.875 0.3125,-5 c 0,0.5625 0.6875,0.71875 0.71875,0.71875 0.171875,0 0.6875,-0.28125 0.6875,-0.6875 0,-0.25 -0.359375,-0.6875 -0.703125,-0.6875 -0.078125,0 -0.09375,0 0.125,-0.078125 0.140625,-0.390625 0.515625,-0.59375 1.09375,-0.59375 0.90625,0 1.15625,0.640625 1.15625,1.46875 0,0.796875 -0.453125,1.453125 -1,2.078125 l -1.90625,2.140625 C 0.375,-0.53125 0.3125,-0.40625 0.3125,0 H 4.34375 L 4.671875,-2.0625 H 4.078125 C 4,-1.59375 3.984375,-1.28125 3.875,-1.125 3.8125,-1.046875 3.28125,-1.09375 3.0625,-1.09375 H 1.265625 Z m 0,0"
           id="path11" />
      </symbol>
      <symbol
         overflow="visible"
         id="glyph0-4">
        <path
           style="stroke:none"
           d="M 4.75,-3.34375 C 4.75,-4.140625 4.703125,-4.9375 4.359375,-5.6875 3.890625,-6.640625 2.90625,-6.96875 2.5,-6.96875 c -0.609375,0 -1.515625,0.421875 -1.921875,1.359375 -0.3125,0.6875 -0.375,1.46875 -0.375,2.265625 0,0.734375 0.09375,1.75 0.5,2.5 0.4375,0.8125 1.296875,1.0625 1.78125,1.0625 0.53125,0 1.46875,-0.375 1.90625,-1.3125 C 4.703125,-1.78125 4.75,-2.5625 4.75,-3.34375 Z M 2.484375,-0.328125 C 2.09375,-0.328125 1.671875,-0.40625 1.5,-1.359375 1.390625,-1.96875 1.390625,-2.875 1.390625,-3.46875 c 0,-0.640625 0,-1.296875 0.078125,-1.828125 0.1875,-1.1875 0.765625,-1.125 1.015625,-1.125 0.328125,0 0.8125,0.015625 1,1.015625 0.09375,0.546875 0.09375,1.3125 0.09375,1.9375 0,0.75 0,1.421875 -0.109375,2.0625 -0.15625,0.953125 -0.53125,1.078125 -0.984375,1.078125 z m 0,0"
           id="path14" />
      </symbol>
      <symbol
         overflow="visible"
         id="glyph0-5">
        <path
           style="stroke:none"
           d="m 1.484375,-3.421875 v -0.25 c 0,-2.515625 1.0625,-2.71875 1.578125,-2.71875 0.234375,0 0.53125,0.015625 0.5625,0.078125 0.15625,0 -0.421875,0.15625 -0.421875,0.609375 0,0.3125 0.421875,0.625 0.640625,0.625 0.15625,0 0.625,-0.25 0.625,-0.640625 0,-0.59375 -0.59375,-1.25 -1.421875,-1.25 -1.28125,0 -2.8125,1.453125 -2.8125,3.65625 0,2.671875 1.34375,3.53125 2.265625,3.53125 1.109375,0 2.21875,-1.09375 2.21875,-2.40625 0,-1.265625 -1.046875,-2.390625 -2.15625,-2.390625 -0.671875,0 -1.234375,0.671875 -1.421875,1.15625 z M 2.5,-0.390625 C 1.875,-0.390625 1.75,-0.8125 1.6875,-0.96875 1.5,-1.4375 1.5,-2.234375 1.5,-2.40625 c 0,-0.78125 0.15625,-1.625 1.046875,-1.625 0.171875,0 0.5,-0.046875 0.796875,0.578125 L 3.296875,-3.5625 c 0.1875,0.359375 0.1875,0.875 0.1875,1.359375 0,0.484375 0,0.984375 -0.078125,1.109375 C 3.0625,-0.390625 2.734375,-0.390625 2.5,-0.390625 Z m 0,0"
           id="path17" />
      </symbol>
      <symbol
         overflow="visible"
         id="glyph0-6">
        <path
           style="stroke:none"
           d="m 3.484375,-3.328125 v 0.3125 c 0,2.34375 -0.859375,2.625 -1.4375,2.625 -0.171875,0 -0.59375,0.03125 -0.625,-0.03125 C 1.5,-0.421875 1.75,-0.875 1.75,-1.03125 c 0,-0.3125 -0.40625,-0.640625 -0.625,-0.640625 -0.15625,0 -0.640625,0.265625 -0.640625,0.65625 0,0.671875 0.71875,1.234375 1.5625,1.234375 1.296875,0 2.671875,-1.515625 2.671875,-3.65625 0,-2.6875 -1.3125,-3.53125 -2.203125,-3.53125 -0.546875,0 -1.15625,0.234375 -1.59375,0.671875 -0.40625,0.453125 -0.6875,1 -0.6875,1.734375 0,1.25 1.0625,2.390625 2.171875,2.390625 0.609375,0 1.1875,-0.578125 1.421875,-1.15625 z m -1.0625,0.59375 c -0.15625,0 -0.453125,0.171875 -0.75,-0.453125 -0.1875,-0.375 -0.1875,-0.875 -0.1875,-1.359375 0,-0.53125 -0.046875,-0.890625 0.15625,-1.265625 0.265625,-0.5 0.53125,-0.578125 0.875,-0.578125 0.46875,0 0.609375,0.1875 0.78125,0.625 0.125,0.328125 0.15625,0.953125 0.15625,1.40625 0,0.828125 -0.15625,1.625 -1.03125,1.625 z m 0,0"
           id="path20" />
      </symbol>
      <symbol
         overflow="visible"
         id="glyph0-7">
        <path
           style="stroke:none"
           d="m 4.640625,-2.15625 c 0,-1.1875 -0.984375,-2.359375 -2.0625,-2.359375 -0.46875,0 -1.03125,0.203125 -1.09375,0.265625 V -5.5625 C 1.515625,-5.5625 1.84375,-5.5 2.15625,-5.5 3.390625,-5.5 4.25,-6.5625 4.25,-6.6875 4.25,-6.75 4.0625,-6.96875 3.984375,-6.96875 c 0,0 -0.15625,0.046875 -0.234375,0.09375 -0.046875,0.03125 -0.53125,0.21875 -1.203125,0.21875 -0.390625,0 -0.859375,-0.0625 -1.328125,-0.265625 -0.078125,-0.03125 -0.09375,-0.03125 -0.109375,-0.03125 -0.109375,0 -0.28125,0.25 -0.28125,0.40625 v 2.953125 c 0,0.171875 0.171875,0.40625 0.3125,0.40625 0.078125,0 0.21875,-0.078125 0.25,-0.125 C 1.5,-3.484375 1.75,-3.96875 2.5625,-3.96875 c 0.515625,0 0.59375,0.296875 0.671875,0.484375 0.15625,0.359375 0.171875,0.75 0.171875,1.25 0,0.34375 0.046875,0.828125 -0.1875,1.25 -0.234375,0.390625 -0.484375,0.59375 -0.9375,0.59375 -0.71875,0 -1.125,-0.359375 -1.21875,-0.703125 -0.21875,-0.078125 -0.1875,-0.0625 -0.078125,-0.0625 0.328125,0 0.671875,-0.40625 0.671875,-0.640625 0,-0.25 -0.34375,-0.671875 -0.671875,-0.671875 -0.140625,0 -0.671875,0.25 -0.671875,0.703125 0,0.859375 0.875,1.984375 1.984375,1.984375 1.15625,0 2.34375,-1.109375 2.34375,-2.375 z m 0,0"
           id="path23" />
      </symbol>
      <symbol
         overflow="visible"
         id="glyph0-8">
        <path
           style="stroke:none"
           d="M 2.75,-1.796875 V -0.9375 c 0,0.359375 0.15625,0.296875 -0.578125,0.296875 H 1.78125 v 0.65625 C 2.375,-0.03125 2.890625,-0.03125 3.3125,-0.03125 c 0.421875,0 0.9375,0 1.515625,0.046875 v -0.65625 h -0.375 C 3.71875,-0.640625 3.875,-0.578125 3.875,-0.9375 V -1.640625 H 4.859375 V -2.28125 H 3.875 v -4.375 c 0,-0.1875 -0.171875,-0.421875 -0.34375,-0.421875 -0.078125,0 -0.234375,0.046875 -0.328125,0.171875 l -3.109375,4.75 v 0.515625 H 2.75 Z M 2.984375,-2.28125 H 0.875 L 3.109375,-5.71875 2.8125,-5.828125 v 3.546875 z m 0,0"
           id="path26" />
      </symbol>
      <symbol
         overflow="visible"
         id="glyph1-0">
        <path
           style="stroke:none"
           d=""
           id="path29" />
      </symbol>
      <symbol
         overflow="visible"
         id="glyph1-1">
        <path
           style="stroke:none"
           d="m 6.5625,-2.296875 c 0.171875,0 0.5625,-0.125 0.5625,-0.328125 0,-0.203125 -0.390625,-0.328125 -0.5625,-0.328125 H 1.171875 C 1,-2.953125 0.625,-2.828125 0.625,-2.625 c 0,0.203125 0.375,0.328125 0.546875,0.328125 z m 0,0"
           id="path32" />
      </symbol>
      <symbol
         overflow="visible"
         id="glyph2-0">
        <path
           style="stroke:none"
           d=""
           id="path35" />
      </symbol>
      <symbol
         overflow="visible"
         id="glyph2-1">
        <path
           style="stroke:none"
           d="m 3.734375,17.640625 c 0.21875,0 0.46875,-0.125 0.46875,-0.265625 0.03125,-6.984375 0.765625,-12.703125 4.265625,-17.578125 0.0625,-0.09375 0.125,-0.203125 0.125,-0.21875 0,-0.09375 -0.265625,-0.234375 -0.421875,-0.234375 -0.171875,0 -0.328125,0.03125 -0.34375,0.0625 -0.046875,0.03125 -1.3125,1.484375 -2.3125,3.484375 -1.3125,2.625 -2.203125,5.75 -2.578125,9.375 -0.03125,0.3125 -0.234375,2.390625 -0.234375,4.75 V 17.40625 C 2.71875,17.515625 2.96875,17.640625 3.1875,17.640625 Z m 0,0"
           id="path38" />
      </symbol>
      <symbol
         overflow="visible"
         id="glyph2-2">
        <path
           style="stroke:none"
           d="M 4.203125,0.046875 C 4.203125,-0.21875 4,-0.375 3.734375,-0.375 H 3.1875 c -0.28125,0 -0.484375,0.15625 -0.484375,0.421875 V 5.6875 c 0,0.25 0.203125,0.390625 0.484375,0.390625 H 3.734375 C 4,6.078125 4.203125,5.9375 4.203125,5.6875 Z m 0,0"
           id="path41" />
      </symbol>
      <symbol
         overflow="visible"
         id="glyph2-3">
        <path
           style="stroke:none"
           d="m 3.1875,-0.765625 c -0.21875,0 -0.46875,0.140625 -0.484375,0.25 V -0.125 c 0,6.09375 1.078125,9.65625 1.390625,10.65625 0.6875,2.21875 1.84375,4.640625 3.515625,6.6875 0.140625,0.1875 0.1875,0.234375 0.21875,0.25 0.03125,0.01563 0.171875,0.0625 0.34375,0.0625 0.15625,0 0.421875,-0.125 0.421875,-0.21875 0,-0.03125 -0.0625,-0.140625 -0.125,-0.234375 -3.3125,-4.609375 -4.25,-10.046875 -4.265625,-17.5625 0,-0.140625 -0.25,-0.28125 -0.46875,-0.28125 z m 0,0"
           id="path44" />
      </symbol>
      <symbol
         overflow="visible"
         id="glyph2-4">
        <path
           style="stroke:none"
           d="m 6.015625,17.015625 c 0,-6.09375 -1.09375,-9.65625 -1.40625,-10.671875 -0.671875,-2.203125 -1.84375,-4.640625 -3.5,-6.6875 -0.15625,-0.1875 -0.1875,-0.234375 -0.234375,-0.25 -0.015625,-0.015625 -0.171875,-0.0625 -0.328125,-0.0625 -0.140625,0 -0.421875,0.140625 -0.421875,0.234375 0,0.015625 0.046875,0.125 0.1875,0.3125 C 3.78125,4.734375 4.5,10.625 4.5,17.375 c 0,0.140625 0.265625,0.265625 0.484375,0.265625 H 5.53125 c 0.203125,0 0.46875,-0.125 0.484375,-0.234375 z m 0,0"
           id="path47" />
      </symbol>
      <symbol
         overflow="visible"
         id="glyph2-5">
        <path
           style="stroke:none"
           d="M 6.015625,0.046875 C 6.015625,-0.21875 5.796875,-0.375 5.53125,-0.375 H 4.984375 C 4.71875,-0.375 4.5,-0.21875 4.5,0.046875 V 5.6875 c 0,0.25 0.21875,0.390625 0.484375,0.390625 H 5.53125 c 0.265625,0 0.484375,-0.140625 0.484375,-0.390625 z m 0,0"
           id="path50" />
      </symbol>
      <symbol
         overflow="visible"
         id="glyph2-6">
        <path
           style="stroke:none"
           d="M 6.015625,-0.515625 C 6,-0.625 5.734375,-0.765625 5.53125,-0.765625 H 4.984375 C 4.765625,-0.765625 4.5,-0.625 4.5,-0.484375 c 0,1.015625 0,3.390625 -0.265625,5.875 -0.53125,5.15625 -1.796875,8.625 -3.984375,11.6875 -0.078125,0.09375 -0.125,0.203125 -0.125,0.234375 0,0.09375 0.28125,0.21875 0.421875,0.21875 0.15625,0 0.328125,-0.03125 0.34375,-0.0625 0.03125,-0.01563 1.296875,-1.484375 2.3125,-3.484375 1.3125,-2.625 2.203125,-5.734375 2.5625,-9.375 0.03125,-0.296875 0.25,-2.375 0.25,-4.734375 z m 0,0"
           id="path53" />
      </symbol>
    </g>
  </defs>
  <g
     id="surface1"
     transform="translate(-166.78912,-124.33975)">
    <g
       style="fill:#000000;fill-opacity:1"
       id="g62">
      <use
         xlink:href="#glyph0-1"
         x="272.79501"
         y="134.16701"
         id="use60"
         width="100%"
         height="100%" />
    </g>
    <g
       style="fill:#000000;fill-opacity:1"
       id="g66">
      <use
         xlink:href="#glyph0-2"
         x="300.46899"
         y="134.16701"
         id="use64"
         width="100%"
         height="100%" />
    </g>
    <g
       style="fill:#000000;fill-opacity:1"
       id="g70">
      <use
         xlink:href="#glyph0-3"
         x="323.16199"
         y="134.16701"
         id="use68"
         width="100%"
         height="100%" />
    </g>
    <g
       style="fill:#000000;fill-opacity:1"
       id="g74">
      <use
         xlink:href="#glyph0-3"
         x="345.854"
         y="134.16701"
         id="use72"
         width="100%"
         height="100%" />
    </g>
    <g
       style="fill:#000000;fill-opacity:1"
       id="g78">
      <use
         xlink:href="#glyph1-1"
         x="366.17899"
         y="134.16701"
         id="use76"
         width="100%"
         height="100%" />
    </g>
    <g
       style="fill:#000000;fill-opacity:1"
       id="g82">
      <use
         xlink:href="#glyph0-2"
         x="373.927"
         y="134.16701"
         id="use80"
         width="100%"
         height="100%" />
    </g>
    <g
       style="fill:#000000;fill-opacity:1"
       id="g86">
      <use
         xlink:href="#glyph0-4"
         x="272.79501"
         y="146.12199"
         id="use84"
         width="100%"
         height="100%" />
    </g>
    <g
       style="fill:#000000;fill-opacity:1"
       id="g90">
      <use
         xlink:href="#glyph0-2"
         x="300.46899"
         y="146.12199"
         id="use88"
         width="100%"
         height="100%" />
    </g>
    <g
       style="fill:#000000;fill-opacity:1"
       id="g94">
      <use
         xlink:href="#glyph1-1"
         x="315.41299"
         y="146.12199"
         id="use92"
         width="100%"
         height="100%" />
    </g>
    <g
       style="fill:#000000;fill-opacity:1"
       id="g98">
      <use
         xlink:href="#glyph0-5"
         x="323.16199"
         y="146.12199"
         id="use96"
         width="100%"
         height="100%" />
    </g>
    <g
       style="fill:#000000;fill-opacity:1"
       id="g102">
      <use
         xlink:href="#glyph0-4"
         x="345.854"
         y="146.12199"
         id="use100"
         width="100%"
         height="100%" />
    </g>
    <g
       style="fill:#000000;fill-opacity:1"
       id="g106">
      <use
         xlink:href="#glyph0-6"
         x="373.927"
         y="146.12199"
         id="use104"
         width="100%"
         height="100%" />
    </g>
    <g
       style="fill:#000000;fill-opacity:1"
       id="g110">
      <use
         xlink:href="#glyph1-1"
         x="265.047"
         y="158.077"
         id="use108"
         width="100%"
         height="100%" />
    </g>
    <g
       style="fill:#000000;fill-opacity:1"
       id="g114">
      <use
         xlink:href="#glyph0-3"
         x="272.79501"
         y="158.077"
         id="use112"
         width="100%"
         height="100%" />
    </g>
    <g
       style="fill:#000000;fill-opacity:1"
       id="g118">
      <use
         xlink:href="#glyph1-1"
         x="287.73901"
         y="158.077"
         id="use116"
         width="100%"
         height="100%" />
    </g>
    <g
       style="fill:#000000;fill-opacity:1"
       id="g124">
      <use
         xlink:href="#glyph0-1"
         x="295.48801"
         y="158.077"
         id="use120"
         width="100%"
         height="100%" />
      <use
         xlink:href="#glyph0-7"
         x="300.4693"
         y="158.077"
         id="use122"
         width="100%"
         height="100%" />
    </g>
    <g
       style="fill:#000000;fill-opacity:1"
       id="g130">
      <use
         xlink:href="#glyph0-1"
         x="318.181"
         y="158.077"
         id="use126"
         width="100%"
         height="100%" />
      <use
         xlink:href="#glyph0-5"
         x="323.16229"
         y="158.077"
         id="use128"
         width="100%"
         height="100%" />
    </g>
    <g
       style="fill:#000000;fill-opacity:1"
       id="g134">
      <use
         xlink:href="#glyph1-1"
         x="338.10599"
         y="158.077"
         id="use132"
         width="100%"
         height="100%" />
    </g>
    <g
       style="fill:#000000;fill-opacity:1"
       id="g138">
      <use
         xlink:href="#glyph0-8"
         x="345.85501"
         y="158.077"
         id="use136"
         width="100%"
         height="100%" />
    </g>
    <g
       style="fill:#000000;fill-opacity:1"
       id="g142">
      <use
         xlink:href="#glyph1-1"
         x="361.19699"
         y="158.077"
         id="use140"
         width="100%"
         height="100%" />
    </g>
    <g
       style="fill:#000000;fill-opacity:1"
       id="g148">
      <use
         xlink:href="#glyph0-3"
         x="368.94601"
         y="158.077"
         id="use144"
         width="100%"
         height="100%" />
      <use
         xlink:href="#glyph0-7"
         x="373.92731"
         y="158.077"
         id="use146"
         width="100%"
         height="100%" />
    </g>
    <g
       style="fill:#000000;fill-opacity:1"
       id="g152">
      <use
         xlink:href="#glyph0-3"
         x="272.79501"
         y="170.032"
         id="use150"
         width="100%"
         height="100%" />
    </g>
    <g
       style="fill:#000000;fill-opacity:1"
       id="g156">
      <use
         xlink:href="#glyph0-5"
         x="300.46899"
         y="170.032"
         id="use154"
         width="100%"
         height="100%" />
    </g>
    <g
       style="fill:#000000;fill-opacity:1"
       id="g160">
      <use
         xlink:href="#glyph0-5"
         x="323.16199"
         y="170.032"
         id="use158"
         width="100%"
         height="100%" />
    </g>
    <g
       style="fill:#000000;fill-opacity:1"
       id="g164">
      <use
         xlink:href="#glyph0-3"
         x="345.854"
         y="170.032"
         id="use162"
         width="100%"
         height="100%" />
    </g>
    <g
       style="fill:#000000;fill-opacity:1"
       id="g168">
      <use
         xlink:href="#glyph1-1"
         x="361.19699"
         y="170.032"
         id="use166"
         width="100%"
         height="100%" />
    </g>
    <g
       style="fill:#000000;fill-opacity:1"
       id="g174">
      <use
         xlink:href="#glyph0-1"
         x="368.94601"
         y="170.032"
         id="use170"
         width="100%"
         height="100%" />
      <use
         xlink:href="#glyph0-3"
         x="373.92731"
         y="170.032"
         id="use172"
         width="100%"
         height="100%" />
    </g>
    <g
       style="fill:#000000;fill-opacity:1"
       id="g178">
      <use
         xlink:href="#glyph0-1"
         x="181.97301"
         y="187.657"
         id="use176"
         width="100%"
         height="100%" />
    </g>
    <g
       style="fill:#000000;fill-opacity:1"
       id="g182">
      <use
         xlink:href="#glyph0-4"
         x="196.916"
         y="187.657"
         id="use180"
         width="100%"
         height="100%" />
    </g>
    <g
       style="fill:#000000;fill-opacity:1"
       id="g186">
      <use
         xlink:href="#glyph0-4"
         x="219.60899"
         y="187.657"
         id="use184"
         width="100%"
         height="100%" />
    </g>
    <g
       style="fill:#000000;fill-opacity:1"
       id="g190">
      <use
         xlink:href="#glyph0-4"
         x="234.55299"
         y="187.657"
         id="use188"
         width="100%"
         height="100%" />
    </g>
    <g
       style="fill:#000000;fill-opacity:1"
       id="g194">
      <use
         xlink:href="#glyph0-1"
         x="272.79501"
         y="187.657"
         id="use192"
         width="100%"
         height="100%" />
    </g>
    <g
       style="fill:#000000;fill-opacity:1"
       id="g198">
      <use
         xlink:href="#glyph0-2"
         x="300.46899"
         y="187.657"
         id="use196"
         width="100%"
         height="100%" />
    </g>
    <g
       style="fill:#000000;fill-opacity:1"
       id="g202">
      <use
         xlink:href="#glyph0-3"
         x="323.16199"
         y="187.657"
         id="use200"
         width="100%"
         height="100%" />
    </g>
    <g
       style="fill:#000000;fill-opacity:1"
       id="g206">
      <use
         xlink:href="#glyph0-3"
         x="345.854"
         y="187.657"
         id="use204"
         width="100%"
         height="100%" />
    </g>
    <g
       style="fill:#000000;fill-opacity:1"
       id="g210">
      <use
         xlink:href="#glyph1-1"
         x="366.17899"
         y="187.657"
         id="use208"
         width="100%"
         height="100%" />
    </g>
    <g
       style="fill:#000000;fill-opacity:1"
       id="g214">
      <use
         xlink:href="#glyph0-2"
         x="373.927"
         y="187.657"
         id="use212"
         width="100%"
         height="100%" />
    </g>
    <g
       style="fill:#000000;fill-opacity:1"
       id="g218">
      <use
         xlink:href="#glyph0-4"
         x="181.97301"
         y="199.612"
         id="use216"
         width="100%"
         height="100%" />
    </g>
    <g
       style="fill:#000000;fill-opacity:1"
       id="g222">
      <use
         xlink:href="#glyph0-1"
         x="196.916"
         y="199.612"
         id="use220"
         width="100%"
         height="100%" />
    </g>
    <g
       style="fill:#000000;fill-opacity:1"
       id="g226">
      <use
         xlink:href="#glyph0-4"
         x="219.60899"
         y="199.612"
         id="use224"
         width="100%"
         height="100%" />
    </g>
    <g
       style="fill:#000000;fill-opacity:1"
       id="g230">
      <use
         xlink:href="#glyph0-4"
         x="234.55299"
         y="199.612"
         id="use228"
         width="100%"
         height="100%" />
    </g>
    <g
       style="fill:#000000;fill-opacity:1"
       id="g234">
      <use
         xlink:href="#glyph0-4"
         x="272.79501"
         y="199.612"
         id="use232"
         width="100%"
         height="100%" />
    </g>
    <g
       style="fill:#000000;fill-opacity:1"
       id="g238">
      <use
         xlink:href="#glyph0-2"
         x="300.46899"
         y="199.612"
         id="use236"
         width="100%"
         height="100%" />
    </g>
    <g
       style="fill:#000000;fill-opacity:1"
       id="g242">
      <use
         xlink:href="#glyph1-1"
         x="315.41299"
         y="199.612"
         id="use240"
         width="100%"
         height="100%" />
    </g>
    <g
       style="fill:#000000;fill-opacity:1"
       id="g246">
      <use
         xlink:href="#glyph0-5"
         x="323.16199"
         y="199.612"
         id="use244"
         width="100%"
         height="100%" />
    </g>
    <g
       style="fill:#000000;fill-opacity:1"
       id="g250">
      <use
         xlink:href="#glyph0-4"
         x="345.854"
         y="199.612"
         id="use248"
         width="100%"
         height="100%" />
    </g>
    <g
       style="fill:#000000;fill-opacity:1"
       id="g254">
      <use
         xlink:href="#glyph0-6"
         x="373.927"
         y="199.612"
         id="use252"
         width="100%"
         height="100%" />
    </g>
    <g
       style="fill:#000000;fill-opacity:1"
       id="g258">
      <use
         xlink:href="#glyph0-3"
         x="181.97301"
         y="211.567"
         id="use256"
         width="100%"
         height="100%" />
    </g>
    <g
       style="fill:#000000;fill-opacity:1"
       id="g262">
      <use
         xlink:href="#glyph0-4"
         x="196.916"
         y="211.567"
         id="use260"
         width="100%"
         height="100%" />
    </g>
    <g
       style="fill:#000000;fill-opacity:1"
       id="g266">
      <use
         xlink:href="#glyph0-1"
         x="219.60899"
         y="211.567"
         id="use264"
         width="100%"
         height="100%" />
    </g>
    <g
       style="fill:#000000;fill-opacity:1"
       id="g270">
      <use
         xlink:href="#glyph0-4"
         x="234.55299"
         y="211.567"
         id="use268"
         width="100%"
         height="100%" />
    </g>
    <g
       style="fill:#000000;fill-opacity:1"
       id="g274">
      <use
         xlink:href="#glyph0-4"
         x="272.79501"
         y="211.567"
         id="use272"
         width="100%"
         height="100%" />
    </g>
    <g
       style="fill:#000000;fill-opacity:1"
       id="g278">
      <use
         xlink:href="#glyph1-1"
         x="292.72101"
         y="211.567"
         id="use276"
         width="100%"
         height="100%" />
    </g>
    <g
       style="fill:#000000;fill-opacity:1"
       id="g282">
      <use
         xlink:href="#glyph0-6"
         x="300.46899"
         y="211.567"
         id="use280"
         width="100%"
         height="100%" />
    </g>
    <g
       style="fill:#000000;fill-opacity:1"
       id="g288">
      <use
         xlink:href="#glyph0-3"
         x="318.181"
         y="211.567"
         id="use284"
         width="100%"
         height="100%" />
      <use
         xlink:href="#glyph0-4"
         x="323.16229"
         y="211.567"
         id="use286"
         width="100%"
         height="100%" />
    </g>
    <g
       style="fill:#000000;fill-opacity:1"
       id="g292">
      <use
         xlink:href="#glyph0-4"
         x="345.854"
         y="211.567"
         id="use290"
         width="100%"
         height="100%" />
    </g>
    <g
       style="fill:#000000;fill-opacity:1"
       id="g296">
      <use
         xlink:href="#glyph1-1"
         x="361.19699"
         y="211.567"
         id="use294"
         width="100%"
         height="100%" />
    </g>
    <g
       style="fill:#000000;fill-opacity:1"
       id="g302">
      <use
         xlink:href="#glyph0-2"
         x="368.94601"
         y="211.567"
         id="use298"
         width="100%"
         height="100%" />
      <use
         xlink:href="#glyph0-1"
         x="373.92731"
         y="211.567"
         id="use300"
         width="100%"
         height="100%" />
    </g>
    <g
       style="fill:#000000;fill-opacity:1"
       id="g306">
      <use
         xlink:href="#glyph1-1"
         x="174.224"
         y="223.522"
         id="use304"
         width="100%"
         height="100%" />
    </g>
    <g
       style="fill:#000000;fill-opacity:1"
       id="g310">
      <use
         xlink:href="#glyph0-3"
         x="181.97301"
         y="223.522"
         id="use308"
         width="100%"
         height="100%" />
    </g>
    <g
       style="fill:#000000;fill-opacity:1"
       id="g314">
      <use
         xlink:href="#glyph0-4"
         x="196.916"
         y="223.522"
         id="use312"
         width="100%"
         height="100%" />
    </g>
    <g
       style="fill:#000000;fill-opacity:1"
       id="g318">
      <use
         xlink:href="#glyph0-4"
         x="219.60899"
         y="223.522"
         id="use316"
         width="100%"
         height="100%" />
    </g>
    <g
       style="fill:#000000;fill-opacity:1"
       id="g322">
      <use
         xlink:href="#glyph0-1"
         x="234.55299"
         y="223.522"
         id="use320"
         width="100%"
         height="100%" />
    </g>
    <g
       style="fill:#000000;fill-opacity:1"
       id="g326">
      <use
         xlink:href="#glyph0-4"
         x="272.79501"
         y="223.522"
         id="use324"
         width="100%"
         height="100%" />
    </g>
    <g
       style="fill:#000000;fill-opacity:1"
       id="g330">
      <use
         xlink:href="#glyph0-4"
         x="300.46899"
         y="223.522"
         id="use328"
         width="100%"
         height="100%" />
    </g>
    <g
       style="fill:#000000;fill-opacity:1"
       id="g334">
      <use
         xlink:href="#glyph0-3"
         x="323.16199"
         y="223.522"
         id="use332"
         width="100%"
         height="100%" />
    </g>
    <g
       style="fill:#000000;fill-opacity:1"
       id="g338">
      <use
         xlink:href="#glyph1-1"
         x="338.10599"
         y="223.522"
         id="use336"
         width="100%"
         height="100%" />
    </g>
    <g
       style="fill:#000000;fill-opacity:1"
       id="g342">
      <use
         xlink:href="#glyph0-3"
         x="345.85501"
         y="223.522"
         id="use340"
         width="100%"
         height="100%" />
    </g>
    <g
       style="fill:#000000;fill-opacity:1"
       id="g346">
      <use
         xlink:href="#glyph1-1"
         x="366.17899"
         y="223.522"
         id="use344"
         width="100%"
         height="100%" />
    </g>
    <g
       style="fill:#000000;fill-opacity:1"
       id="g350">
      <use
         xlink:href="#glyph0-5"
         x="373.927"
         y="223.522"
         id="use348"
         width="100%"
         height="100%" />
    </g>
    <g
       style="fill:#000000;fill-opacity:1"
       id="g354">
      <use
         xlink:href="#glyph0-1"
         x="181.97301"
         y="241.147"
         id="use352"
         width="100%"
         height="100%" />
    </g>
    <g
       style="fill:#000000;fill-opacity:1"
       id="g358">
      <use
         xlink:href="#glyph0-4"
         x="196.916"
         y="241.147"
         id="use356"
         width="100%"
         height="100%" />
    </g>
    <g
       style="fill:#000000;fill-opacity:1"
       id="g362">
      <use
         xlink:href="#glyph0-4"
         x="219.60899"
         y="241.147"
         id="use360"
         width="100%"
         height="100%" />
    </g>
    <g
       style="fill:#000000;fill-opacity:1"
       id="g366">
      <use
         xlink:href="#glyph0-4"
         x="234.55299"
         y="241.147"
         id="use364"
         width="100%"
         height="100%" />
    </g>
    <g
       style="fill:#000000;fill-opacity:1"
       id="g370">
      <use
         xlink:href="#glyph0-1"
         x="272.79501"
         y="241.147"
         id="use368"
         width="100%"
         height="100%" />
    </g>
    <g
       style="fill:#000000;fill-opacity:1"
       id="g374">
      <use
         xlink:href="#glyph0-2"
         x="300.46899"
         y="241.147"
         id="use372"
         width="100%"
         height="100%" />
    </g>
    <g
       style="fill:#000000;fill-opacity:1"
       id="g378">
      <use
         xlink:href="#glyph0-3"
         x="323.16199"
         y="241.147"
         id="use376"
         width="100%"
         height="100%" />
    </g>
    <g
       style="fill:#000000;fill-opacity:1"
       id="g382">
      <use
         xlink:href="#glyph0-3"
         x="345.854"
         y="241.147"
         id="use380"
         width="100%"
         height="100%" />
    </g>
    <g
       style="fill:#000000;fill-opacity:1"
       id="g386">
      <use
         xlink:href="#glyph1-1"
         x="366.17899"
         y="241.147"
         id="use384"
         width="100%"
         height="100%" />
    </g>
    <g
       style="fill:#000000;fill-opacity:1"
       id="g390">
      <use
         xlink:href="#glyph0-2"
         x="373.927"
         y="241.147"
         id="use388"
         width="100%"
         height="100%" />
    </g>
    <g
       style="fill:#000000;fill-opacity:1"
       id="g394">
      <use
         xlink:href="#glyph0-4"
         x="181.97301"
         y="253.10201"
         id="use392"
         width="100%"
         height="100%" />
    </g>
    <g
       style="fill:#000000;fill-opacity:1"
       id="g398">
      <use
         xlink:href="#glyph0-1"
         x="196.916"
         y="253.10201"
         id="use396"
         width="100%"
         height="100%" />
    </g>
    <g
       style="fill:#000000;fill-opacity:1"
       id="g402">
      <use
         xlink:href="#glyph0-4"
         x="219.60899"
         y="253.10201"
         id="use400"
         width="100%"
         height="100%" />
    </g>
    <g
       style="fill:#000000;fill-opacity:1"
       id="g406">
      <use
         xlink:href="#glyph0-4"
         x="234.55299"
         y="253.10201"
         id="use404"
         width="100%"
         height="100%" />
    </g>
    <g
       style="fill:#000000;fill-opacity:1"
       id="g410">
      <use
         xlink:href="#glyph0-4"
         x="272.79501"
         y="253.10201"
         id="use408"
         width="100%"
         height="100%" />
    </g>
    <g
       style="fill:#000000;fill-opacity:1"
       id="g414">
      <use
         xlink:href="#glyph0-2"
         x="300.46899"
         y="253.10201"
         id="use412"
         width="100%"
         height="100%" />
    </g>
    <g
       style="fill:#000000;fill-opacity:1"
       id="g418">
      <use
         xlink:href="#glyph1-1"
         x="315.41299"
         y="253.10201"
         id="use416"
         width="100%"
         height="100%" />
    </g>
    <g
       style="fill:#000000;fill-opacity:1"
       id="g422">
      <use
         xlink:href="#glyph0-5"
         x="323.16199"
         y="253.10201"
         id="use420"
         width="100%"
         height="100%" />
    </g>
    <g
       style="fill:#000000;fill-opacity:1"
       id="g426">
      <use
         xlink:href="#glyph0-4"
         x="345.854"
         y="253.10201"
         id="use424"
         width="100%"
         height="100%" />
    </g>
    <g
       style="fill:#000000;fill-opacity:1"
       id="g430">
      <use
         xlink:href="#glyph0-6"
         x="373.927"
         y="253.10201"
         id="use428"
         width="100%"
         height="100%" />
    </g>
    <g
       style="fill:#000000;fill-opacity:1"
       id="g434">
      <use
         xlink:href="#glyph0-4"
         x="181.97301"
         y="265.05701"
         id="use432"
         width="100%"
         height="100%" />
    </g>
    <g
       style="fill:#000000;fill-opacity:1"
       id="g438">
      <use
         xlink:href="#glyph0-2"
         x="196.916"
         y="265.05701"
         id="use436"
         width="100%"
         height="100%" />
    </g>
    <g
       style="fill:#000000;fill-opacity:1"
       id="g442">
      <use
         xlink:href="#glyph0-1"
         x="219.60899"
         y="265.05701"
         id="use440"
         width="100%"
         height="100%" />
    </g>
    <g
       style="fill:#000000;fill-opacity:1"
       id="g446">
      <use
         xlink:href="#glyph0-4"
         x="234.55299"
         y="265.05701"
         id="use444"
         width="100%"
         height="100%" />
    </g>
    <g
       style="fill:#000000;fill-opacity:1"
       id="g450">
      <use
         xlink:href="#glyph0-4"
         x="272.79501"
         y="265.05701"
         id="use448"
         width="100%"
         height="100%" />
    </g>
    <g
       style="fill:#000000;fill-opacity:1"
       id="g454">
      <use
         xlink:href="#glyph0-4"
         x="300.46899"
         y="265.05701"
         id="use452"
         width="100%"
         height="100%" />
    </g>
    <g
       style="fill:#000000;fill-opacity:1"
       id="g458">
      <use
         xlink:href="#glyph0-3"
         x="323.16199"
         y="265.05701"
         id="use456"
         width="100%"
         height="100%" />
    </g>
    <g
       style="fill:#000000;fill-opacity:1"
       id="g462">
      <use
         xlink:href="#glyph0-4"
         x="345.854"
         y="265.05701"
         id="use460"
         width="100%"
         height="100%" />
    </g>
    <g
       style="fill:#000000;fill-opacity:1"
       id="g466">
      <use
         xlink:href="#glyph1-1"
         x="366.17899"
         y="265.05701"
         id="use464"
         width="100%"
         height="100%" />
    </g>
    <g
       style="fill:#000000;fill-opacity:1"
       id="g470">
      <use
         xlink:href="#glyph0-8"
         x="373.927"
         y="265.05701"
         id="use468"
         width="100%"
         height="100%" />
    </g>
    <g
       style="fill:#000000;fill-opacity:1"
       id="g474">
      <use
         xlink:href="#glyph0-4"
         x="181.97301"
         y="277.01199"
         id="use472"
         width="100%"
         height="100%" />
    </g>
    <g
       style="fill:#000000;fill-opacity:1"
       id="g478">
      <use
         xlink:href="#glyph0-4"
         x="196.916"
         y="277.01199"
         id="use476"
         width="100%"
         height="100%" />
    </g>
    <g
       style="fill:#000000;fill-opacity:1"
       id="g482">
      <use
         xlink:href="#glyph0-4"
         x="219.60899"
         y="277.01199"
         id="use480"
         width="100%"
         height="100%" />
    </g>
    <g
       style="fill:#000000;fill-opacity:1"
       id="g486">
      <use
         xlink:href="#glyph0-1"
         x="234.55299"
         y="277.01199"
         id="use484"
         width="100%"
         height="100%" />
    </g>
    <g
       style="fill:#000000;fill-opacity:1"
       id="g490">
      <use
         xlink:href="#glyph0-4"
         x="272.79501"
         y="277.01199"
         id="use488"
         width="100%"
         height="100%" />
    </g>
    <g
       style="fill:#000000;fill-opacity:1"
       id="g494">
      <use
         xlink:href="#glyph0-4"
         x="300.46899"
         y="277.01199"
         id="use492"
         width="100%"
         height="100%" />
    </g>
    <g
       style="fill:#000000;fill-opacity:1"
       id="g498">
      <use
         xlink:href="#glyph0-3"
         x="323.16199"
         y="277.01199"
         id="use496"
         width="100%"
         height="100%" />
    </g>
    <g
       style="fill:#000000;fill-opacity:1"
       id="g502">
      <use
         xlink:href="#glyph1-1"
         x="338.10599"
         y="277.01199"
         id="use500"
         width="100%"
         height="100%" />
    </g>
    <g
       style="fill:#000000;fill-opacity:1"
       id="g506">
      <use
         xlink:href="#glyph0-3"
         x="345.85501"
         y="277.01199"
         id="use504"
         width="100%"
         height="100%" />
    </g>
    <g
       style="fill:#000000;fill-opacity:1"
       id="g510">
      <use
         xlink:href="#glyph1-1"
         x="366.17899"
         y="277.01199"
         id="use508"
         width="100%"
         height="100%" />
    </g>
    <g
       style="fill:#000000;fill-opacity:1"
       id="g514">
      <use
         xlink:href="#glyph0-5"
         x="373.927"
         y="277.01199"
         id="use512"
         width="100%"
         height="100%" />
    </g>
    <g
       style="fill:#000000;fill-opacity:1"
       id="g518">
      <use
         xlink:href="#glyph0-1"
         x="181.97301"
         y="294.63699"
         id="use516"
         width="100%"
         height="100%" />
    </g>
    <g
       style="fill:#000000;fill-opacity:1"
       id="g522">
      <use
         xlink:href="#glyph0-4"
         x="196.916"
         y="294.63699"
         id="use520"
         width="100%"
         height="100%" />
    </g>
    <g
       style="fill:#000000;fill-opacity:1"
       id="g526">
      <use
         xlink:href="#glyph0-4"
         x="219.60899"
         y="294.63699"
         id="use524"
         width="100%"
         height="100%" />
    </g>
    <g
       style="fill:#000000;fill-opacity:1"
       id="g530">
      <use
         xlink:href="#glyph0-4"
         x="234.55299"
         y="294.63699"
         id="use528"
         width="100%"
         height="100%" />
    </g>
    <g
       style="fill:#000000;fill-opacity:1"
       id="g534">
      <use
         xlink:href="#glyph0-1"
         x="272.79501"
         y="294.63699"
         id="use532"
         width="100%"
         height="100%" />
    </g>
    <g
       style="fill:#000000;fill-opacity:1"
       id="g538">
      <use
         xlink:href="#glyph0-2"
         x="300.46899"
         y="294.63699"
         id="use536"
         width="100%"
         height="100%" />
    </g>
    <g
       style="fill:#000000;fill-opacity:1"
       id="g542">
      <use
         xlink:href="#glyph0-3"
         x="323.16199"
         y="294.63699"
         id="use540"
         width="100%"
         height="100%" />
    </g>
    <g
       style="fill:#000000;fill-opacity:1"
       id="g546">
      <use
         xlink:href="#glyph0-3"
         x="345.854"
         y="294.63699"
         id="use544"
         width="100%"
         height="100%" />
    </g>
    <g
       style="fill:#000000;fill-opacity:1"
       id="g550">
      <use
         xlink:href="#glyph1-1"
         x="366.17899"
         y="294.63699"
         id="use548"
         width="100%"
         height="100%" />
    </g>
    <g
       style="fill:#000000;fill-opacity:1"
       id="g554">
      <use
         xlink:href="#glyph0-2"
         x="373.927"
         y="294.63699"
         id="use552"
         width="100%"
         height="100%" />
    </g>
    <g
       style="fill:#000000;fill-opacity:1"
       id="g558">
      <use
         xlink:href="#glyph0-4"
         x="181.97301"
         y="306.59201"
         id="use556"
         width="100%"
         height="100%" />
    </g>
    <g
       style="fill:#000000;fill-opacity:1"
       id="g562">
      <use
         xlink:href="#glyph0-1"
         x="196.916"
         y="306.59201"
         id="use560"
         width="100%"
         height="100%" />
    </g>
    <g
       style="fill:#000000;fill-opacity:1"
       id="g566">
      <use
         xlink:href="#glyph0-4"
         x="219.60899"
         y="306.59201"
         id="use564"
         width="100%"
         height="100%" />
    </g>
    <g
       style="fill:#000000;fill-opacity:1"
       id="g570">
      <use
         xlink:href="#glyph0-4"
         x="234.55299"
         y="306.59201"
         id="use568"
         width="100%"
         height="100%" />
    </g>
    <g
       style="fill:#000000;fill-opacity:1"
       id="g574">
      <use
         xlink:href="#glyph0-4"
         x="272.79501"
         y="306.59201"
         id="use572"
         width="100%"
         height="100%" />
    </g>
    <g
       style="fill:#000000;fill-opacity:1"
       id="g578">
      <use
         xlink:href="#glyph0-2"
         x="300.46899"
         y="306.59201"
         id="use576"
         width="100%"
         height="100%" />
    </g>
    <g
       style="fill:#000000;fill-opacity:1"
       id="g582">
      <use
         xlink:href="#glyph1-1"
         x="315.41299"
         y="306.59201"
         id="use580"
         width="100%"
         height="100%" />
    </g>
    <g
       style="fill:#000000;fill-opacity:1"
       id="g586">
      <use
         xlink:href="#glyph0-5"
         x="323.16199"
         y="306.59201"
         id="use584"
         width="100%"
         height="100%" />
    </g>
    <g
       style="fill:#000000;fill-opacity:1"
       id="g590">
      <use
         xlink:href="#glyph0-4"
         x="345.854"
         y="306.59201"
         id="use588"
         width="100%"
         height="100%" />
    </g>
    <g
       style="fill:#000000;fill-opacity:1"
       id="g594">
      <use
         xlink:href="#glyph0-6"
         x="373.927"
         y="306.59201"
         id="use592"
         width="100%"
         height="100%" />
    </g>
    <g
       style="fill:#000000;fill-opacity:1"
       id="g598">
      <use
         xlink:href="#glyph0-4"
         x="181.97301"
         y="318.547"
         id="use596"
         width="100%"
         height="100%" />
    </g>
    <g
       style="fill:#000000;fill-opacity:1"
       id="g602">
      <use
         xlink:href="#glyph0-4"
         x="196.916"
         y="318.547"
         id="use600"
         width="100%"
         height="100%" />
    </g>
    <g
       style="fill:#000000;fill-opacity:1"
       id="g606">
      <use
         xlink:href="#glyph0-1"
         x="219.60899"
         y="318.547"
         id="use604"
         width="100%"
         height="100%" />
    </g>
    <g
       style="fill:#000000;fill-opacity:1"
       id="g610">
      <use
         xlink:href="#glyph0-4"
         x="234.55299"
         y="318.547"
         id="use608"
         width="100%"
         height="100%" />
    </g>
    <g
       style="fill:#000000;fill-opacity:1"
       id="g614">
      <use
         xlink:href="#glyph0-4"
         x="272.79501"
         y="318.547"
         id="use612"
         width="100%"
         height="100%" />
    </g>
    <g
       style="fill:#000000;fill-opacity:1"
       id="g618">
      <use
         xlink:href="#glyph0-4"
         x="300.46899"
         y="318.547"
         id="use616"
         width="100%"
         height="100%" />
    </g>
    <g
       style="fill:#000000;fill-opacity:1"
       id="g622">
      <use
         xlink:href="#glyph0-3"
         x="323.16199"
         y="318.547"
         id="use620"
         width="100%"
         height="100%" />
    </g>
    <g
       style="fill:#000000;fill-opacity:1"
       id="g626">
      <use
         xlink:href="#glyph0-4"
         x="345.854"
         y="318.547"
         id="use624"
         width="100%"
         height="100%" />
    </g>
    <g
       style="fill:#000000;fill-opacity:1"
       id="g630">
      <use
         xlink:href="#glyph1-1"
         x="366.17899"
         y="318.547"
         id="use628"
         width="100%"
         height="100%" />
    </g>
    <g
       style="fill:#000000;fill-opacity:1"
       id="g634">
      <use
         xlink:href="#glyph0-8"
         x="373.927"
         y="318.547"
         id="use632"
         width="100%"
         height="100%" />
    </g>
    <g
       style="fill:#000000;fill-opacity:1"
       id="g638">
      <use
         xlink:href="#glyph0-4"
         x="181.97301"
         y="330.50201"
         id="use636"
         width="100%"
         height="100%" />
    </g>
    <g
       style="fill:#000000;fill-opacity:1"
       id="g642">
      <use
         xlink:href="#glyph0-4"
         x="196.916"
         y="330.50201"
         id="use640"
         width="100%"
         height="100%" />
    </g>
    <g
       style="fill:#000000;fill-opacity:1"
       id="g646">
      <use
         xlink:href="#glyph1-1"
         x="211.86099"
         y="330.50201"
         id="use644"
         width="100%"
         height="100%" />
    </g>
    <g
       style="fill:#000000;fill-opacity:1"
       id="g650">
      <use
         xlink:href="#glyph0-1"
         x="219.61"
         y="330.50201"
         id="use648"
         width="100%"
         height="100%" />
    </g>
    <g
       style="fill:#000000;fill-opacity:1"
       id="g654">
      <use
         xlink:href="#glyph0-1"
         x="234.55299"
         y="330.50201"
         id="use652"
         width="100%"
         height="100%" />
    </g>
    <g
       style="fill:#000000;fill-opacity:1"
       id="g658">
      <use
         xlink:href="#glyph0-4"
         x="272.79501"
         y="330.50201"
         id="use656"
         width="100%"
         height="100%" />
    </g>
    <g
       style="fill:#000000;fill-opacity:1"
       id="g662">
      <use
         xlink:href="#glyph0-4"
         x="300.46899"
         y="330.50201"
         id="use660"
         width="100%"
         height="100%" />
    </g>
    <g
       style="fill:#000000;fill-opacity:1"
       id="g666">
      <use
         xlink:href="#glyph0-4"
         x="323.16199"
         y="330.50201"
         id="use664"
         width="100%"
         height="100%" />
    </g>
    <g
       style="fill:#000000;fill-opacity:1"
       id="g670">
      <use
         xlink:href="#glyph1-1"
         x="338.10599"
         y="330.50201"
         id="use668"
         width="100%"
         height="100%" />
    </g>
    <g
       style="fill:#000000;fill-opacity:1"
       id="g674">
      <use
         xlink:href="#glyph0-3"
         x="345.85501"
         y="330.50201"
         id="use672"
         width="100%"
         height="100%" />
    </g>
    <g
       style="fill:#000000;fill-opacity:1"
       id="g678">
      <use
         xlink:href="#glyph1-1"
         x="366.17899"
         y="330.50201"
         id="use676"
         width="100%"
         height="100%" />
    </g>
    <g
       style="fill:#000000;fill-opacity:1"
       id="g682">
      <use
         xlink:href="#glyph0-3"
         x="373.927"
         y="330.50201"
         id="use680"
         width="100%"
         height="100%" />
    </g>
    <path
       style="fill:none;stroke:#000000;stroke-width:0.43834;stroke-linecap:butt;stroke-linejoin:miter;stroke-miterlimit:10;stroke-opacity:1"
       d="M -22.893375,106.83634 V 59.016031"
       transform="matrix(1,0,0,-1,378.909,232.434)"
       id="path684" />
    <g
       style="fill:#000000;fill-opacity:1"
       id="g688">
      <use
         xlink:href="#glyph2-1"
         x="255.91"
         y="125.996"
         id="use686"
         width="100%"
         height="100%" />
    </g>
    <g
       style="fill:#000000;fill-opacity:1"
       id="g692">
      <use
         xlink:href="#glyph2-2"
         x="255.91"
         y="143.53101"
         id="use690"
         width="100%"
         height="100%" />
    </g>
    <g
       style="fill:#000000;fill-opacity:1"
       id="g696">
      <use
         xlink:href="#glyph2-2"
         x="255.91"
         y="149.509"
         id="use694"
         width="100%"
         height="100%" />
    </g>
    <g
       style="fill:#000000;fill-opacity:1"
       id="g700">
      <use
         xlink:href="#glyph2-3"
         x="255.91"
         y="155.88499"
         id="use698"
         width="100%"
         height="100%" />
    </g>
    <g
       style="fill:#000000;fill-opacity:1"
       id="g704">
      <use
         xlink:href="#glyph2-4"
         x="379.327"
         y="125.996"
         id="use702"
         width="100%"
         height="100%" />
    </g>
    <g
       style="fill:#000000;fill-opacity:1"
       id="g708">
      <use
         xlink:href="#glyph2-5"
         x="379.327"
         y="143.53101"
         id="use706"
         width="100%"
         height="100%" />
    </g>
    <g
       style="fill:#000000;fill-opacity:1"
       id="g712">
      <use
         xlink:href="#glyph2-5"
         x="379.327"
         y="149.509"
         id="use710"
         width="100%"
         height="100%" />
    </g>
    <g
       style="fill:#000000;fill-opacity:1"
       id="g716">
      <use
         xlink:href="#glyph2-6"
         x="379.327"
         y="155.88499"
         id="use714"
         width="100%"
         height="100%" />
    </g>
    <g
       style="fill:#000000;fill-opacity:1"
       id="g720">
      <use
         xlink:href="#glyph2-1"
         x="165.086"
         y="179.48599"
         id="use718"
         width="100%"
         height="100%" />
    </g>
    <g
       style="fill:#000000;fill-opacity:1"
       id="g724">
      <use
         xlink:href="#glyph2-2"
         x="165.086"
         y="197.021"
         id="use722"
         width="100%"
         height="100%" />
    </g>
    <g
       style="fill:#000000;fill-opacity:1"
       id="g728">
      <use
         xlink:href="#glyph2-2"
         x="165.086"
         y="202.99899"
         id="use726"
         width="100%"
         height="100%" />
    </g>
    <g
       style="fill:#000000;fill-opacity:1"
       id="g732">
      <use
         xlink:href="#glyph2-3"
         x="165.086"
         y="209.375"
         id="use730"
         width="100%"
         height="100%" />
    </g>
    <g
       style="fill:#000000;fill-opacity:1"
       id="g736">
      <use
         xlink:href="#glyph2-4"
         x="239.952"
         y="179.48599"
         id="use734"
         width="100%"
         height="100%" />
    </g>
    <g
       style="fill:#000000;fill-opacity:1"
       id="g740">
      <use
         xlink:href="#glyph2-5"
         x="239.952"
         y="197.021"
         id="use738"
         width="100%"
         height="100%" />
    </g>
    <g
       style="fill:#000000;fill-opacity:1"
       id="g744">
      <use
         xlink:href="#glyph2-5"
         x="239.952"
         y="202.99899"
         id="use742"
         width="100%"
         height="100%" />
    </g>
    <g
       style="fill:#000000;fill-opacity:1"
       id="g748">
      <use
         xlink:href="#glyph2-6"
         x="239.952"
         y="209.375"
         id="use746"
         width="100%"
         height="100%" />
    </g>
    <path
       style="fill:none;stroke:#000000;stroke-width:0.43834;stroke-linecap:butt;stroke-linejoin:miter;stroke-miterlimit:10;stroke-opacity:1"
       d="M -22.893375,53.344156 V 5.523844"
       transform="matrix(1,0,0,-1,378.909,232.434)"
       id="path750" />
    <g
       style="fill:#000000;fill-opacity:1"
       id="g754">
      <use
         xlink:href="#glyph2-1"
         x="255.91"
         y="179.48599"
         id="use752"
         width="100%"
         height="100%" />
    </g>
    <g
       style="fill:#000000;fill-opacity:1"
       id="g758">
      <use
         xlink:href="#glyph2-2"
         x="255.91"
         y="197.021"
         id="use756"
         width="100%"
         height="100%" />
    </g>
    <g
       style="fill:#000000;fill-opacity:1"
       id="g762">
      <use
         xlink:href="#glyph2-2"
         x="255.91"
         y="202.99899"
         id="use760"
         width="100%"
         height="100%" />
    </g>
    <g
       style="fill:#000000;fill-opacity:1"
       id="g766">
      <use
         xlink:href="#glyph2-3"
         x="255.91"
         y="209.375"
         id="use764"
         width="100%"
         height="100%" />
    </g>
    <g
       style="fill:#000000;fill-opacity:1"
       id="g770">
      <use
         xlink:href="#glyph2-4"
         x="379.327"
         y="179.48599"
         id="use768"
         width="100%"
         height="100%" />
    </g>
    <g
       style="fill:#000000;fill-opacity:1"
       id="g774">
      <use
         xlink:href="#glyph2-5"
         x="379.327"
         y="197.021"
         id="use772"
         width="100%"
         height="100%" />
    </g>
    <g
       style="fill:#000000;fill-opacity:1"
       id="g778">
      <use
         xlink:href="#glyph2-5"
         x="379.327"
         y="202.99899"
         id="use776"
         width="100%"
         height="100%" />
    </g>
    <g
       style="fill:#000000;fill-opacity:1"
       id="g782">
      <use
         xlink:href="#glyph2-6"
         x="379.327"
         y="209.375"
         id="use780"
         width="100%"
         height="100%" />
    </g>
    <g
       style="fill:#000000;fill-opacity:1"
       id="g786">
      <use
         xlink:href="#glyph2-1"
         x="165.086"
         y="232.97701"
         id="use784"
         width="100%"
         height="100%" />
    </g>
    <g
       style="fill:#000000;fill-opacity:1"
       id="g790">
      <use
         xlink:href="#glyph2-2"
         x="165.086"
         y="250.51199"
         id="use788"
         width="100%"
         height="100%" />
    </g>
    <g
       style="fill:#000000;fill-opacity:1"
       id="g794">
      <use
         xlink:href="#glyph2-2"
         x="165.086"
         y="256.48999"
         id="use792"
         width="100%"
         height="100%" />
    </g>
    <g
       style="fill:#000000;fill-opacity:1"
       id="g798">
      <use
         xlink:href="#glyph2-3"
         x="165.086"
         y="262.866"
         id="use796"
         width="100%"
         height="100%" />
    </g>
    <g
       style="fill:#000000;fill-opacity:1"
       id="g802">
      <use
         xlink:href="#glyph2-4"
         x="239.952"
         y="232.97701"
         id="use800"
         width="100%"
         height="100%" />
    </g>
    <g
       style="fill:#000000;fill-opacity:1"
       id="g806">
      <use
         xlink:href="#glyph2-5"
         x="239.952"
         y="250.51199"
         id="use804"
         width="100%"
         height="100%" />
    </g>
    <g
       style="fill:#000000;fill-opacity:1"
       id="g810">
      <use
         xlink:href="#glyph2-5"
         x="239.952"
         y="256.48999"
         id="use808"
         width="100%"
         height="100%" />
    </g>
    <g
       style="fill:#000000;fill-opacity:1"
       id="g814">
      <use
         xlink:href="#glyph2-6"
         x="239.952"
         y="262.866"
         id="use812"
         width="100%"
         height="100%" />
    </g>
    <path
       style="fill:none;stroke:#000000;stroke-width:0.43834;stroke-linecap:butt;stroke-linejoin:miter;stroke-miterlimit:10;stroke-opacity:1"
       d="M -22.893375,-0.144125 V -47.964438"
       transform="matrix(1,0,0,-1,378.909,232.434)"
       id="path816" />
    <g
       style="fill:#000000;fill-opacity:1"
       id="g820">
      <use
         xlink:href="#glyph2-1"
         x="255.91"
         y="232.97701"
         id="use818"
         width="100%"
         height="100%" />
    </g>
    <g
       style="fill:#000000;fill-opacity:1"
       id="g824">
      <use
         xlink:href="#glyph2-2"
         x="255.91"
         y="250.51199"
         id="use822"
         width="100%"
         height="100%" />
    </g>
    <g
       style="fill:#000000;fill-opacity:1"
       id="g828">
      <use
         xlink:href="#glyph2-2"
         x="255.91"
         y="256.48999"
         id="use826"
         width="100%"
         height="100%" />
    </g>
    <g
       style="fill:#000000;fill-opacity:1"
       id="g832">
      <use
         xlink:href="#glyph2-3"
         x="255.91"
         y="262.866"
         id="use830"
         width="100%"
         height="100%" />
    </g>
    <g
       style="fill:#000000;fill-opacity:1"
       id="g836">
      <use
         xlink:href="#glyph2-4"
         x="379.327"
         y="232.97701"
         id="use834"
         width="100%"
         height="100%" />
    </g>
    <g
       style="fill:#000000;fill-opacity:1"
       id="g840">
      <use
         xlink:href="#glyph2-5"
         x="379.327"
         y="250.51199"
         id="use838"
         width="100%"
         height="100%" />
    </g>
    <g
       style="fill:#000000;fill-opacity:1"
       id="g844">
      <use
         xlink:href="#glyph2-5"
         x="379.327"
         y="256.48999"
         id="use842"
         width="100%"
         height="100%" />
    </g>
    <g
       style="fill:#000000;fill-opacity:1"
       id="g848">
      <use
         xlink:href="#glyph2-6"
         x="379.327"
         y="262.866"
         id="use846"
         width="100%"
         height="100%" />
    </g>
    <g
       style="fill:#000000;fill-opacity:1"
       id="g852">
      <use
         xlink:href="#glyph2-1"
         x="165.086"
         y="286.46799"
         id="use850"
         width="100%"
         height="100%" />
    </g>
    <g
       style="fill:#000000;fill-opacity:1"
       id="g856">
      <use
         xlink:href="#glyph2-2"
         x="165.086"
         y="304.00299"
         id="use854"
         width="100%"
         height="100%" />
    </g>
    <g
       style="fill:#000000;fill-opacity:1"
       id="g860">
      <use
         xlink:href="#glyph2-2"
         x="165.086"
         y="309.98099"
         id="use858"
         width="100%"
         height="100%" />
    </g>
    <g
       style="fill:#000000;fill-opacity:1"
       id="g864">
      <use
         xlink:href="#glyph2-3"
         x="165.086"
         y="316.35699"
         id="use862"
         width="100%"
         height="100%" />
    </g>
    <g
       style="fill:#000000;fill-opacity:1"
       id="g868">
      <use
         xlink:href="#glyph2-4"
         x="239.952"
         y="286.46799"
         id="use866"
         width="100%"
         height="100%" />
    </g>
    <g
       style="fill:#000000;fill-opacity:1"
       id="g872">
      <use
         xlink:href="#glyph2-5"
         x="239.952"
         y="304.00299"
         id="use870"
         width="100%"
         height="100%" />
    </g>
    <g
       style="fill:#000000;fill-opacity:1"
       id="g876">
      <use
         xlink:href="#glyph2-5"
         x="239.952"
         y="309.98099"
         id="use874"
         width="100%"
         height="100%" />
    </g>
    <g
       style="fill:#000000;fill-opacity:1"
       id="g880">
      <use
         xlink:href="#glyph2-6"
         x="239.952"
         y="316.35699"
         id="use878"
         width="100%"
         height="100%" />
    </g>
    <path
       style="fill:none;stroke:#000000;stroke-width:0.43834;stroke-linecap:butt;stroke-linejoin:miter;stroke-miterlimit:10;stroke-opacity:1"
       d="M -22.893375,-53.636313 V -101.45663"
       transform="matrix(1,0,0,-1,378.909,232.434)"
       id="path882" />
    <g
       style="fill:#000000;fill-opacity:1"
       id="g886">
      <use
         xlink:href="#glyph2-1"
         x="255.91"
         y="286.46799"
         id="use884"
         width="100%"
         height="100%" />
    </g>
    <g
       style="fill:#000000;fill-opacity:1"
       id="g890">
      <use
         xlink:href="#glyph2-2"
         x="255.91"
         y="304.00299"
         id="use888"
         width="100%"
         height="100%" />
    </g>
    <g
       style="fill:#000000;fill-opacity:1"
       id="g894">
      <use
         xlink:href="#glyph2-2"
         x="255.91"
         y="309.98099"
         id="use892"
         width="100%"
         height="100%" />
    </g>
    <g
       style="fill:#000000;fill-opacity:1"
       id="g898">
      <use
         xlink:href="#glyph2-3"
         x="255.91"
         y="316.35699"
         id="use896"
         width="100%"
         height="100%" />
    </g>
    <g
       style="fill:#000000;fill-opacity:1"
       id="g902">
      <use
         xlink:href="#glyph2-4"
         x="379.327"
         y="286.46799"
         id="use900"
         width="100%"
         height="100%" />
    </g>
    <g
       style="fill:#000000;fill-opacity:1"
       id="g906">
      <use
         xlink:href="#glyph2-5"
         x="379.327"
         y="304.00299"
         id="use904"
         width="100%"
         height="100%" />
    </g>
    <g
       style="fill:#000000;fill-opacity:1"
       id="g910">
      <use
         xlink:href="#glyph2-5"
         x="379.327"
         y="309.98099"
         id="use908"
         width="100%"
         height="100%" />
    </g>
    <g
       style="fill:#000000;fill-opacity:1"
       id="g914">
      <use
         xlink:href="#glyph2-6"
         x="379.327"
         y="316.35699"
         id="use912"
         width="100%"
         height="100%" />
    </g>
    <path
       style="fill:none;stroke:#ff0000;stroke-width:0.3985;stroke-linecap:butt;stroke-linejoin:miter;stroke-miterlimit:10;stroke-opacity:1"
       d="m -114.06134,-65.987875 h 20.546871 v -11.957031 h 27.671875 v -11.953125 h 22.695313 V -101.45663 H 0.200375"
       transform="matrix(1,0,0,-1,378.909,232.434)"
       id="path916" />
  </g>
</svg>
